,distance,speed,rpm,breakReleased,time
0,0.0,11.94,2121,True,0.0
1,2.63,11.94,2120,True,0.22
2,4.83,11.94,2127,True,0.4
3,7.19,12.22,2134,True,0.6
4,9.76,12.22,2139,True,0.81
5,12.33,12.22,2143,True,1.02
6,14.91,12.22,2154,True,1.23
7,17.37,12.22,2155,True,1.43
8,19.81,12.22,2164,True,1.63
9,22.32,12.22,2163,True,1.83
10,24.79,12.22,2171,True,2.04
11,27.31,12.22,2173,True,2.24
12,29.84,12.22,2172,True,2.45
13,32.25,12.22,2177,True,2.65
14,34.9,12.5,2183,True,2.86
15,37.37,12.22,2161,True,3.06
16,42.19,12.22,2154,True,3.45
17,44.61,12.22,2152,True,3.65
18,46.22,11.94,2122,True,3.79
19,47.2,11.94,2107,True,3.87
20,49.84,11.94,2103,True,4.09
21,52.11,11.67,2083,True,4.29
22,54.37,11.67,2063,True,4.48
23,56.76,11.67,2050,True,4.68
24,59.22,11.67,2038,True,4.89
25,61.54,11.39,2021,True,5.1
26,63.89,11.39,2004,True,5.31
27,66.24,11.39,1992,True,5.51
28,68.42,11.11,1981,True,5.71
29,70.66,11.11,1967,True,5.91
30,72.87,11.11,1972,True,6.11
31,75.29,11.11,1966,True,6.33
32,77.52,11.11,1973,True,6.53
33,79.76,11.11,1964,True,6.73
34,82.05,11.11,1970,True,6.94
35,84.36,11.11,1985,True,7.14
36,86.69,11.11,1979,True,7.35
37,89.0,11.39,1983,True,7.56
38,91.26,11.39,1996,True,7.75
39,93.65,11.39,2008,True,7.96
40,96.06,11.39,2014,True,8.18
41,100.21,11.39,1997,True,8.54
42,101.87,11.39,2030,True,8.69
43,103.48,11.39,2034,True,8.83
44,105.35,11.67,2035,True,8.99
45,107.95,11.67,2027,True,9.21
46,110.06,11.39,2020,True,9.39
47,112.42,11.39,1999,True,9.6
48,114.66,11.39,2005,True,9.8
49,116.95,11.11,1971,True,10.01
50,119.21,11.11,1963,True,10.21
51,121.38,11.11,1948,True,10.4
52,123.59,10.83,1920,True,10.61
53,125.89,10.83,1901,True,10.82
54,127.92,10.56,1875,True,11.01
55,130.25,10.56,1862,True,11.23
56,132.34,10.28,1845,True,11.44
57,134.28,10.28,1824,True,11.62
58,136.49,10.28,1804,True,11.84
59,138.54,10.0,1778,True,12.04
60,140.66,10.0,1787,True,12.26
61,142.73,10.0,1756,True,12.46
62,144.73,10.0,1769,True,12.66
63,146.63,10.0,1742,True,12.85
64,148.79,10.0,1744,True,13.07
65,151.99,10.0,1750,True,13.39
66,154.06,10.0,1750,True,13.6
67,156.04,10.0,1759,True,13.79
68,156.92,10.0,1772,True,13.88
69,159.06,10.0,1782,True,14.1
70,161.26,10.0,1797,True,14.32
71,163.11,10.28,1813,True,14.5
72,165.22,10.28,1833,True,14.7
73,167.39,10.56,1857,True,14.91
74,169.7,10.83,1883,True,15.12
75,171.84,10.83,1915,True,15.32
76,174.13,11.11,1944,True,15.52
77,176.32,11.11,1961,True,15.72
78,178.69,11.39,2000,True,15.93
79,180.97,11.39,2022,True,16.13
80,183.4,11.67,2049,True,16.34
81,185.56,11.67,2070,True,16.52
82,188.21,11.94,2107,True,16.74
83,190.73,12.22,2129,True,16.95
84,193.27,12.22,2163,True,17.16
85,195.86,12.5,2192,True,17.37
86,198.43,12.78,2225,True,17.57
87,201.04,12.78,2244,True,17.77
88,203.73,13.06,2298,True,17.98
89,206.42,13.06,2305,True,18.18
90,211.22,13.33,2353,True,18.54
91,214.26,13.61,2382,True,18.77
92,215.05,13.61,2409,True,18.82
93,217.56,13.89,2437,True,19.0
94,220.39,14.17,2460,True,19.2
95,223.51,14.17,2495,True,19.42
96,226.28,14.44,2520,True,19.62
97,229.26,14.44,2548,True,19.82
98,232.29,14.72,2578,True,20.03
99,235.32,14.72,2601,True,20.23
100,238.35,15.0,2630,True,20.44
101,241.28,15.28,2666,True,20.63
102,244.5,15.28,2692,True,20.84
103,247.64,15.56,2720,True,21.04
104,250.91,15.56,2762,True,21.25
105,254.03,15.83,2792,True,21.45
106,257.38,16.11,2815,True,21.66
107,260.73,16.11,2845,True,21.86
108,263.81,16.39,2881,True,22.05
109,267.37,16.39,2905,True,22.27
110,270.82,16.67,2937,True,22.48
111,274.21,16.94,2959,True,22.68
112,277.65,16.94,2988,True,22.88
113,281.2,17.22,3011,True,23.09
114,286.92,17.22,3048,True,23.42
115,291.76,17.22,2748,True,23.7
116,293.98,17.5,2353,True,23.83
117,295.07,17.5,2175,True,23.89
118,298.92,17.5,2187,True,24.11
119,302.51,17.5,2196,True,24.31
120,306.17,17.78,2209,True,24.52
121,309.71,17.78,2216,True,24.72
122,313.3,17.78,2231,True,24.92
123,317.06,18.06,2244,True,25.13
124,320.76,18.06,2256,True,25.33
125,324.41,18.06,2267,True,25.53
126,328.15,18.33,2282,True,25.74
127,331.63,18.33,2298,True,25.93
128,335.77,18.33,2311,True,26.15
129,339.66,18.61,2320,True,26.36
130,343.42,18.61,2333,True,26.57
131,347.16,18.89,2348,True,26.76
132,351.01,18.89,2359,True,26.97
133,354.98,18.89,2373,True,27.18
134,358.89,19.17,2391,True,27.38
135,362.9,19.17,2405,True,27.59
136,366.69,19.44,2420,True,27.79
137,370.73,19.44,2437,True,27.99
138,374.58,19.72,2451,True,28.19
139,381.21,19.72,2473,True,28.52
140,386.95,20.0,2486,True,28.81
141,387.55,20.0,2504,True,28.84
142,390.89,20.0,2508,True,29.01
143,395.07,20.28,2518,True,29.21
144,399.25,20.28,2523,True,29.42
145,403.37,20.28,2528,True,29.62
146,407.53,20.28,2500,True,29.83
147,411.32,20.28,2526,True,30.02
148,415.86,20.28,2526,True,30.24
149,420.0,20.28,2535,True,30.44
150,424.12,20.28,2522,True,30.65
151,428.22,20.28,2515,True,30.85
152,432.4,20.0,2510,True,31.06
153,436.6,20.0,2505,True,31.27
154,440.7,20.0,2493,True,31.47
155,444.7,20.0,2484,True,31.67
156,448.82,19.72,2473,True,31.88
157,452.8,19.72,2465,True,32.08
158,456.96,19.72,2456,True,32.29
159,460.95,19.44,2446,True,32.5
160,464.7,19.44,2437,True,32.69
161,468.63,19.44,2422,True,32.89
162,472.35,19.17,2415,True,33.09
163,479.73,19.17,2402,True,33.47
164,483.66,19.17,2396,True,33.68
165,487.03,19.17,2383,True,33.85
166,488.31,18.89,2376,True,33.92
167,492.26,18.89,2363,True,34.13
168,496.21,18.89,2351,True,34.34
169,500.01,18.89,2349,True,34.54
170,503.71,18.61,2334,True,34.74
171,507.47,18.61,2327,True,34.94
172,511.32,18.61,2314,True,35.15
173,515.13,18.33,2307,True,35.36
174,518.59,18.33,2302,True,35.55
175,522.48,18.33,2288,True,35.76
176,526.35,18.33,2283,True,35.97
177,530.11,18.06,2275,True,36.18
178,533.78,18.06,2264,True,36.38
179,537.46,18.06,2255,True,36.58
180,541.02,18.06,2242,True,36.78
181,544.63,17.78,2239,True,36.98
182,548.47,17.78,2229,True,37.2
183,552.15,17.78,2218,True,37.41
184,555.51,17.78,2213,True,37.6
185,559.24,17.5,2197,True,37.81
186,562.92,17.5,2191,True,38.02
187,566.49,17.5,2183,True,38.22
188,574.28,17.5,2171,True,38.67
189,576.57,17.22,2163,True,38.8
190,577.81,17.22,2153,True,38.87
191,580.79,17.22,2145,True,39.05
192,584.67,16.94,2139,True,39.28
193,587.72,16.94,2132,True,39.46
194,591.13,16.94,2163,True,39.66
195,594.69,16.94,2139,True,39.87
196,598.13,16.94,2136,True,40.07
197,601.5,16.94,2137,True,40.27
198,604.89,17.22,2144,True,40.47
199,608.47,17.22,2164,True,40.67
200,612.06,17.5,2170,True,40.88
201,615.7,17.5,2189,True,41.09
202,619.25,17.5,2205,True,41.29
203,623.0,17.78,2216,True,41.5
204,626.43,17.78,2234,True,41.69
205,630.11,18.06,2245,True,41.9
206,633.85,18.06,2260,True,42.1
207,637.57,18.33,2273,True,42.31
208,641.55,18.33,2289,True,42.52
209,645.11,18.33,2296,True,42.72
210,649.04,18.61,2313,True,42.93
211,652.63,18.61,2324,True,43.12
212,660.19,18.89,2340,True,43.52
213,662.97,18.89,2362,True,43.67
214,666.12,18.89,2373,True,43.84
215,668.21,19.17,2385,True,43.95
216,672.22,19.17,2394,True,44.15
217,676.15,19.17,2412,True,44.36
218,680.12,19.44,2427,True,44.56
219,683.91,19.44,2441,True,44.76
220,687.9,19.44,2447,True,44.96
221,692.06,19.72,2461,True,45.17
222,695.73,19.72,2472,True,45.36
223,700.15,20.0,2488,True,45.58
224,704.09,20.0,2502,True,45.78
225,708.17,20.0,2509,True,45.98
226,712.33,20.0,2642,True,46.19
227,716.17,20.0,2380,True,46.38
228,720.53,20.0,2002,True,46.6
229,724.51,20.0,2002,True,46.8
230,728.65,20.0,2037,True,47.01
231,732.83,20.0,2017,True,47.22
232,736.81,20.0,2012,True,47.41
233,740.81,20.0,2017,True,47.61
234,744.81,19.72,2027,True,47.82
235,748.95,19.72,2006,True,48.03
236,752.93,19.72,1999,True,48.23
237,760.03,19.72,1994,True,48.59
238,764.41,19.44,1990,True,48.81
239,764.57,19.44,1980,True,48.82
240,768.56,19.44,1977,True,49.03
241,772.93,19.44,1966,True,49.25
242,776.99,19.17,1958,True,49.46
243,780.9,19.17,1952,True,49.67
244,784.77,19.17,1946,True,49.87
245,788.62,19.17,1941,True,50.07
246,792.59,18.89,1935,True,50.28
247,796.54,18.89,1925,True,50.49
248,800.3,18.89,1925,True,50.69
249,804.17,18.89,1912,True,50.89
250,808.02,18.61,1905,True,51.1
251,811.87,18.61,1899,True,51.31
252,815.67,18.61,1892,True,51.51
253,819.26,18.61,1887,True,51.71
254,823.11,18.33,1879,True,51.92
255,827.03,18.33,1875,True,52.13
256,830.6,18.33,1864,True,52.32
257,834.41,18.33,1861,True,52.53
258,838.26,18.33,1857,True,52.74
259,841.91,18.06,1847,True,52.94
260,845.58,18.06,1843,True,53.15
261,851.32,18.06,1835,True,53.47
262,855.04,18.06,1831,True,53.67
263,858.06,17.78,1821,True,53.84
264,860.6,17.78,1815,True,53.98
265,863.84,17.78,1809,True,54.17
266,867.41,17.78,1801,True,54.37
267,871.18,17.78,1799,True,54.58
268,874.59,17.5,1790,True,54.77
269,878.28,17.5,1783,True,54.99
270,881.88,17.5,1778,True,55.19
271,885.36,17.5,1770,True,55.39
272,888.91,17.22,1765,True,55.6
273,891.94,17.22,1760,True,55.77
274,895.94,17.22,1753,True,56.0
275,899.4,17.22,1750,True,56.21
276,902.98,16.94,1740,True,56.42
277,906.35,16.94,1734,True,56.62
278,909.72,16.94,1727,True,56.81
279,913.31,16.94,1717,True,57.03
280,916.69,16.67,1714,True,57.23
281,920.11,16.67,1706,True,57.43
282,923.31,16.67,1704,True,57.63
283,927.14,16.67,1697,True,57.86
284,930.37,16.67,1689,True,58.05
285,934.84,16.39,1681,True,58.32
286,940.71,16.39,1675,True,58.68
287,942.94,16.39,1673,True,58.82
288,943.42,16.39,1661,True,58.85
289,947.14,16.39,1699,True,59.07
290,950.43,16.39,1645,True,59.27
291,953.75,16.11,1636,True,59.48
292,957.02,16.11,1649,True,59.68
293,960.05,16.11,1643,True,59.87
294,963.63,16.11,1645,True,60.09
295,967.03,16.11,1636,True,60.3
296,970.13,15.83,1626,True,60.5
297,973.31,15.83,1657,True,60.7
298,976.6,15.83,1637,True,60.91
299,979.78,15.83,1647,True,61.11
300,983.18,16.11,1641,True,61.32
301,986.48,16.11,1663,True,61.53
302,989.69,16.39,1649,True,61.72
303,992.95,16.39,1675,True,61.92
304,996.53,16.67,1690,True,62.14
305,999.91,16.67,1706,True,62.34
306,1003.47,16.94,1722,True,62.55
307,1006.79,17.22,1730,True,62.74
308,1010.37,17.22,1744,True,62.95
309,1014.01,17.5,1775,True,63.16
310,1021.58,17.78,1792,True,63.58
311,1024.0,17.78,1799,True,63.72
312,1026.02,18.06,1814,True,63.83
313,1028.55,18.06,1842,True,63.97
314,1032.4,18.33,1858,True,64.18
315,1036.1,18.33,1873,True,64.38
316,1039.88,18.61,1892,True,64.59
317,1043.41,18.89,1900,True,64.77
318,1047.19,18.89,1928,True,64.97
319,1051.35,19.17,1930,True,65.19
320,1055.39,19.44,1958,True,65.4
321,1059.28,19.44,1975,True,65.6
322,1063.28,19.72,1987,True,65.8
323,1067.42,20.0,2022,True,66.01
324,1071.54,20.0,2032,True,66.22
325,1075.68,20.28,2044,True,66.42
326,1079.78,20.28,2069,True,66.62
327,1084.04,20.56,2093,True,66.83
328,1088.19,20.56,2084,True,67.03
329,1092.44,20.83,2107,True,67.23
330,1096.81,20.83,2130,True,67.44
331,1101.07,21.11,2136,True,67.65
332,1105.33,21.11,2149,True,67.85
333,1109.95,21.39,2171,True,68.06
334,1117.31,21.39,2161,True,68.41
335,1122.25,21.67,2196,True,68.64
336,1126.17,21.67,2201,True,68.82
337,1127.38,21.67,2217,True,68.87
338,1131.88,21.94,2225,True,69.08
339,1136.42,21.94,2238,True,69.29
340,1140.98,22.22,2249,True,69.49
341,1145.36,22.22,2255,True,69.69
342,1149.72,22.22,2264,True,69.88
343,1154.6,22.5,2291,True,70.1
344,1159.26,22.5,2290,True,70.31
345,1163.93,22.78,2311,True,70.51
346,1168.35,22.78,2315,True,70.71
347,1173.12,23.06,2334,True,70.91
348,1177.87,23.06,2345,True,71.12
349,1182.6,23.06,2347,True,71.32
350,1187.38,23.33,2361,True,71.53
351,1191.98,23.33,2358,True,71.73
352,1196.95,23.33,2352,True,71.94
353,1201.59,23.33,2361,True,72.14
354,1206.29,23.06,2351,True,72.34
355,1211.1,23.33,2367,True,72.55
356,1215.64,23.06,2348,True,72.75
357,1220.54,23.33,2365,True,72.96
358,1225.73,23.06,2348,True,73.18
359,1235.18,23.06,2354,True,73.59
360,1238.34,23.06,2347,True,73.73
361,1240.53,23.06,2334,True,73.82
362,1243.9,22.78,2322,True,73.97
363,1248.16,22.78,2310,False,74.16
364,1252.95,22.5,2284,False,74.37
365,1257.48,22.22,2259,False,74.57
366,1261.96,21.94,2229,False,74.78
367,1266.34,21.67,2191,False,74.98
368,1270.77,21.39,2170,False,75.19
369,1274.92,20.83,2127,False,75.39
370,1279.07,20.56,2100,False,75.59
371,1283.13,20.28,2061,False,75.79
372,1286.99,20.0,2033,False,75.98
373,1291.19,19.72,2001,False,76.19
374,1295.12,19.44,1971,False,76.4
375,1298.88,19.17,1955,False,76.59
376,1302.87,19.17,1948,True,76.8
377,1307.39,19.17,1951,True,77.04
378,1310.74,19.17,1984,True,77.21
379,1314.61,19.44,2085,True,77.41
380,1318.52,19.44,2002,True,77.61
381,1322.39,19.72,2006,True,77.81
382,1326.71,20.0,2022,True,78.02
383,1330.87,20.28,2051,True,78.23
384,1338.72,20.56,2078,True,78.61
385,1341.43,20.56,2101,True,78.74
386,1343.93,20.83,2130,True,78.86
387,1347.52,21.11,2140,True,79.03
388,1352.4,21.39,2162,True,79.26
389,1356.72,21.39,2183,True,79.46
390,1360.81,21.67,2207,True,79.65
391,1365.24,21.94,2226,True,79.85
392,1370.13,22.22,2240,True,80.07
393,1374.69,22.22,2264,True,80.28
394,1379.28,22.5,2299,True,80.48
395,1383.81,22.78,2324,True,80.68
396,1388.4,23.06,2342,True,80.88
397,1393.51,23.33,2356,True,81.1
398,1398.13,23.33,2402,True,81.3
399,1403.05,23.89,2405,True,81.5
400,1407.78,23.89,2429,True,81.7
401,1412.83,24.17,2457,True,81.91
402,1418.48,24.44,2477,True,82.14
403,1423.08,24.72,2497,True,82.33
404,1428.05,25.0,2532,True,82.53
405,1433.21,25.28,2556,True,82.73
406,1438.32,25.28,2562,True,82.93
407,1443.56,25.56,2596,True,83.14
408,1451.8,25.83,2618,True,83.46
409,1459.16,26.11,2637,True,83.74
410,1462.4,26.11,2650,True,83.86
411,1464.62,26.39,2674,True,83.95
412,1470.33,26.67,2691,True,84.16
413,1475.9,26.67,2722,True,84.37
414,1481.37,26.94,2736,True,84.57
415,1486.73,27.22,2753,True,84.77
416,1492.45,27.22,2769,True,84.98
417,1498.17,27.5,2797,True,85.19
418,1503.89,27.5,2789,True,85.39
419,1509.58,27.78,2806,True,85.6
420,1515.25,27.78,2829,True,85.8
421,1521.23,28.06,2845,True,86.02
422,1526.95,28.33,2879,True,86.22
423,1532.39,28.61,2904,True,86.41
424,1538.54,28.89,2915,True,86.62
425,1544.43,28.89,2940,True,86.83
426,1551.23,29.17,2969,True,87.06
427,1557.53,29.44,2989,True,87.27
428,1562.52,29.72,3009,True,87.44
429,1568.67,30.0,3039,True,87.65
430,1574.7,30.28,3059,True,87.85
431,1581.0,30.28,3069,True,88.05
432,1590.9,30.56,3099,True,88.38
433,1597.31,30.83,3136,True,88.59
434,1605.4,31.11,3148,True,88.85
435,1605.97,31.39,3182,True,88.86
436,1612.5,31.39,3191,True,89.07
437,1619.02,31.67,3205,True,89.28
438,1625.6,31.94,3241,True,89.48
439,1631.96,31.94,3241,True,89.68
440,1638.5,32.22,3258,True,89.88
441,1645.33,32.22,3272,True,90.1
442,1651.74,32.22,3246,True,90.3
443,1658.31,32.22,3258,True,90.5
444,1664.75,32.22,3256,True,90.7
445,1671.29,32.22,3232,True,90.9
446,1678.13,31.94,3269,True,91.12
447,1684.07,31.94,3293,True,91.3
448,1690.93,32.22,3271,True,91.52
449,1697.41,32.22,3288,True,91.72
450,1704.33,32.5,3296,True,91.93
451,1710.9,32.5,3322,True,92.13
452,1717.46,32.5,3296,True,92.33
453,1724.25,32.5,3288,True,92.54
454,1730.65,32.5,3325,True,92.74
455,1737.34,32.78,3329,True,92.94
456,1743.69,33.06,3338,True,93.14
457,1754.86,33.33,3379,True,93.47
458,1762.53,33.33,3385,True,93.7
459,1767.92,33.89,3405,True,93.86
460,1771.44,33.89,3430,True,93.96
461,1778.34,34.17,3453,True,94.17
462,1785.48,34.17,3483,True,94.38
463,1792.54,34.44,3500,True,94.58
464,1799.35,34.72,3518,True,94.78
465,1806.38,35.0,3537,True,94.98
466,1813.45,35.0,3561,True,95.18
467,1820.93,35.28,3583,True,95.39
468,1828.4,35.56,3601,True,95.6
469,1835.23,35.56,3609,True,95.79
470,1842.72,35.83,3624,True,96.0
471,1850.64,35.83,3643,True,96.22
472,1857.66,35.83,3641,True,96.42
473,1864.81,36.11,3651,True,96.62
474,1872.1,36.11,3650,True,96.82
475,1879.39,36.11,3660,True,97.02
476,1886.94,36.11,3668,True,97.23
477,1893.73,36.11,3668,True,97.42
478,1901.81,36.39,3675,True,97.64
479,1909.16,36.39,3677,True,97.84
480,1916.47,36.39,3689,True,98.04
481,1924.0,36.39,3695,True,98.25
482,1937.57,36.67,3698,True,98.62
483,1946.19,36.67,3707,True,98.86
484,1947.84,36.67,3710,True,98.9
485,1954.07,36.67,3714,True,99.07
486,1961.59,36.67,3719,True,99.28
487,1968.92,36.67,3735,True,99.48
488,1976.31,36.94,3736,True,99.68
489,1984.07,36.94,3736,True,99.88
490,1991.46,36.94,3744,True,100.09
491,1999.11,36.94,3748,True,100.29
492,2006.65,36.94,3722,True,100.5
493,2013.91,36.67,3711,True,100.69
494,2021.61,36.67,3723,True,100.9
495,2029.0,36.39,3688,True,101.11
496,2036.46,36.39,3684,True,101.31
497,2043.86,36.11,3674,True,101.52
498,2051.19,36.11,3654,True,101.72
499,2058.46,35.83,3648,True,101.92
500,2065.91,35.83,3628,True,102.13
501,2073.31,35.56,3612,True,102.34
502,2080.31,35.56,3600,True,102.54
503,2087.4,35.28,3579,True,102.74
504,2094.88,35.28,3572,True,102.95
505,2101.7,35.0,3555,True,103.14
506,2112.87,35.0,3544,True,103.46
507,2120.37,34.72,3524,True,103.68
508,2125.99,34.72,3510,True,103.84
509,2130.09,34.44,3500,True,103.96
510,2137.25,34.44,3482,True,104.17
511,2144.12,34.17,3475,True,104.37
512,2151.29,34.17,3460,True,104.58
513,2158.03,33.89,3443,True,104.78
514,2164.88,33.89,3433,True,104.98
515,2172.17,33.89,3419,True,105.2
516,2178.62,33.61,3405,True,105.39
517,2185.69,33.33,3397,True,105.6
518,2192.26,33.33,3379,True,105.8
519,2198.74,33.06,3369,True,105.99
520,2206.08,33.06,3357,True,106.21
521,2212.82,33.06,3346,True,106.42
522,2219.51,32.78,3329,True,106.62
523,2225.97,32.78,3318,True,106.82
524,2232.63,32.5,3306,True,107.02
525,2239.42,32.5,3291,True,107.23
526,2246.03,32.22,3279,True,107.44
527,2252.54,32.22,3263,True,107.64
528,2259.12,31.94,3250,True,107.85
529,2265.67,31.94,3242,True,108.05
530,2276.6,31.67,3225,True,108.4
531,2283.88,31.67,3218,True,108.63
532,2288.31,31.67,3198,True,108.77
533,2290.85,31.39,3190,True,108.85
534,2297.98,31.39,3173,True,109.07
535,2304.26,31.11,3163,True,109.28
536,2310.54,31.11,3151,True,109.48
537,2316.86,30.83,3136,True,109.68
538,2323.21,30.83,3130,True,109.89
539,2329.44,30.83,3113,True,110.09
540,2336.25,30.56,3104,True,110.31
541,2341.99,30.56,3088,True,110.5
542,2347.77,30.28,3081,True,110.69
543,2353.86,30.28,3070,True,110.89
544,2360.61,30.0,3051,True,111.12
545,2366.55,30.0,3046,True,111.32
546,2372.52,30.0,3032,True,111.52
547,2378.82,29.72,3020,True,111.73
548,2384.94,29.72,3007,True,111.93
549,2391.09,29.44,2997,True,112.14
550,2396.95,29.44,2988,True,112.34
551,2403.02,29.17,2968,True,112.55
552,2408.36,29.17,2964,True,112.73
553,2414.98,29.17,2949,True,112.96
554,2421.36,28.89,2941,True,113.18
555,2430.66,28.89,2930,True,113.5
556,2438.56,28.61,2914,True,113.78
557,2440.22,28.61,2912,True,113.84
558,2443.91,28.61,2901,True,113.97
559,2450.43,28.61,2889,True,114.19
560,2456.18,28.33,2877,True,114.4
561,2461.56,28.33,2864,True,114.59
562,2467.45,28.06,2857,True,114.8
563,2473.15,28.06,2848,True,115.0
564,2478.93,28.06,2837,True,115.21
565,2485.01,27.78,2830,True,115.43
566,2490.29,27.78,2818,True,115.62
567,2495.9,27.78,2812,True,115.82
568,2501.43,27.5,2799,True,116.02
569,2507.26,27.5,2792,True,116.23
570,2513.01,27.5,2780,True,116.44
571,2518.32,27.22,2768,True,116.63
572,2523.71,27.22,2764,True,116.83
573,2529.18,26.94,2747,True,117.04
574,2534.84,26.94,2743,True,117.25
575,2540.44,26.94,2729,True,117.45
576,2546.01,26.67,2718,True,117.66
577,2551.05,26.67,2711,True,117.85
578,2556.62,26.67,2699,True,118.06
579,2565.12,26.39,2691,True,118.38
580,2571.16,26.39,2677,True,118.61
581,2576.78,26.39,2671,True,118.82
582,2577.56,26.11,2663,True,118.85
583,2583.41,26.11,2650,True,119.08
584,2589.34,26.11,2645,True,119.31
585,2594.71,25.83,2631,True,119.51
586,2599.39,25.83,2627,True,119.69
587,2604.84,25.83,2615,True,119.91
588,2610.03,25.56,2609,True,120.11
589,2615.37,25.56,2595,True,120.32
590,2621.2,25.56,2585,True,120.55
591,2625.34,25.56,2621,True,120.71
592,2630.95,25.28,2588,True,120.93
593,2636.21,25.56,2604,True,121.13
594,2641.47,25.56,2609,True,121.34
595,2646.74,25.83,2625,True,121.55
596,2651.85,25.83,2631,True,121.74
597,2657.05,26.11,2653,True,121.94
598,2662.7,26.39,2667,True,122.16
599,2668.14,26.39,2687,True,122.36
600,2673.5,26.67,2699,True,122.56
601,2678.78,26.67,2713,True,122.76
602,2684.49,26.94,2725,True,122.97
603,2689.64,26.94,2736,True,123.16
604,2698.49,27.22,2756,True,123.49
605,2704.18,27.22,2758,True,123.7
606,2708.33,27.5,2774,True,123.85
607,2712.04,27.5,2793,True,123.98
608,2717.46,27.5,2803,True,124.18
609,2724.15,27.78,2804,True,124.42
610,2728.96,27.78,2819,True,124.6
611,2734.46,27.78,2824,True,124.79
612,2740.41,28.06,2835,True,125.01
613,2745.88,28.06,2835,True,125.2
614,2751.74,28.06,2844,True,125.41
615,2757.38,28.06,2847,True,125.61
616,2763.02,28.06,2853,True,125.81
617,2768.94,28.33,2862,True,126.02
618,2774.38,28.33,2871,True,126.21
619,2780.25,28.33,2880,True,126.42
620,2786.17,28.33,2887,True,126.63
621,2792.04,28.33,2891,True,126.84
622,2797.91,28.61,2894,True,127.04
623,2803.63,28.61,2900,True,127.24
624,2809.18,28.61,2906,True,127.43
625,2815.27,28.61,2911,True,127.65
626,2821.25,28.89,2917,True,127.85
627,2826.91,28.89,2911,True,128.05
628,2836.47,28.89,2918,True,128.38
629,2842.57,28.89,2929,True,128.59
630,2848.46,28.89,2923,True,128.8
631,2850.8,28.89,2921,True,128.88
632,2856.75,28.89,2925,True,129.08
633,2862.82,28.89,2922,True,129.29
634,2868.92,28.89,2905,True,129.5
635,2874.41,28.61,2896,True,129.7
636,2880.05,28.61,2900,True,129.89
637,2886.23,28.61,2873,True,130.11
638,2892.24,28.33,2890,True,130.32
639,2897.85,28.33,2877,True,130.52
640,2903.74,28.33,2864,True,130.73
641,2909.69,28.06,2855,True,130.94
642,2915.47,28.06,2844,True,131.14
643,2921.08,28.06,2840,True,131.35
644,2926.75,27.78,2828,True,131.55
645,2932.33,27.78,2820,True,131.75
646,2938.14,27.78,2810,True,131.96
647,2943.69,27.5,2801,True,132.16
648,2948.72,27.5,2788,True,132.34
649,2954.82,27.5,2782,True,132.57
650,2960.51,27.22,2770,True,132.78
651,2965.87,27.22,2761,True,132.97
652,2971.86,27.22,2752,True,133.19
653,2980.75,26.94,2741,True,133.52
654,2986.06,26.94,2730,True,133.72
655,2989.93,26.67,2720,True,133.86
656,2993.53,26.67,2715,True,134.0
657,2999.1,26.67,2705,True,134.21
658,3004.49,26.67,2697,True,134.41
659,3010.03,26.39,2687,True,134.62
660,3015.28,26.39,2679,True,134.82
661,3020.72,26.39,2668,True,135.03
662,3026.05,26.11,2657,True,135.23
663,3030.93,26.11,2650,True,135.42
664,3036.36,26.11,2641,True,135.62
665,3041.73,25.83,2633,True,135.83
666,3047.36,25.83,2626,True,136.05
667,3052.37,25.83,2618,True,136.24
668,3057.66,25.56,2605,True,136.45
669,3062.82,25.56,2597,True,136.65
670,3067.93,25.56,2592,True,136.85
671,3073.14,25.28,2573,True,137.06
672,3078.02,25.28,2570,True,137.25
673,3083.61,25.28,2561,True,137.47
674,3088.86,25.0,2552,True,137.68
675,3093.96,25.0,2547,True,137.89
676,3098.96,25.0,2533,True,138.09
677,3108.11,25.0,2531,True,138.45
678,3113.23,24.72,2516,True,138.66
679,3116.77,24.72,2508,True,138.8
680,3118.75,24.44,2498,True,138.88
681,3124.01,24.44,2494,True,139.1
682,3129.39,24.44,2479,True,139.32
683,3134.3,24.44,2474,True,139.52
684,3138.87,24.17,2467,True,139.71
685,3144.14,24.17,2458,True,139.93
686,3149.14,24.17,2447,True,140.13
687,3154.04,23.89,2440,True,140.34
688,3159.34,23.89,2429,True,140.56
689,3163.62,23.89,2420,True,140.74
690,3168.37,23.61,2412,True,140.94
691,3173.28,23.61,2401,True,141.15
692,3178.21,23.61,2395,True,141.36
693,3182.79,23.61,2387,True,141.55
694,3187.39,23.33,2377,True,141.75
695,3192.55,23.33,2370,True,141.97
696,3197.33,23.33,2358,True,142.18
697,3202.15,23.06,2355,True,142.38
698,3206.76,23.06,2343,True,142.58
699,3211.3,23.06,2336,True,142.78
700,3215.96,23.06,2354,True,142.98
701,3220.4,22.78,2328,True,143.18
702,3229.88,22.78,2343,True,143.59
703,3235.09,23.06,2356,True,143.82
704,3236.61,23.06,2354,True,143.89
705,3239.36,23.33,2364,True,144.0
706,3244.19,23.33,2383,True,144.21
707,3249.22,23.61,2385,True,144.42
708,3253.94,23.61,2408,True,144.62
709,3258.74,23.89,2424,True,144.83
710,3263.76,23.89,2438,True,145.04
711,3268.71,24.17,2458,True,145.24
712,3273.64,24.17,2466,True,145.44
713,3278.5,24.44,2478,True,145.64
714,3283.51,24.44,2490,True,145.85
715,3288.26,24.72,2518,True,146.04
716,3293.78,25.0,2530,True,146.26
717,3298.85,25.0,2542,True,146.46
718,3304.13,25.28,2553,True,146.67
719,3308.91,25.28,2568,True,146.86
720,3314.32,25.28,2582,True,147.08
721,3319.46,25.56,2596,True,147.28
722,3325.01,25.56,2612,True,147.49
723,3330.18,25.83,2628,True,147.69
724,3335.64,26.11,2649,True,147.9
725,3341.05,26.11,2669,True,148.11
726,3352.53,26.39,2678,True,148.55
727,3358.42,26.67,2698,True,148.77
728,3360.31,26.67,2717,True,148.84
729,3362.65,26.94,2737,True,148.92
730,3368.09,26.94,2742,True,149.13
731,3373.26,27.22,2757,True,149.32
732,3379.36,27.22,2775,True,149.54
733,3384.7,27.5,2789,True,149.73
734,3390.53,27.78,2804,True,149.94
735,3395.75,27.78,2825,True,150.13
736,3401.87,28.06,2843,True,150.35
737,3407.73,28.06,2853,True,150.56
738,3413.37,28.33,2868,True,150.76
739,3419.04,28.33,2885,True,150.96
740,3424.96,28.61,2896,True,151.17
741,3430.94,28.61,2920,True,151.37
742,3436.75,28.61,2881,True,151.58
743,3442.33,28.61,2880,True,151.77
744,3448.39,28.33,2879,True,151.99
745,3454.17,28.33,2876,True,152.19
746,3459.95,28.33,2862,True,152.39
747,3465.36,28.06,2851,True,152.59
748,3471.36,28.06,2841,True,152.8
749,3477.22,27.78,2828,True,153.01
750,3482.86,27.78,2822,True,153.22
751,3491.64,27.78,2805,True,153.53
752,3500.22,27.5,2793,True,153.84
753,3500.8,27.5,2788,True,153.86
754,3505.26,27.22,2778,True,154.03
755,3510.79,27.22,2767,True,154.23
756,3515.91,26.94,2751,True,154.42
757,3521.84,26.94,2745,True,154.64
758,3527.2,26.94,2732,True,154.84
759,3532.8,26.67,2720,True,155.05
760,3538.19,26.67,2709,True,155.25
761,3543.47,26.67,2696,True,155.45
762,3548.91,26.39,2686,True,155.66
763,3554.32,26.39,2673,True,155.86
764,3559.65,26.39,2664,True,156.06
765,3565.11,26.11,2655,True,156.27
766,3570.36,26.11,2643,True,156.47
767,3575.84,25.83,2631,True,156.69
768,3580.49,25.83,2625,True,156.87
769,3586.07,25.83,2614,True,157.08
770,3591.33,25.56,2597,True,157.29
771,3596.29,25.56,2591,True,157.48
772,3601.67,25.28,2581,True,157.69
773,3607.0,25.28,2575,True,157.91
774,3612.16,25.28,2564,True,158.11
775,3621.33,25.0,2553,True,158.48
776,3626.73,25.0,2541,True,158.69
777,3629.95,25.0,2531,True,158.82
778,3632.82,24.72,2522,True,158.94
779,3637.52,24.72,2514,True,159.13
780,3642.56,24.72,2502,True,159.33
781,3647.64,24.44,2494,True,159.54
782,3652.53,24.44,2488,True,159.74
783,3657.74,24.44,2474,True,159.95
784,3662.57,24.17,2467,True,160.15
785,3667.64,24.17,2459,True,160.36
786,3672.3,24.17,2444,True,160.56
787,3677.29,23.89,2435,True,160.76
788,3682.16,23.89,2431,True,160.97
789,3687.13,23.89,2418,True,161.18
790,3691.99,23.61,2408,True,161.38
791,3696.55,23.61,2404,True,161.58
792,3701.56,23.61,2388,True,161.79
793,3706.4,23.61,2384,True,161.99
794,3711.11,23.33,2371,True,162.19
795,3716.01,23.33,2367,True,162.4
796,3720.62,23.06,2355,True,162.6
797,3725.58,23.06,2346,True,162.82
798,3729.52,23.06,2337,True,162.99
799,3734.65,22.78,2327,True,163.22
800,3742.08,22.78,2317,True,163.54
801,3747.39,22.78,2307,True,163.77
802,3749.44,22.5,2300,True,163.87
803,3753.15,22.5,2290,True,164.03
804,3757.56,22.5,2280,True,164.23
805,3762.22,22.5,2272,True,164.43
806,3766.8,22.22,2262,True,164.64
807,3771.0,22.22,2250,True,164.83
808,3775.81,21.94,2274,True,165.05
809,3780.29,21.94,2245,True,165.25
810,3784.69,22.22,2285,True,165.45
811,3789.29,22.22,2266,True,165.66
812,3793.86,22.5,2268,True,165.86
813,3798.63,22.5,2294,True,166.07
814,3802.93,22.78,2302,True,166.26
815,3807.83,22.78,2331,True,166.48
816,3812.46,23.06,2340,True,166.68
817,3817.24,23.33,2371,True,166.88
818,3821.98,23.33,2382,True,167.08
819,3826.99,23.61,2406,True,167.3
820,3832.46,23.89,2406,True,167.53
821,3836.69,23.89,2435,True,167.7
822,3842.3,24.17,2447,True,167.93
823,3846.82,24.44,2473,True,168.12
824,3854.84,24.44,2485,True,168.45
825,3861.42,24.72,2501,True,168.71
826,3863.99,24.72,2520,True,168.82
827,3866.89,25.0,2526,True,168.93
828,3872.09,25.0,2535,True,169.14
829,3877.45,25.28,2550,True,169.35
830,3882.81,25.28,2576,True,169.57
831,3887.87,25.56,2584,True,169.76
832,3893.11,25.56,2601,True,169.97
833,3898.41,25.83,2616,True,170.17
834,3903.52,25.83,2575,True,170.37
835,3908.96,25.56,2598,True,170.58
836,3913.97,25.56,2596,True,170.78
837,3919.39,25.56,2579,True,170.99
838,3924.63,25.56,2588,True,171.2
839,3929.89,25.28,2574,True,171.41
840,3934.92,25.28,2561,True,171.6
841,3940.12,25.0,2550,True,171.81
842,3945.17,25.0,2546,True,172.01
843,3950.32,25.0,2535,True,172.22
844,3955.45,25.0,2525,True,172.43
845,3960.44,24.72,2515,True,172.63
846,3965.36,24.72,2507,True,172.83
847,3970.64,24.44,2499,True,173.04
848,3975.43,24.44,2488,True,173.24
849,3984.25,24.44,2478,True,173.6
850,3989.35,24.17,2469,True,173.81
851,3989.76,24.17,2462,True,173.83
852,3995.0,24.17,2450,True,174.04
853,4000.24,24.17,2443,True,174.26
854,4005.07,23.89,2433,True,174.46
855,4010.02,23.89,2422,True,174.67
856,4014.8,23.89,2419,True,174.87
857,4019.73,23.61,2403,True,175.08
858,4024.62,23.61,2397,True,175.29
859,4029.37,23.61,2388,True,175.49
860,4033.99,23.33,2377,True,175.69
861,4038.89,23.33,2371,True,175.89
862,4043.58,23.33,2359,True,176.1
863,4048.4,23.06,2354,True,176.31
864,4053.13,23.06,2343,True,176.51
865,4057.63,23.06,2332,True,176.71
866,4062.25,22.78,2323,True,176.91
867,4066.97,22.78,2315,True,177.12
868,4071.66,22.78,2308,True,177.32
869,4076.27,22.5,2295,True,177.53
870,4080.88,22.5,2290,True,177.73
871,4085.36,22.5,2276,True,177.93
872,4090.16,22.22,2269,True,178.15
873,4098.63,22.22,2262,True,178.53
874,4102.99,22.22,2248,True,178.72
875,4105.15,22.22,2274,True,178.82
876,4108.24,21.94,2248,True,178.96
877,4112.37,21.94,2246,True,179.15
878,4117.11,21.94,2239,True,179.37
879,4121.47,22.22,2245,True,179.56
880,4126.09,22.22,2251,True,179.77
881,4130.78,22.22,2255,True,179.98
882,4135.34,22.22,2258,True,180.19
883,4139.78,22.22,2261,True,180.38
884,4144.4,22.22,2264,True,180.59
885,4149.15,22.5,2268,True,180.8
886,4153.24,22.5,2278,True,180.99
887,4158.26,22.5,2277,True,181.21
888,4162.99,22.5,2285,True,181.42
889,4167.49,22.5,2289,True,181.62
890,4171.99,22.5,2293,True,181.82
891,4176.72,22.5,2293,True,182.03
892,4181.34,22.78,2303,True,182.23
893,4186.01,22.78,2300,True,182.44
894,4190.63,22.78,2312,True,182.64
895,4195.3,22.78,2314,True,182.85
896,4199.97,22.78,2318,True,183.05
897,4207.3,22.78,2322,True,183.37
898,4213.43,22.78,2329,True,183.64
899,4216.82,23.06,2332,True,183.79
900,4218.57,23.06,2336,True,183.86
901,4223.3,23.06,2343,True,184.07
902,4227.89,23.06,2346,True,184.27
903,4232.82,23.06,2354,True,184.48
904,4237.29,23.06,2354,True,184.68
905,4242.07,23.33,2362,True,184.88
906,4246.95,23.33,2361,True,185.09
907,4251.73,23.33,2368,True,185.3
908,4256.35,23.33,2371,True,185.49
909,4261.11,23.33,2376,True,185.7
910,4266.06,23.33,2384,True,185.91
911,4270.83,23.61,2383,True,186.11
912,4275.22,23.61,2390,True,186.3
913,4280.6,23.61,2397,True,186.53
914,4285.3,23.61,2398,True,186.72
915,4290.31,23.61,2410,True,186.94
916,4295.17,23.61,2411,True,187.14
917,4299.97,23.89,2415,True,187.34
918,4304.6,23.89,2422,True,187.54
919,4309.5,23.89,2423,True,187.74
920,4314.52,23.89,2429,True,187.95
921,4319.47,23.89,2437,True,188.16
922,4329.76,24.17,2439,True,188.59
923,4333.0,24.17,2443,True,188.72
924,4336.12,24.17,2447,True,188.85
925,4339.14,24.17,2448,True,188.97
926,4344.17,24.17,2454,True,189.18
927,4348.83,24.17,2463,True,189.37
928,4353.98,24.17,2465,True,189.59
929,4358.5,24.44,2471,True,189.77
930,4363.66,24.44,2476,True,189.98
931,4369.04,24.44,2474,True,190.2
932,4374.15,24.44,2479,True,190.41
933,4378.84,24.44,2478,True,190.6
934,4384.07,24.44,2487,True,190.82
935,4389.25,24.44,2485,True,191.03
936,4394.19,24.44,2488,True,191.23
937,4399.27,24.44,2495,True,191.44
938,4404.18,24.44,2493,True,191.64
939,4409.24,24.44,2492,True,191.85
940,4414.25,24.44,2485,True,192.05
941,4419.24,24.44,2482,True,192.26
942,4423.93,24.44,2456,True,192.45
943,4429.09,24.44,2474,True,192.66
944,4434.14,24.17,2459,True,192.87
945,4438.51,24.17,2458,True,193.05
946,4446.99,24.17,2451,True,193.4
947,4453.51,23.89,2437,True,193.67
948,4457.07,23.89,2430,True,193.82
949,4458.86,23.89,2420,True,193.9
950,4463.54,23.89,2417,True,194.09
951,4468.05,23.61,2405,True,194.29
952,4473.39,23.61,2396,True,194.51
953,4478.06,23.61,2389,True,194.71
954,4482.96,23.33,2379,True,194.92
955,4487.7,23.33,2375,True,195.12
956,4492.41,23.33,2361,True,195.32
957,4496.97,23.06,2354,True,195.52
958,4501.67,23.06,2345,True,195.73
959,4506.49,23.06,2340,True,195.94
960,4510.84,22.78,2326,True,196.13
961,4515.87,22.78,2322,True,196.35
962,4520.61,22.78,2310,True,196.56
963,4525.07,22.78,2304,True,196.75
964,4529.73,22.5,2294,True,196.96
965,4534.32,22.5,2286,True,197.16
966,4538.89,22.5,2279,True,197.37
967,4543.6,22.22,2271,True,197.58
968,4547.98,22.22,2260,True,197.77
969,4552.74,22.22,2256,True,197.99
970,4557.23,22.22,2245,True,198.19
971,4565.17,21.94,2240,True,198.55
972,4569.95,21.94,2230,True,198.77
973,4571.99,21.94,2221,True,198.86
974,4575.05,21.67,2214,True,199.0
975,4579.58,21.67,2207,True,199.21
976,4584.0,21.67,2201,True,199.42
977,4588.26,21.39,2188,True,199.62
978,4592.6,21.39,2187,True,199.82
979,4597.07,21.39,2174,True,200.03
980,4601.45,21.39,2167,True,200.23
981,4605.86,21.39,2160,True,200.44
982,4609.87,21.11,2151,True,200.63
983,4614.28,21.11,2182,True,200.84
984,4618.69,21.11,2147,True,201.05
985,4623.19,21.11,2142,True,201.26
986,4627.39,21.11,2146,True,201.46
987,4631.72,21.11,2145,True,201.66
988,4635.94,21.11,2145,True,201.86
989,4640.33,21.11,2150,True,202.07
990,4644.7,21.11,2154,True,202.28
991,4649.45,21.39,2166,True,202.5
992,4653.21,21.39,2169,True,202.68
993,4657.64,21.39,2175,True,202.88
994,4662.05,21.39,2178,True,203.09
995,4669.72,21.67,2192,True,203.44
996,4674.05,21.67,2196,True,203.64
997,4678.19,21.67,2208,True,203.84
998,4679.7,21.94,2207,True,203.9
999,4684.42,21.94,2237,True,204.12
1000,4688.75,22.22,2246,True,204.31
1001,4693.35,22.22,2253,True,204.52
1002,4697.94,22.5,2281,True,204.73
1003,4702.48,22.5,2295,True,204.93
1004,4707.13,22.78,2318,True,205.13
1005,4711.95,23.06,2326,True,205.34
1006,4716.68,23.06,2354,True,205.55
1007,4721.32,23.33,2364,True,205.74
1008,4726.17,23.33,2386,True,205.95
1009,4731.01,23.61,2405,True,206.16
1010,4735.84,23.89,2415,True,206.36
1011,4740.78,23.89,2433,True,206.57
1012,4745.52,24.17,2450,True,206.76
1013,4750.57,24.17,2452,True,206.97
1014,4755.63,24.44,2482,True,207.18
1015,4760.52,24.44,2485,True,207.38
1016,4765.63,24.44,2492,True,207.59
1017,4770.52,24.72,2495,True,207.79
1018,4775.59,24.72,2496,True,207.99
1019,4780.63,24.72,2484,True,208.19
1020,4789.28,24.44,2486,True,208.55
1021,4794.58,24.44,2483,True,208.77
1022,4796.93,24.44,2485,True,208.86
1023,4800.36,24.17,2471,True,209.0
1024,4805.6,24.17,2468,True,209.22
1025,4810.51,24.17,2454,True,209.42
1026,4815.54,24.17,2446,True,209.63
1027,4820.25,23.89,2439,True,209.83
1028,4825.12,23.89,2429,True,210.03
1029,4829.71,23.89,2424,True,210.22
1030,4834.92,23.89,2416,True,210.44
1031,4839.74,23.61,2408,True,210.65
1032,4844.56,23.61,2398,True,210.85
1033,4849.19,23.61,2392,True,211.05
1034,4853.93,23.33,2381,True,211.25
1035,4858.97,23.33,2378,True,211.47
1036,4863.26,23.33,2367,True,211.65
1037,4868.32,23.33,2362,True,211.87
1038,4873.25,23.06,2354,True,212.08
1039,4877.79,23.06,2347,True,212.28
1040,4882.54,23.06,2361,True,212.48
1041,4887.61,23.06,2355,True,212.7
1042,4891.9,23.06,2373,True,212.89
1043,4896.78,23.33,2364,True,213.1
1044,4905.2,23.33,2382,True,213.46
1045,4910.06,23.61,2397,True,213.67
1046,4913.44,23.61,2404,True,213.81
1047,4915.88,23.89,2418,True,213.91
1048,4920.75,23.89,2429,True,214.11
1049,4925.73,24.17,2447,True,214.32
1050,4930.32,24.17,2459,True,214.51
1051,4935.58,24.44,2464,True,214.73
1052,4940.62,24.44,2489,True,214.93
1053,4945.68,24.44,2499,True,215.14
1054,4950.65,24.72,2508,True,215.34
1055,4955.77,24.72,2510,True,215.55
1056,4960.37,25.0,2523,True,215.73
1057,4965.85,25.0,2523,True,215.95
1058,4971.03,25.0,2530,True,216.16
1059,4976.03,25.0,2534,True,216.36
1060,4981.75,25.0,2539,True,216.59
1061,4986.3,25.0,2527,True,216.77
1062,4991.52,25.0,2523,True,216.98
1063,4996.72,25.0,2502,True,217.18
1064,5001.69,24.72,2515,True,217.38
1065,5006.83,24.72,2505,True,217.59
1066,5012.54,24.72,2503,True,217.82
1067,5016.77,24.44,2494,True,218.0
1068,5021.83,24.44,2488,True,218.2
1069,5029.55,24.44,2474,True,218.52
1070,5034.96,24.17,2470,True,218.74
1071,5037.06,24.17,2456,True,218.83
1072,5041.48,24.17,2451,True,219.01
1073,5046.45,23.89,2442,True,219.22
1074,5051.51,23.89,2433,True,219.43
1075,5056.17,23.89,2424,True,219.63
1076,5061.07,23.89,2415,True,219.83
1077,5065.86,23.61,2410,True,220.04
1078,5070.77,23.61,2411,True,220.25
1079,5075.68,23.61,2390,True,220.45
1080,5080.07,23.61,2414,True,220.64
1081,5085.15,23.61,2404,True,220.85
1082,5090.08,23.61,2392,True,221.06
1083,5095.04,23.61,2394,True,221.27
1084,5099.79,23.61,2398,True,221.47
1085,5105.15,23.61,2414,True,221.7
1086,5109.38,23.89,2411,True,221.88
1087,5114.33,23.89,2430,True,222.09
1088,5119.24,24.17,2448,True,222.29
1089,5124.29,24.17,2456,True,222.5
1090,5129.06,24.44,2475,True,222.69
1091,5134.14,24.44,2488,True,222.9
1092,5139.31,24.72,2497,True,223.11
1093,5148.04,24.72,2513,True,223.46
1094,5153.06,25.0,2537,True,223.66
1095,5156.86,25.0,2542,True,223.82
1096,5159.49,25.28,2557,True,223.92
1097,5164.65,25.28,2573,True,224.12
1098,5169.53,25.56,2584,True,224.31
1099,5174.85,25.56,2598,True,224.52
1100,5180.29,25.56,2600,True,224.74
1101,5185.2,25.83,2596,True,224.93
1102,5190.93,25.83,2597,True,225.15
1103,5196.12,25.56,2605,True,225.35
1104,5201.13,25.56,2562,True,225.55
1105,5206.45,25.56,2584,True,225.75
1106,5211.66,25.28,2582,True,225.96
1107,5216.51,25.28,2569,True,226.15
1108,5222.02,25.28,2555,True,226.37
1109,5227.4,25.28,2554,True,226.58
1110,5232.72,25.0,2545,True,226.8
1111,5236.95,25.0,2537,True,226.97
1112,5242.67,25.0,2524,True,227.19
1113,5247.76,24.72,2511,True,227.4
1114,5252.75,24.72,2514,True,227.6
1115,5257.74,24.72,2495,True,227.8
1116,5262.56,24.44,2492,True,228.0
1117,5267.99,24.44,2475,True,228.22
1118,5277.01,24.44,2474,True,228.59
1119,5281.84,24.17,2460,True,228.79
1120,5282.64,24.17,2454,True,228.83
1121,5287.74,24.17,2443,True,229.04
1122,5292.71,23.89,2438,True,229.24
1123,5297.49,23.89,2428,True,229.44
1124,5302.44,23.89,2418,True,229.65
1125,5307.39,23.89,2410,True,229.86
1126,5312.3,23.61,2402,True,230.07
1127,5317.26,23.61,2395,True,230.28
1128,5321.9,23.33,2384,True,230.48
1129,5326.59,23.33,2377,True,230.68
1130,5331.21,23.33,2364,True,230.87
1131,5336.1,23.06,2354,True,231.09
1132,5341.31,23.06,2348,True,231.31
1133,5345.37,23.06,2339,True,231.49
1134,5349.8,23.06,2329,True,231.68
1135,5354.95,22.78,2320,True,231.91
1136,5359.6,22.78,2316,True,232.11
1137,5364.32,22.78,2302,True,232.32
1138,5368.91,22.5,2298,True,232.52
1139,5373.34,22.5,2287,True,232.72
1140,5378.0,22.5,2279,True,232.93
1141,5382.49,22.22,2272,True,233.13
1142,5391.22,22.22,2263,True,233.52
1143,5395.53,22.22,2253,True,233.71
1144,5397.59,21.94,2241,True,233.81
1145,5400.68,21.94,2238,True,233.95
1146,5404.89,21.94,2231,True,234.14
1147,5409.59,21.94,2224,True,234.36
1148,5414.1,21.67,2213,True,234.56
1149,5418.02,21.67,2207,True,234.74
1150,5422.85,21.67,2198,True,234.97
1151,5427.13,21.39,2186,True,235.17
1152,5431.13,21.39,2184,True,235.35
1153,5435.94,21.39,2170,True,235.58
1154,5440.18,21.39,2162,False,235.78
1155,5444.02,21.11,2155,False,235.96
1156,5448.66,21.11,2148,False,236.18
1157,5452.95,21.11,2135,False,236.38
1158,5457.22,20.83,2120,False,236.59
1159,5461.33,20.56,2090,False,236.79
1160,5465.47,20.28,2052,False,236.99
1161,5469.45,19.72,2006,False,237.19
1162,5473.32,19.44,1966,False,237.39
1163,5476.91,18.61,1915,False,237.59
1164,5480.83,18.06,1866,False,237.8
1165,5484.35,17.5,1812,False,238.0
1166,5487.84,16.94,1752,False,238.21
1167,5493.02,16.39,1694,False,238.53
1168,5496.45,16.11,1633,False,238.74
1169,5498.6,15.28,1571,False,238.88
1170,5500.68,14.72,1530,False,239.02
1171,5503.5,14.17,1473,False,239.22
1172,5506.24,13.89,1418,False,239.42
1173,5509.04,13.61,1401,False,239.62
1174,5511.82,13.61,1402,True,239.83
1175,5514.5,13.61,1391,True,240.02
1176,5517.29,13.61,1388,True,240.23
1177,5520.01,13.61,1307,True,240.43
1178,5522.83,13.61,1270,True,240.63
1179,5525.34,13.33,1182,True,240.82
1180,5528.35,13.33,1096,True,241.05
1181,5531.02,13.33,1348,True,241.25
1182,5533.72,13.06,1782,True,241.46
1183,5536.2,13.06,2324,True,241.65
1184,5538.9,12.78,2288,True,241.86
1185,5541.39,12.78,2231,True,242.05
1186,5544.05,12.78,2243,True,242.26
1187,5546.71,12.78,2275,True,242.47
1188,5549.39,13.06,2282,True,242.67
1189,5552.01,13.06,2310,True,242.87
1190,5554.78,13.33,2345,True,243.08
1191,5558.91,13.33,2366,True,243.39
1192,5561.75,13.61,2406,True,243.6
1193,5564.54,13.89,2439,True,243.8
1194,5565.51,13.89,2467,True,243.87
1195,5568.7,14.17,2494,True,244.1
1196,5571.66,14.44,2525,True,244.3
1197,5574.81,14.44,2567,True,244.52
1198,5577.96,14.72,2588,True,244.73
1199,5580.7,15.0,2605,True,244.92
1200,5584.08,15.0,2638,True,245.14
1201,5586.88,15.0,2639,True,245.33
1202,5589.96,15.0,2659,True,245.53
1203,5593.02,15.28,2669,True,245.73
1204,5596.18,15.28,2683,True,245.94
1205,5599.27,15.28,2701,True,246.14
1206,5602.37,15.28,2710,True,246.35
1207,5605.5,15.56,2722,True,246.55
1208,5608.61,15.56,2730,True,246.75
1209,5611.92,15.56,2742,True,246.96
1210,5614.94,15.56,2753,True,247.15
1211,5618.14,15.56,2755,True,247.36
1212,5621.13,15.83,2769,True,247.55
1213,5624.38,15.83,2779,True,247.75
1214,5627.74,15.83,2779,True,247.97
1215,5630.97,15.83,2790,True,248.17
1216,5637.57,15.83,2799,True,248.59
1217,5641.53,15.83,2807,True,248.84
1218,5641.86,15.83,2806,True,248.86
1219,5643.75,16.11,2811,True,248.98
1220,5647.05,16.11,2818,True,249.18
1221,5650.13,16.11,2829,True,249.37
1222,5653.56,16.11,2795,True,249.58
1223,5656.79,15.83,2796,True,249.79
1224,5660.07,15.83,2796,True,250.0
1225,5663.2,15.83,2763,True,250.19
1226,5666.34,15.56,2749,True,250.39
1227,5669.53,15.56,2738,True,250.6
1228,5672.59,15.28,2718,True,250.8
1229,5675.43,15.28,2707,True,250.99
1230,5678.84,15.28,2687,True,251.21
1231,5681.83,15.28,2674,True,251.41
1232,5684.86,15.0,2661,True,251.61
1233,5687.97,15.0,2606,True,251.81
1234,5690.95,15.0,2615,True,252.01
1235,5693.91,14.72,2608,True,252.21
1236,5696.91,14.72,2582,True,252.42
1237,5699.9,14.72,2558,True,252.62
1238,5702.82,14.44,2551,True,252.82
1239,5705.77,14.44,2528,True,253.03
1240,5708.59,14.17,2505,True,253.23
1241,5713.75,14.17,2485,True,253.59
1242,5716.71,14.17,2473,True,253.8
1243,5717.31,13.89,2451,True,253.84
1244,5720.0,13.89,2437,True,254.04
1245,5722.86,13.89,2418,True,254.24
1246,5725.55,13.61,2408,True,254.44
1247,5728.33,13.61,2396,True,254.64
1248,5731.1,13.33,2374,True,254.85
1249,5733.82,13.33,2355,True,255.06
1250,5736.41,13.33,2341,True,255.25
1251,5739.16,13.06,2320,True,255.46
1252,5741.69,13.06,2310,True,255.66
1253,5744.39,13.06,2290,True,255.86
1254,5746.9,13.06,2283,True,256.05
1255,5749.58,12.78,2265,True,256.26
1256,5752.34,12.78,2247,True,256.48
1257,5754.84,12.78,2259,True,256.68
1258,5757.45,12.78,2245,True,256.88
1259,5759.95,12.5,2225,True,257.08
1260,5762.45,12.78,2227,True,257.28
1261,5765.48,12.5,2197,True,257.52
1262,5767.59,12.5,2243,True,257.69
1263,5770.1,12.5,2206,True,257.89
1264,5772.71,12.5,2204,True,258.1
1265,5777.1,12.5,2194,True,258.45
1266,5782.11,12.22,2173,True,258.86
1267,5782.87,12.22,2138,True,258.92
1268,5785.06,11.94,2133,True,259.1
1269,5787.74,11.94,2115,True,259.33
1270,5790.06,11.94,2099,True,259.52
1271,5792.51,11.94,2093,True,259.73
1272,5794.88,11.67,2080,True,259.93
1273,5797.26,11.67,2062,True,260.13
1274,5799.48,11.67,2051,True,260.32
1275,5802.05,11.67,2042,True,260.54
1276,5804.33,11.39,2025,True,260.74
1277,5806.49,11.39,2013,True,260.93
1278,5809.02,11.39,2006,True,261.16
1279,5811.58,11.39,1990,True,261.38
1280,5813.41,11.11,1977,True,261.55
1281,5815.78,11.11,1966,True,261.76
1282,5818.07,11.11,1954,True,261.96
1283,5820.39,11.11,1948,True,262.17
1284,5822.62,10.83,1928,True,262.38
1285,5824.68,10.83,1916,True,262.57
1286,5827.01,10.83,1907,True,262.78
1287,5829.24,10.83,1897,True,262.99
1288,5831.4,10.56,1888,True,263.2
1289,5836.27,10.56,1869,True,263.66
1290,5837.92,10.56,1859,True,263.81
1291,5838.02,10.56,1850,True,263.82
1292,5839.99,10.28,1835,True,264.01
1293,5842.04,10.28,1826,True,264.21
1294,5844.17,10.28,1816,True,264.42
1295,5846.28,10.28,1797,True,264.62
1296,5848.25,10.0,1787,True,264.82
1297,5850.35,10.0,1774,True,265.03
1298,5852.28,10.0,1768,True,265.22
1299,5854.41,10.0,1757,True,265.44
1300,5856.36,9.72,1747,True,265.64
1301,5858.38,9.72,1738,True,265.85
1302,5860.41,9.72,1722,True,266.06
1303,5862.22,9.72,1711,True,266.24
1304,5864.51,9.72,1693,True,266.48
1305,5866.23,9.44,1684,True,266.66
1306,5868.18,9.44,1674,True,266.87
1307,5869.98,9.44,1662,True,267.06
1308,5872.05,9.44,1654,True,267.28
1309,5873.89,9.17,1646,True,267.48
1310,5875.63,9.17,1633,True,267.67
1311,5877.62,9.17,1620,True,267.88
1312,5879.44,9.17,1608,True,268.08
1313,5882.88,8.89,1596,True,268.47
1314,5884.2,8.89,1582,True,268.62
1315,5886.03,8.89,1570,True,268.82
1316,5886.52,8.89,1558,True,268.88
1317,5888.45,8.61,1549,True,269.1
1318,5890.23,8.61,1536,True,269.31
1319,5891.99,8.61,1523,True,269.51
1320,5893.67,8.61,1511,True,269.71
1321,5895.41,8.33,1498,True,269.92
1322,5896.94,8.33,1485,True,270.1
1323,5898.87,8.33,1471,True,270.33
1324,5900.51,8.33,1457,True,270.53
1325,5902.11,8.06,1446,True,270.73
1326,5903.76,8.06,1436,True,270.93
1327,5905.43,8.06,1425,True,271.14
1328,5907.06,8.06,1411,True,271.34
1329,5908.61,7.78,1399,True,271.54
1330,5910.2,7.78,1385,True,271.75
1331,5911.87,7.78,1372,True,271.96
1332,5913.4,7.78,1359,True,272.16
1333,5914.88,7.5,1345,True,272.36
1334,5916.49,7.5,1337,True,272.57
1335,5917.95,7.5,1324,True,272.77
1336,5919.5,7.5,1327,True,272.97
1337,5921.07,7.5,1317,True,273.18
1338,5924.02,7.22,1310,True,273.59
1339,5925.01,7.22,1285,True,273.73
1340,5925.84,6.94,1273,True,273.85
1341,5926.87,6.94,1241,True,274.0
1342,5928.27,6.67,1190,True,274.21
1343,5929.54,6.11,1133,True,274.41
1344,5930.67,5.83,1076,True,274.61
1345,5931.79,5.56,1020,True,274.81
1346,5932.85,5.0,936,True,275.02
1347,5933.79,4.72,861,False,275.22
1348,5934.64,4.17,806,False,275.42
1349,5935.42,3.89,844,False,275.62
1350,5936.09,3.33,950,False,275.83
1351,5936.65,2.78,917,False,276.03
1352,5937.16,2.5,880,False,276.23
1353,5937.55,1.94,841,False,276.43
1354,5937.88,1.67,819,False,276.63
1355,5938.11,1.11,804,False,276.84
1356,5938.28,0.83,788,False,277.04
1357,5938.45,0.83,765,False,277.24
1358,5938.45,0.0,748,False,277.44
1359,5938.45,0.0,772,False,277.64
1360,5938.45,0.0,770,True,277.84
1361,5938.45,0.0,769,True,278.06
1362,5938.45,0.0,772,True,278.25
1363,5938.45,0.0,772,True,278.62
1364,5938.45,0.0,766,True,278.76
1365,5938.45,0.0,772,True,278.85
1366,5938.45,0.0,769,True,279.06
1367,5938.45,0.0,777,True,279.28
1368,5938.45,0.0,782,True,279.47
1369,5938.45,0.0,779,True,279.68
1370,5938.45,0.0,784,True,279.86
1371,5938.45,0.0,781,True,280.08
1372,5938.45,0.0,781,True,280.29
1373,5938.45,0.0,777,True,280.49
1374,5938.45,0.0,770,True,280.7
1375,5938.45,0.0,939,True,280.91
1376,5938.45,0.0,1146,True,281.12
1377,5938.45,0.0,1318,True,281.32
1378,5938.45,0.0,1466,True,281.52
1379,5938.45,0.0,1530,True,281.72
1380,5938.45,0.0,1470,True,281.92
1381,5938.45,0.0,1373,True,282.13
1382,5938.45,0.0,1250,True,282.34
1383,5938.45,0.0,1194,True,282.55
1384,5938.45,0.0,1140,True,282.76
1385,5938.45,0.0,1073,True,282.95
1386,5938.45,0.0,1039,True,283.16
1387,5938.45,0.0,997,True,283.47
1388,5938.45,0.0,979,True,283.68
1389,5938.45,0.0,968,True,283.82
1390,5938.45,0.0,954,True,283.96
1391,5938.45,0.0,926,True,284.17
1392,5938.45,0.0,953,True,284.4
1393,5938.45,0.0,939,True,284.57
1394,5938.45,0.0,949,True,284.78
1395,5938.45,0.0,976,True,284.98
1396,5938.45,0.0,968,True,285.18
1397,5938.45,0.0,965,True,285.39
1398,5938.45,0.0,961,True,285.6
1399,5938.45,0.0,958,True,285.8
1400,5938.57,0.56,936,True,286.02
1401,5938.73,0.83,908,True,286.21
1402,5938.9,0.83,889,True,286.41
1403,5939.05,0.83,856,True,286.59
1404,5939.3,1.11,850,True,286.81
1405,5939.54,1.11,836,True,287.02
1406,5939.77,1.11,823,True,287.23
1407,5939.99,1.11,804,True,287.43
1408,5940.26,1.39,785,True,287.63
1409,5940.54,1.39,769,True,287.83
1410,5940.82,1.39,770,True,288.03
1411,5941.24,1.39,824,True,288.34
1412,5941.54,1.39,825,True,288.55
1413,5941.91,1.39,1034,True,288.82
1414,5941.93,1.39,1202,True,288.83
1415,5942.24,1.39,1350,True,289.06
1416,5942.59,1.67,1481,True,289.27
1417,5942.92,1.67,1519,True,289.46
1418,5943.32,1.94,1549,True,289.67
1419,5943.71,1.94,1552,True,289.87
1420,5944.17,2.22,1560,True,290.08
1421,5944.68,2.5,1566,True,290.28
1422,5945.24,2.78,1552,True,290.48
1423,5945.77,2.78,1487,True,290.68
1424,5946.46,3.06,1471,True,290.9
1425,5947.07,3.06,1529,True,291.1
1426,5947.68,3.06,1522,True,291.3
1427,5948.31,3.06,1548,True,291.51
1428,5948.91,3.06,1542,True,291.71
1429,5949.55,3.06,1564,True,291.92
1430,5950.18,3.06,1579,True,292.12
1431,5950.82,3.06,1581,True,292.33
1432,5951.47,3.33,1601,True,292.53
1433,5952.16,3.33,1600,True,292.73
1434,5952.82,3.33,1621,True,292.93
1435,5953.51,3.33,1643,True,293.14
1436,5954.58,3.33,1646,True,293.46
1437,5955.28,3.33,1686,True,293.67
1438,5955.88,3.33,1700,True,293.85
1439,5956.24,3.33,1718,True,293.95
1440,5956.96,3.61,1738,True,294.15
1441,5957.74,3.61,1762,True,294.37
1442,5958.46,3.61,1772,True,294.57
1443,5959.18,3.61,1798,True,294.77
1444,5959.93,3.61,1804,True,294.98
1445,5960.66,3.61,1829,True,295.18
1446,5961.4,3.61,1848,True,295.38
1447,5962.2,3.89,1857,True,295.59
1448,5962.93,3.89,1879,True,295.78
1449,5963.79,3.89,1892,True,296.0
1450,5964.57,3.89,1906,True,296.2
1451,5965.39,3.89,1929,True,296.41
1452,5966.16,3.89,1941,True,296.6
1453,5966.97,3.89,1964,True,296.81
1454,5967.82,4.17,1976,True,297.02
1455,5968.67,4.17,1992,True,297.22
1456,5969.52,4.17,2001,True,297.42
1457,5970.31,4.17,2022,True,297.61
1458,5971.22,4.17,2010,True,297.83
1459,5972.07,4.17,2025,True,298.04
1460,5972.93,4.17,2023,True,298.24
1461,5974.4,4.17,2034,True,298.6
1462,5975.27,4.17,2022,True,298.81
1463,5975.48,4.17,2023,True,298.86
1464,5976.32,4.17,2016,True,299.06
1465,5977.19,4.17,1979,True,299.27
1466,5978.05,4.17,1936,True,299.47
1467,5978.81,3.89,1920,True,299.67
1468,5979.6,3.89,1886,True,299.87
1469,5980.34,3.61,1831,True,300.08
1470,5981.09,3.61,1834,True,300.28
1471,5981.82,3.61,1820,True,300.49
1472,5982.48,3.61,1798,True,300.67
1473,5983.27,3.61,1774,True,300.89
1474,5984.03,3.61,1797,True,301.1
1475,5984.76,3.61,1776,True,301.3
1476,5985.49,3.61,1807,True,301.5
1477,5986.2,3.61,1791,True,301.7
1478,5986.93,3.61,1813,True,301.9
1479,5987.67,3.61,1810,True,302.11
1480,5988.42,3.61,1822,True,302.32
1481,5989.16,3.61,1821,True,302.52
1482,5989.86,3.61,1835,True,302.72
1483,5990.63,3.61,1827,True,302.93
1484,5991.38,3.61,1848,True,303.13
1485,5992.77,3.61,1840,True,303.52
1486,5993.35,3.89,1838,True,303.67
1487,5994.01,3.61,1832,True,303.85
1488,5994.31,3.61,1830,True,303.94
1489,5995.06,3.61,1827,True,304.15
1490,5995.8,3.61,1829,True,304.35
1491,5996.53,3.61,1822,True,304.55
1492,5997.25,3.61,1813,True,304.75
1493,5997.97,3.61,1836,True,304.95
1494,5998.75,3.61,1815,True,305.17
1495,5999.49,3.61,1834,True,305.37
1496,6000.22,3.61,1824,True,305.58
1497,6000.94,3.61,1794,True,305.78
1498,6001.65,3.61,1740,True,305.97
1499,6002.4,3.61,1767,True,306.18
1500,6003.13,3.61,1690,True,306.38
1501,6003.81,3.33,1639,True,306.58
1502,6004.43,3.06,1573,True,306.79
1503,6005.04,3.06,1498,True,306.99
1504,6005.6,2.78,1431,True,307.19
1505,6006.14,2.78,1420,True,307.38
1506,6006.74,2.78,1394,True,307.6
1507,6007.29,2.78,1326,True,307.79
1508,6007.86,2.78,1348,True,308.0
1509,6008.41,2.78,1331,True,308.2
1510,6009.28,2.78,1329,True,308.51
1511,6009.79,2.5,1327,True,308.72
1512,6010.22,2.5,1305,True,308.89
1513,6010.53,2.5,1287,True,309.01
1514,6011.05,2.5,1234,True,309.22
1515,6011.55,2.5,1272,True,309.42
1516,6012.05,2.5,1255,True,309.62
1517,6012.57,2.5,1209,True,309.83
1518,6013.08,2.5,1216,True,310.03
1519,6013.53,2.22,1154,True,310.23
1520,6013.99,2.22,1141,True,310.44
1521,6014.43,2.22,1103,True,310.64
1522,6014.89,2.22,1079,True,310.84
1523,6015.28,1.94,1110,True,311.04
1524,6015.74,1.94,1053,True,311.28
1525,6016.06,1.94,1040,True,311.45
1526,6016.46,1.94,1083,True,311.66
1527,6016.85,1.94,1040,True,311.85
1528,6017.25,1.94,1061,True,312.06
1529,6017.64,1.94,1050,True,312.26
1530,6018.02,1.94,1047,True,312.46
1531,6018.43,1.94,1033,True,312.67
1532,6018.83,1.94,1028,True,312.88
1533,6019.22,1.94,1015,True,313.08
1534,6019.96,1.94,999,True,313.46
1535,6020.37,1.94,995,True,313.67
1536,6020.64,1.94,975,True,313.81
1537,6020.75,1.94,968,True,313.87
1538,6021.2,1.94,963,True,314.1
1539,6021.59,1.94,946,True,314.3
1540,6021.99,1.94,942,True,314.51
1541,6022.32,1.67,933,True,314.71
1542,6022.66,1.67,929,True,314.91
1543,6023.03,1.67,927,True,315.14
1544,6023.34,1.67,925,True,315.32
1545,6023.67,1.67,938,True,315.52
1546,6024.06,1.94,937,True,315.72
1547,6024.45,1.94,938,True,315.92
1548,6024.86,1.94,941,True,316.14
1549,6025.25,1.94,940,True,316.34
1550,6025.67,1.94,932,True,316.55
1551,6026.05,1.94,937,True,316.74
1552,6026.43,1.94,929,True,316.94
1553,6026.8,1.67,940,True,317.16
1554,6027.19,1.94,935,True,317.36
1555,6027.58,1.94,989,True,317.56
1556,6027.97,1.94,977,True,317.76
1557,6028.38,1.94,1045,True,317.98
1558,6028.81,2.22,1037,True,318.17
1559,6029.59,2.22,1118,True,318.52
1560,6030.2,2.22,1115,True,318.79
1561,6030.28,2.22,1159,True,318.83
1562,6030.64,2.22,1175,True,318.99
1563,6031.09,2.22,1228,True,319.19
1564,6031.55,2.22,1266,True,319.4
1565,6032.0,2.22,1249,True,319.6
1566,6032.44,2.22,1151,True,319.8
1567,6032.84,1.94,1044,True,320.01
1568,6033.2,1.67,969,True,320.22
1569,6033.47,1.39,904,True,320.42
1570,6033.69,1.11,868,True,320.62
1571,6033.89,1.11,855,True,320.8
1572,6034.14,1.11,844,True,321.03
1573,6034.31,0.83,829,True,321.24
1574,6034.48,0.83,808,True,321.44
1575,6034.65,0.83,848,True,321.64
1576,6034.81,0.83,1050,True,321.84
1577,6034.99,0.83,1085,True,322.05
1578,6035.15,0.83,1064,True,322.25
1579,6035.32,0.83,1023,True,322.46
1580,6035.42,0.56,975,True,322.64
1581,6035.53,0.56,930,True,322.83
1582,6035.53,0.0,892,True,323.06
1583,6035.53,0.0,850,True,323.39
1584,6035.53,0.0,854,True,323.59
1585,6035.53,0.0,812,True,323.81
1586,6035.53,0.0,792,True,323.88
1587,6035.53,0.0,784,True,324.1
1588,6035.53,0.0,771,True,324.29
1589,6035.53,0.0,751,True,324.49
1590,6035.53,0.0,751,True,324.69
1591,6035.53,0.0,765,True,324.89
1592,6035.53,0.0,758,True,325.1
1593,6035.53,0.0,762,True,325.31
1594,6035.53,0.0,761,True,325.51
1595,6035.53,0.0,754,True,325.71
1596,6035.53,0.0,752,True,325.92
1597,6035.53,0.0,754,True,326.12
1598,6035.53,0.0,756,True,326.33
1599,6035.53,0.0,756,True,326.53
1600,6035.53,0.0,768,True,326.73
1601,6035.53,0.0,772,True,326.94
1602,6035.53,0.0,766,True,327.14
1603,6035.53,0.0,771,True,327.33
1604,6035.53,0.0,764,True,327.55
1605,6035.53,0.0,766,True,327.75
1606,6035.53,0.0,765,True,327.95
1607,6035.53,0.0,764,True,328.14
1608,6035.53,0.0,760,True,328.47
1609,6035.53,0.0,773,True,328.75
1610,6035.53,0.0,775,True,328.83
1611,6035.53,0.0,774,True,328.96
1612,6035.53,0.0,773,True,329.18
1613,6035.53,0.0,774,True,329.38
1614,6035.53,0.0,773,True,329.58
1615,6035.53,0.0,766,True,329.78
1616,6035.53,0.0,762,True,329.99
1617,6035.53,0.0,772,True,330.19
1618,6035.53,0.0,763,True,330.39
1619,6035.53,0.0,764,True,330.59
1620,6035.53,0.0,779,True,330.81
1621,6035.53,0.0,775,True,331.01
1622,6035.53,0.0,773,True,331.22
1623,6035.53,0.0,775,True,331.42
1624,6035.53,0.0,786,True,331.63
1625,6035.53,0.0,930,True,331.82
1626,6035.53,0.0,1035,True,332.04
1627,6035.53,0.0,1127,True,332.24
1628,6035.53,0.0,1195,True,332.45
1629,6035.53,0.0,1251,True,332.65
1630,6035.53,0.0,1271,True,332.86
1631,6035.71,0.83,1263,True,333.07
1632,6035.97,0.83,1236,True,333.38
1633,6036.28,1.11,1111,True,333.66
1634,6036.48,1.39,936,True,333.8
1635,6036.61,1.67,839,True,333.88
1636,6036.96,1.67,856,True,334.08
1637,6037.42,1.94,972,True,334.32
1638,6037.71,1.67,1098,True,334.49
1639,6038.04,1.67,1090,True,334.69
1640,6038.37,1.67,1151,True,334.89
1641,6038.72,1.67,1207,True,335.1
1642,6039.06,1.67,1222,True,335.31
1643,6039.41,1.67,1203,True,335.52
1644,6039.79,1.94,1165,True,335.71
1645,6040.19,1.94,1090,True,335.92
1646,6040.57,1.94,1024,True,336.11
1647,6040.99,1.94,1012,True,336.33
1648,6041.38,1.94,1042,True,336.53
1649,6041.74,1.94,1062,True,336.71
1650,6042.23,2.22,1092,True,336.94
