speed,rpm,lat,long,breakReleased,time
50,1730,null,null,true,1547069561040
50,1731,null,null,true,1547069561259
49,1713,null,null,true,1547069561466
49,1706,null,null,true,1547069561660
48,1690,null,null,true,1547069561870
48,1688,null,null,true,1547069562080
48,1670,null,null,true,1547069562309
48,1667,null,null,true,1547069562488
47,1652,null,null,true,1547069562690
47,1691,null,null,true,1547069562887
47,1666,null,null,true,1547069563100
47,1754,null,null,true,1547069563302
48,1655,null,null,true,1547069563510
48,1690,null,null,true,1547069563709
49,1707,null,null,true,1547069563927
50,1738,null,null,true,1547069564125
50,1756,null,null,true,1547069564333
51,1770,null,null,true,1547069564540
52,1799,null,null,true,1547069564736
52,1826,null,null,true,1547069564957
53,1861,null,null,true,1547069565199
54,1880,null,null,true,1547069565429
55,1917,null,null,true,1547069565565
56,1955,null,null,true,1547069565769
57,1968,null,null,true,1547069565980
57,1954,null,null,true,1547069566182
58,1978,null,null,true,1547069566397
58,2024,null,null,true,1547069566598
58,2032,null,null,true,1547069566806
59,2052,null,null,true,1547069567009
59,2065,null,null,true,1547069567218
60,2092,null,null,true,1547069567423
61,2102,null,null,true,1547069567622
61,2130,null,null,true,1547069567844
62,2153,null,null,true,1547069568024
63,2168,null,null,true,1547069568239
63,2189,null,null,true,1547069568537
63,2199,null,null,true,1547069568652
64,2218,null,null,true,1547069568860
64,2227,null,null,true,1547069569051
65,2232,null,null,true,1547069569265
65,2247,null,null,true,1547069569473
65,2284,null,null,true,1547069569679
65,2264,null,null,true,1547069569884
65,2255,null,null,true,1547069570088
65,2259,null,null,true,1547069570288
65,2235,null,null,true,1547069570505
64,2239,null,null,true,1547069570708
64,2222,null,null,true,1547069570912
64,2212,null,null,true,1547069571116
63,2200,null,null,true,1547069571322
63,2185,null,null,true,1547069571682
63,2172,null,null,true,1547069571738
62,2162,null,null,true,1547069571936
62,2150,null,null,true,1547069572137
61,2137,null,null,true,1547069572352
61,2127,null,null,true,1547069572559
61,2115,null,null,true,1547069572760
60,2108,null,null,true,1547069572964
60,2094,null,null,true,1547069573171
60,2085,null,null,true,1547069573390
60,2071,null,null,true,1547069573590
59,2058,null,null,true,1547069573794
59,2048,null,null,true,1547069574007
59,2037,null,null,true,1547069574208
58,2029,null,null,true,1547069574415
58,2018,null,null,true,1547069574737
58,2004,null,null,true,1547069574796
57,1993,null,null,true,1547069575026
57,1984,null,null,true,1547069575216
57,1972,null,null,true,1547069575418
56,1957,null,null,true,1547069575647
56,1946,null,null,true,1547069575861
56,1940,null,null,true,1547069576069
55,1928,null,null,true,1547069576270
55,1915,null,null,true,1547069576467
55,1903,null,null,true,1547069576684
54,1898,null,null,true,1547069576887
54,1884,null,null,true,1547069577092
54,1867,null,null,true,1547069577293
53,1862,null,null,true,1547069577507
53,1886,null,null,true,1547069577718
53,1864,null,null,true,1547069577923
53,1863,null,null,true,1547069578112
54,1880,null,null,true,1547069578329
54,1894,null,null,true,1547069578539
55,1916,null,null,true,1547069578742
55,1930,null,null,true,1547069578936
56,1954,null,null,true,1547069579139
56,1969,null,null,true,1547069579357
57,1992,null,null,true,1547069579556
58,2014,null,null,true,1547069579766
58,2026,null,null,true,1547069579975
59,2039,null,null,true,1547069580169
59,2039,null,null,true,1547069580390
59,2035,null,null,true,1547069580592
59,2031,null,null,true,1547069580787
59,2027,null,null,true,1547069581049
58,2032,null,null,true,1547069581204
58,2011,null,null,true,1547069581412
58,2010,null,null,true,1547069581610
57,1997,null,null,true,1547069581840
57,1985,null,null,true,1547069582021
57,1970,null,null,true,1547069582235
56,1962,null,null,true,1547069582445
56,1953,null,null,true,1547069582648
56,1939,null,null,true,1547069582852
55,1925,null,null,true,1547069583084
55,1919,null,null,true,1547069583245
55,1911,null,null,true,1547069583464
54,1895,null,null,true,1547069583675
54,1883,null,null,true,1547069583869
54,1878,null,null,true,1547069584138
54,1862,null,null,true,1547069584278
53,1853,null,null,true,1547069584488
53,1847,null,null,true,1547069584695
53,1829,null,null,true,1547069584898
52,1825,null,null,true,1547069585105
52,1812,null,null,true,1547069585307
52,1835,null,null,true,1547069585519
52,1807,null,null,true,1547069585714
52,1837,null,null,true,1547069585934
52,1819,null,null,true,1547069586136
53,1850,null,null,true,1547069586333
54,1869,null,null,true,1547069586546
54,1891,null,null,true,1547069586749
55,1923,null,null,true,1547069586961
56,1954,null,null,true,1547069587270
57,1978,null,null,true,1547069587378
58,1999,null,null,true,1547069587573
59,2040,null,null,true,1547069587791
59,2082,null,null,true,1547069587991
60,2106,null,null,true,1547069588213
61,2127,null,null,true,1547069588403
62,2154,null,null,true,1547069588605
62,2120,null,null,true,1547069588806
61,2127,null,null,true,1547069589013
61,2115,null,null,true,1547069589225
61,2121,null,null,true,1547069589426
61,2100,null,null,true,1547069589639
60,2098,null,null,true,1547069589846
60,2081,null,null,true,1547069590056
59,2068,null,null,true,1547069590408
59,2059,null,null,true,1547069590462
59,2052,null,null,true,1547069590675
59,2039,null,null,true,1547069590869
58,2031,null,null,true,1547069591073
58,2011,null,null,true,1547069591263
58,2007,null,null,true,1547069591483
57,1994,null,null,true,1547069591695
57,1988,null,null,true,1547069591886
57,1973,null,null,true,1547069592106
56,1959,null,null,true,1547069592306
56,1948,null,null,true,1547069592501
56,1943,null,null,true,1547069592716
55,1923,null,null,true,1547069592922
55,1917,null,null,true,1547069593109
55,1907,null,null,true,1547069593329
54,1892,null,null,true,1547069593530
54,1880,null,null,true,1547069593744
54,1875,null,null,true,1547069593942
54,1864,null,null,true,1547069594155
53,1849,null,null,true,1547069594360
53,1841,null,null,true,1547069594560
52,1827,null,null,true,1547069594765
52,1815,null,null,true,1547069594962
52,1812,null,null,true,1547069595179
51,1791,null,null,true,1547069595380
51,1787,null,null,false,1547069595569
51,1775,null,null,false,1547069595787
50,1747,null,null,false,1547069596002
48,1694,null,null,false,1547069596195
46,1616,null,null,false,1547069596418
45,1556,null,null,false,1547069596624
43,1497,null,null,false,1547069596806
42,1446,null,null,false,1547069597019
40,1414,null,null,false,1547069597223
39,1376,null,null,false,1547069597429
38,1328,null,null,false,1547069597632
37,1318,null,null,false,1547069597837
37,1270,null,null,false,1547069598053
36,1247,null,null,false,1547069598269
36,1179,null,null,false,1547069598479
36,1117,null,null,true,1547069598655
36,1080,null,null,true,1547069598858
35,1414,null,null,true,1547069599061
35,1770,null,null,true,1547069599256
35,1760,null,null,true,1547069599476
35,1736,null,null,true,1547069599793
35,1736,null,null,true,1547069599886
35,1737,null,null,true,1547069600091
36,1741,null,null,true,1547069600280
36,1757,null,null,true,1547069600500
36,1756,null,null,true,1547069600696
36,1765,null,null,true,1547069600909
36,1770,null,null,true,1547069601099
36,1776,null,null,true,1547069601322
36,1777,null,null,true,1547069601525
36,1775,null,null,true,1547069601731
36,1770,null,null,true,1547069601936
36,1769,null,null,true,1547069602144
36,1776,null,null,true,1547069602347
36,1776,null,null,true,1547069602550
36,1781,null,null,true,1547069602873
36,1768,null,null,true,1547069602934
36,1774,null,null,true,1547069603164
36,1775,null,null,true,1547069603367
36,1767,null,null,true,1547069603586
36,1765,null,null,true,1547069603791
36,1762,null,null,true,1547069603998
36,1766,null,null,true,1547069604207
36,1768,null,null,true,1547069604413
36,1762,null,null,true,1547069604619
36,1756,null,null,true,1547069604808
36,1755,null,null,true,1547069605038
36,1747,null,null,true,1547069605227
36,1745,null,null,true,1547069605422
36,1746,null,null,true,1547069605641
35,1751,null,null,true,1547069605976
36,1747,null,null,true,1547069606053
36,1746,null,null,true,1547069606265
36,1740,null,null,true,1547069606471
36,1743,null,null,true,1547069606674
36,1747,null,null,true,1547069606883
36,1754,null,null,true,1547069607083
36,1761,null,null,true,1547069607279
36,1763,null,null,true,1547069607495
36,1771,null,null,true,1547069607698
36,1769,null,null,true,1547069607902
36,1780,null,null,true,1547069608107
36,1790,null,null,true,1547069608309
37,1799,null,null,true,1547069608526
37,1816,null,null,true,1547069608725
37,1829,null,null,true,1547069609042
38,1844,null,null,true,1547069609129
38,1857,null,null,true,1547069609350
38,1868,null,null,true,1547069609557
39,1890,null,null,true,1547069609769
39,1910,null,null,true,1547069609969
39,1932,null,null,true,1547069610182
40,1944,null,null,true,1547069610383
40,1964,null,null,true,1547069610591
41,2011,null,null,true,1547069610784
42,2040,null,null,true,1547069611004
42,2074,null,null,true,1547069611204
43,2123,null,null,true,1547069611413
44,2152,null,null,true,1547069611618
45,2210,null,null,true,1547069611816
46,2260,null,null,true,1547069612027
47,2285,null,null,true,1547069612255
47,2324,null,null,true,1547069612430
48,2354,null,null,true,1547069612649
49,2372,null,null,true,1547069612839
49,2397,null,null,true,1547069613058
50,2415,null,null,true,1547069613267
50,2427,null,null,true,1547069613474
50,2436,null,null,true,1547069613676
50,2424,null,null,true,1547069613879
50,2427,null,null,true,1547069614085
49,2390,null,null,true,1547069614290
49,2390,null,null,true,1547069614491
49,2368,null,null,true,1547069614690
48,2341,null,null,true,1547069614903
48,2327,null,null,true,1547069615119
47,2307,null,null,true,1547069615350
47,2284,null,null,true,1547069615520
46,2264,null,null,true,1547069615723
46,2238,null,null,true,1547069615942
45,2217,null,null,true,1547069616138
45,2192,null,null,true,1547069616380
44,2200,null,null,true,1547069616538
44,2161,null,null,true,1547069616754
44,2159,null,null,true,1547069616958
44,2096,null,null,true,1547069617165
43,2104,null,null,true,1547069617360
43,2108,null,null,true,1547069617573
42,2081,null,null,true,1547069617779
42,2060,null,null,true,1547069617984
42,2041,null,null,true,1547069618186
41,2019,null,null,true,1547069618481
41,2000,null,null,true,1547069618593
40,1983,null,null,true,1547069618800
40,1956,null,null,true,1547069619005
39,1936,null,null,true,1547069619208
39,1915,null,null,true,1547069619406
39,1891,null,null,true,1547069619605
38,1874,null,null,true,1547069619814
38,1852,null,null,true,1547069620022
37,1829,null,null,true,1547069620218
37,1805,null,null,true,1547069620434
36,1777,null,null,true,1547069620638
36,1759,null,null,true,1547069620840
35,1741,null,null,true,1547069621045
35,1772,null,null,true,1547069621249
35,1731,null,null,true,1547069621607
35,1740,null,null,true,1547069621668
35,1735,null,null,true,1547069621865
35,1740,null,null,true,1547069622063
36,1741,null,null,true,1547069622272
36,1747,null,null,true,1547069622477
36,1747,null,null,true,1547069622690
36,1760,null,null,true,1547069622891
36,1763,null,null,true,1547069623099
36,1761,null,null,true,1547069623313
36,1760,null,null,true,1547069623517
36,1751,null,null,true,1547069623727
36,1744,null,null,true,1547069623923
36,1739,null,null,true,1547069624137
36,1745,null,null,true,1547069624340
36,1747,null,null,true,1547069624553
36,1752,null,null,true,1547069624749
36,1753,null,null,true,1547069624948
36,1749,null,null,true,1547069625176
36,1738,null,null,true,1547069625363
35,1733,null,null,true,1547069625567
36,1743,null,null,true,1547069625755
35,1738,null,null,true,1547069625976
35,1743,null,null,true,1547069626180
35,1743,null,null,true,1547069626378
35,1741,null,null,true,1547069626602
35,1736,null,null,true,1547069626800
35,1730,null,null,true,1547069627009
35,1724,null,null,true,1547069627202
35,1725,null,null,true,1547069627414
35,1724,null,null,true,1547069627623
35,1750,null,null,true,1547069627839
36,1751,null,null,true,1547069628031
36,1786,null,null,true,1547069628224
37,1805,null,null,true,1547069628440
37,1835,null,null,true,1547069628645
38,1856,null,null,true,1547069628857
39,1897,null,null,true,1547069629053
39,1942,null,null,true,1547069629268
40,1982,null,null,true,1547069629479
41,2018,null,null,true,1547069629666
42,2060,null,null,true,1547069629888
43,2117,null,null,true,1547069630105
45,2171,null,null,true,1547069630299
46,2222,null,null,true,1547069630506
47,2293,null,null,true,1547069630711
48,2356,null,null,true,1547069630950
49,2411,null,null,true,1547069631103
50,2441,null,null,true,1547069631314
51,2515,null,null,true,1547069631539
52,2576,null,null,true,1547069631759
54,2629,null,null,true,1547069631954
55,2680,null,null,true,1547069632154
57,2745,null,null,true,1547069632358
58,2804,null,null,true,1547069632564
59,2857,null,null,true,1547069632771
60,2910,null,null,true,1547069633005
61,2965,null,null,true,1547069633181
62,3024,null,null,true,1547069633393
63,3072,null,null,true,1547069633594
64,3125,null,null,true,1547069633808
66,3183,null,null,true,1547069634082
66,3241,null,null,true,1547069634213
67,3294,null,null,true,1547069634419
68,3337,null,null,true,1547069634620
69,3386,null,null,true,1547069634830
70,3437,null,null,true,1547069635035
71,3386,null,null,true,1547069635238
71,3429,null,null,true,1547069635450
71,3145,null,null,true,1547069635646
70,2834,null,null,true,1547069635859
70,2397,null,null,true,1547069636066
71,2442,null,null,true,1547069636264
71,2490,null,null,true,1547069636466
72,2508,null,null,true,1547069636682
73,2532,null,null,true,1547069636888
74,2556,null,null,true,1547069637181
75,2604,null,null,true,1547069637293
75,2574,null,null,true,1547069637487
75,2606,null,null,true,1547069637702
75,2614,null,null,true,1547069637907
75,2616,null,null,true,1547069638127
75,2594,null,null,true,1547069638318
74,2580,null,null,true,1547069638530
74,2572,null,null,true,1547069638712
74,2557,null,null,true,1547069638935
73,2545,null,null,true,1547069639136
73,2531,null,null,true,1547069639360
73,2518,null,null,true,1547069639544
72,2503,null,null,true,1547069639759
72,2494,null,null,true,1547069639957
71,2477,null,null,true,1547069640306
71,2465,null,null,true,1547069640366
71,2452,null,null,true,1547069640577
70,2439,null,null,true,1547069640782
70,2426,null,null,true,1547069640987
69,2412,null,null,true,1547069641183
69,2399,null,null,true,1547069641394
69,2390,null,null,true,1547069641602
68,2379,null,null,true,1547069641794
68,2362,null,null,true,1547069642011
68,2350,null,null,true,1547069642219
67,2339,null,null,true,1547069642423
67,2329,null,null,true,1547069642631
67,2313,null,null,true,1547069642841
66,2298,null,null,true,1547069643042
66,2290,null,null,true,1547069643418
65,2275,null,null,true,1547069643432
65,2260,null,null,true,1547069643646
65,2246,null,null,true,1547069643861
64,2232,null,null,true,1547069644062
64,2225,null,null,true,1547069644268
64,2250,null,null,true,1547069644472
64,2185,null,null,true,1547069644660
64,2254,null,null,true,1547069644885
64,2234,null,null,true,1547069645103
65,2260,null,null,true,1547069645293
66,2286,null,null,true,1547069645486
66,2309,null,null,true,1547069645689
67,2343,null,null,true,1547069645913
68,2371,null,null,true,1547069646102
69,2395,null,null,true,1547069646322
70,2418,null,null,true,1547069646582
70,2448,null,null,true,1547069646712
71,2462,null,null,true,1547069646942
72,2494,null,null,true,1547069647151
72,2516,null,null,true,1547069647332
73,2531,null,null,true,1547069647547
74,2560,null,null,true,1547069647756
74,2583,null,null,true,1547069647953
75,2602,null,null,true,1547069648170
75,2608,null,null,true,1547069648371
76,2616,null,null,true,1547069648567
76,2635,null,null,true,1547069648783
76,2648,null,null,true,1547069649005
77,2657,null,null,true,1547069649210
77,2684,null,null,true,1547069649414
78,2705,null,null,true,1547069649690
78,2713,null,null,true,1547069649823
79,2735,null,null,true,1547069650027
79,2718,null,null,true,1547069650232
79,2715,null,null,true,1547069650437
79,2729,null,null,true,1547069650640
78,2671,null,null,true,1547069650848
78,2708,null,null,true,1547069651053
78,2687,null,null,true,1547069651252
77,2684,null,null,true,1547069651466
77,2666,null,null,true,1547069651671
77,2655,null,null,true,1547069651890
76,2643,null,null,true,1547069652081
76,2628,null,null,true,1547069652283
75,2615,null,null,true,1547069652492
75,2601,null,null,true,1547069652792
75,2588,null,null,true,1547069652885
74,2576,null,null,true,1547069653102
74,2566,null,null,true,1547069653308
74,2556,null,null,true,1547069653503
73,2539,null,null,true,1547069653718
73,2527,null,null,true,1547069653928
73,2519,null,null,true,1547069654136
72,2501,null,null,true,1547069654335
72,2490,null,null,true,1547069654543
71,2480,null,null,true,1547069654765
71,2464,null,null,true,1547069654948
71,2458,null,null,true,1547069655158
70,2441,null,null,true,1547069655360
70,2429,null,null,true,1547069655561
69,2417,null,null,true,1547069655903
69,2406,null,null,true,1547069655977
69,2394,null,null,true,1547069656180
68,2382,null,null,true,1547069656389
68,2370,null,null,true,1547069656593
68,2359,null,null,true,1547069656800
68,2348,null,null,true,1547069657005
67,2335,null,null,true,1547069657194
67,2324,null,null,true,1547069657420
67,2311,null,null,true,1547069657616
66,2297,null,null,true,1547069657826
66,2284,null,null,true,1547069658045
66,2275,null,null,true,1547069658246
65,2263,null,null,true,1547069658452
65,2250,null,null,true,1547069658655
64,2239,null,null,true,1547069659022
64,2224,null,null,true,1547069659069
64,2214,null,null,true,1547069659264
63,2203,null,null,true,1547069659469
63,2191,null,null,true,1547069659673
63,2192,null,null,true,1547069659885
63,2150,null,null,true,1547069660086
63,2201,null,null,true,1547069660293
63,2212,null,null,true,1547069660488
64,2215,null,null,true,1547069660696
65,2238,null,null,true,1547069660905
65,2267,null,null,true,1547069661107
66,2310,null,null,true,1547069661313
67,2331,null,null,true,1547069661498
68,2366,null,null,true,1547069661728
69,2398,null,null,true,1547069661936
70,2427,null,null,true,1547069662158
71,2468,null,null,true,1547069662343
72,2493,null,null,true,1547069662550
73,2532,null,null,true,1547069662763
73,2548,null,null,true,1547069662962
73,2523,null,null,true,1547069663165
73,2521,null,null,true,1547069663374
73,2512,null,null,true,1547069663576
72,2515,null,null,true,1547069663784
72,2489,null,null,true,1547069663980
71,2480,null,null,true,1547069664186
71,2456,null,null,true,1547069664397
70,2445,null,null,true,1547069664589
70,2431,null,null,true,1547069664816
70,2420,null,null,true,1547069665046
69,2398,null,null,true,1547069665266
69,2390,null,null,true,1547069665426
68,2367,null,null,true,1547069665632
68,2359,null,null,true,1547069665835
68,2345,null,null,true,1547069666046
67,2327,null,null,true,1547069666252
67,2312,null,null,true,1547069666452
66,2303,null,null,true,1547069666661
66,2287,null,null,true,1547069666863
65,2273,null,null,true,1547069667073
65,2262,null,null,true,1547069667275
64,2246,null,null,true,1547069667480
64,2233,null,null,true,1547069667675
64,2214,null,null,true,1547069667890
63,2204,null,null,true,1547069668095
63,2189,null,null,true,1547069668396
63,2173,null,null,true,1547069668500
62,2158,null,null,true,1547069668698
62,2146,null,null,true,1547069668895
61,2133,null,null,true,1547069669125
61,2116,null,null,true,1547069669331
60,2104,null,null,true,1547069669541
60,2093,null,null,true,1547069669744
60,2076,null,null,true,1547069669946
59,2060,null,null,true,1547069670138
59,2047,null,null,true,1547069670362
58,2031,null,null,true,1547069670565
58,2020,null,null,true,1547069670790
58,2010,null,null,true,1547069670985
57,1997,null,null,true,1547069671190
57,1977,null,null,true,1547069671510
56,1964,null,null,true,1547069671599
56,1950,null,null,true,1547069671812
56,1940,null,null,true,1547069672002
55,1920,null,null,true,1547069672213
55,1907,null,null,true,1547069672437
55,1899,null,null,true,1547069672639
54,1885,null,null,true,1547069672841
54,1871,null,null,true,1547069673049
53,1860,null,null,true,1547069673253
53,1843,null,null,true,1547069673460
53,1872,null,null,true,1547069673659
53,1824,null,null,true,1547069673861
53,1875,null,null,true,1547069674078
54,1860,null,null,true,1547069674280
54,1872,null,null,true,1547069674475
55,1903,null,null,true,1547069674672
55,1912,null,null,true,1547069674893
56,1944,null,null,true,1547069675097
57,1977,null,null,true,1547069675307
57,1987,null,null,true,1547069675510
58,2017,null,null,true,1547069675721
59,2051,null,null,true,1547069675926
60,2081,null,null,true,1547069676135
60,2110,null,null,true,1547069676330
62,2130,null,null,true,1547069676548
62,2155,null,null,true,1547069676753
63,2185,null,null,true,1547069676955
64,2213,null,null,true,1547069677156
65,2235,null,null,true,1547069677364
65,2259,null,null,true,1547069677626
66,2293,null,null,true,1547069677755
67,2314,null,null,true,1547069677982
68,2351,null,null,true,1547069678198
68,2317,null,null,true,1547069678397
68,2369,null,null,true,1547069678600
68,2348,null,null,true,1547069678809
68,2344,null,null,true,1547069679012
67,2348,null,null,true,1547069679225
67,2318,null,null,true,1547069679432
67,2315,null,null,true,1547069679635
66,2290,null,null,true,1547069679844
66,2284,null,null,true,1547069680058
65,2265,null,null,true,1547069680258
65,2253,null,null,true,1547069680465
64,2241,null,null,true,1547069680677
64,2227,null,null,true,1547069680908
64,2212,null,null,true,1547069681095
63,2197,null,null,true,1547069681301
63,2181,null,null,true,1547069681502
62,2169,null,null,true,1547069681711
62,2154,null,null,true,1547069681915
62,2141,null,null,true,1547069682115
61,2127,null,null,true,1547069682321
61,2115,null,null,true,1547069682528
60,2103,null,null,true,1547069682726
60,2090,null,null,true,1547069682961
60,2075,null,null,true,1547069683149
59,2059,null,null,true,1547069683344
59,2043,null,null,true,1547069683556
58,2035,null,null,true,1547069683765
58,2016,null,null,true,1547069683988
58,2012,null,null,true,1547069684171
57,1991,null,null,true,1547069684404
57,1978,null,null,true,1547069684578
56,1970,null,null,true,1547069684781
56,1958,null,null,true,1547069684987
56,1939,null,null,true,1547069685192
55,1928,null,null,true,1547069685395
55,1916,null,null,true,1547069685604
55,1903,null,null,true,1547069685807
55,1934,null,null,true,1547069686020
54,1898,null,null,true,1547069686227
54,1883,null,null,true,1547069686430
54,1899,null,null,true,1547069686629
54,1899,null,null,true,1547069686822
55,1918,null,null,true,1547069687109
56,1943,null,null,true,1547069687245
56,1949,null,null,true,1547069687458
57,1982,null,null,true,1547069687654
58,2008,null,null,true,1547069687860
59,2037,null,null,true,1547069688070
59,2070,null,null,true,1547069688275
60,2091,null,null,true,1547069688479
61,2121,null,null,true,1547069688685
62,2145,null,null,true,1547069688890
63,2186,null,null,true,1547069689095
64,2203,null,null,true,1547069689304
65,2246,null,null,true,1547069689506
66,2284,null,null,true,1547069689703
67,2315,null,null,true,1547069689924
67,2338,null,null,true,1547069690225
68,2380,null,null,true,1547069690348
69,2403,null,null,true,1547069690518
70,2443,null,null,true,1547069690741
71,2497,null,null,true,1547069690936
72,2512,null,null,true,1547069691129
74,2561,null,null,true,1547069691362
75,2559,null,null,true,1547069691554
76,2637,null,null,true,1547069691766
77,2657,null,null,true,1547069691977
77,2679,null,null,true,1547069692183
78,2741,null,null,true,1547069692388
79,2742,null,null,true,1547069692605
80,2780,null,null,true,1547069692792
81,2817,null,null,true,1547069692988
81,2754,null,null,true,1547069693350
82,2829,null,null,true,1547069693403
81,2833,null,null,true,1547069693612
81,2795,null,null,true,1547069693807
80,2757,null,null,true,1547069694023
80,2774,null,null,true,1547069694230
80,2759,null,null,true,1547069694451
79,2741,null,null,true,1547069694640
79,2721,null,null,true,1547069694841
78,2710,null,null,true,1547069695046
78,2691,null,null,true,1547069695258
77,2680,null,null,true,1547069695461
77,2661,null,null,true,1547069695667
76,2647,null,null,true,1547069695873
76,2632,null,null,true,1547069696079
75,2618,null,null,true,1547069696280
75,2605,null,null,true,1547069696483
75,2596,null,null,true,1547069696693
74,2579,null,null,true,1547069696897
74,2564,null,null,true,1547069697086
74,2557,null,null,true,1547069697303
73,2543,null,null,true,1547069697511
73,2532,null,null,true,1547069697714
73,2516,null,null,true,1547069697905
72,2508,null,null,true,1547069698123
72,2498,null,null,true,1547069698336
72,2483,null,null,true,1547069698535
71,2472,null,null,true,1547069698747
71,2462,null,null,true,1547069698947
71,2453,null,null,true,1547069699136
70,2442,null,null,true,1547069699352
70,2424,null,null,true,1547069699623
70,2421,null,null,true,1547069699763
69,2411,null,null,true,1547069699968
69,2400,null,null,true,1547069700168
69,2393,null,null,true,1547069700374
69,2385,null,null,true,1547069700578
68,2377,null,null,true,1547069700771
68,2368,null,null,true,1547069700979
68,2356,null,null,true,1547069701192
68,2347,null,null,true,1547069701396
67,2337,null,null,true,1547069701601
67,2325,null,null,true,1547069701802
67,2320,null,null,true,1547069702011
66,2306,null,null,true,1547069702192
66,2300,null,null,true,1547069702406
66,2287,null,null,true,1547069702719
66,2284,null,null,true,1547069702834
65,2274,null,null,true,1547069703037
65,2264,null,null,true,1547069703243
65,2256,null,null,true,1547069703431
65,2249,null,null,true,1547069703652
65,2239,null,null,true,1547069703855
64,2229,null,null,true,1547069704062
64,2272,null,null,true,1547069704264
64,2358,null,null,true,1547069704462
65,2251,null,null,true,1547069704693
66,2277,null,null,true,1547069704875
66,2298,null,null,true,1547069705078
67,2331,null,null,true,1547069705282
68,2358,null,null,true,1547069705507
69,2388,null,null,true,1547069705823
70,2439,null,null,true,1547069705900
71,2465,null,null,true,1547069706122
72,2495,null,null,true,1547069706323
73,2542,null,null,true,1547069706532
74,2585,null,null,true,1547069706735
75,2610,null,null,true,1547069706941
77,2656,null,null,true,1547069707153
77,2705,null,null,true,1547069707356
79,2738,null,null,true,1547069707557
80,2779,null,null,true,1547069707756
81,2799,null,null,true,1547069707978
82,2833,null,null,true,1547069708172
83,2857,null,null,true,1547069708360
84,2916,null,null,true,1547069708582
85,2939,null,null,true,1547069708944
86,2989,null,null,true,1547069709014
87,3015,null,null,true,1547069709200
86,2974,null,null,true,1547069709396
86,2871,null,null,true,1547069709602
86,2616,null,null,true,1547069709842
86,2383,null,null,true,1547069710026
85,2371,null,null,true,1547069710220
85,2417,null,null,true,1547069710432
85,2411,null,null,true,1547069710640
86,2425,null,null,true,1547069710851
86,2420,null,null,true,1547069711056
86,2412,null,null,true,1547069711264
86,2424,null,null,true,1547069711471
86,2440,null,null,true,1547069711675
86,2433,null,null,true,1547069711873
86,2439,null,null,true,1547069712086
86,2441,null,null,true,1547069712287
86,2437,null,null,true,1547069712489
87,2446,null,null,true,1547069712700
87,2447,null,null,true,1547069712901
87,2441,null,null,true,1547069713111
87,2446,null,null,true,1547069713305
87,2452,null,null,true,1547069713519
87,2441,null,null,true,1547069713718
87,2451,null,null,true,1547069713925
87,2449,null,null,true,1547069714128
87,2452,null,null,true,1547069714335
87,2451,null,null,true,1547069714530
87,2452,null,null,true,1547069714743
87,2452,null,null,true,1547069714975
87,2449,null,null,true,1547069715216
87,2456,null,null,true,1547069715360
87,2450,null,null,true,1547069715569
87,2443,null,null,true,1547069715783
87,2444,null,null,true,1547069715983
86,2439,null,null,true,1547069716210
86,2432,null,null,true,1547069716395
86,2427,null,null,true,1547069716594
86,2413,null,null,true,1547069716806
86,2408,null,null,true,1547069717019
85,2410,null,null,true,1547069717220
85,2407,null,null,true,1547069717424
85,2396,null,null,true,1547069717610
85,2403,null,null,true,1547069717835
85,2400,null,null,true,1547069718035
85,2397,null,null,true,1547069718313
85,2401,null,null,true,1547069718445
85,2388,null,null,true,1547069718652
85,2395,null,null,true,1547069718857
85,2389,null,null,true,1547069719059
85,2386,null,null,true,1547069719265
85,2395,null,null,true,1547069719464
85,2387,null,null,true,1547069719679
85,2395,null,null,true,1547069719877
85,2391,null,null,true,1547069720090
85,2387,null,null,true,1547069720295
85,2387,null,null,true,1547069720496
85,2392,null,null,true,1547069720699
85,2392,null,null,true,1547069720904
85,2400,null,null,true,1547069721109
85,2390,null,null,true,1547069721437
85,2396,null,null,true,1547069721526
85,2399,null,null,true,1547069721737
85,2394,null,null,true,1547069721935
85,2403,null,null,true,1547069722154
85,2402,null,null,true,1547069722354
85,2401,null,null,true,1547069722552
85,2405,null,null,true,1547069722763
85,2418,null,null,true,1547069722961
86,2416,null,null,true,1547069723178
86,2429,null,null,true,1547069723384
86,2429,null,null,true,1547069723600
86,2438,null,null,true,1547069723796
87,2448,null,null,true,1547069724000
87,2445,null,null,true,1547069724203
87,2458,null,null,true,1547069724547
87,2461,null,null,true,1547069724621
87,2463,null,null,true,1547069724835
87,2463,null,null,true,1547069725039
87,2469,null,null,true,1547069725247
87,2471,null,null,true,1547069725444
88,2465,null,null,true,1547069725659
87,2463,null,null,true,1547069725869
87,2464,null,null,true,1547069726070
87,2462,null,null,true,1547069726282
87,2443,null,null,true,1547069726482
87,2461,null,null,true,1547069726690
87,2449,null,null,true,1547069726895
87,2450,null,null,true,1547069727102
87,2445,null,null,true,1547069727314
86,2441,null,null,true,1547069727636
86,2406,null,null,true,1547069727724
86,2423,null,null,true,1547069727932
86,2429,null,null,true,1547069728138
86,2430,null,null,true,1547069728339
86,2426,null,null,true,1547069728552
86,2408,null,null,true,1547069728757
85,2410,null,null,true,1547069728954
85,2400,null,null,true,1547069729162
85,2401,null,null,true,1547069729358
85,2389,null,null,true,1547069729576
85,2383,null,null,true,1547069729791
84,2378,null,null,true,1547069729976
84,2361,null,null,true,1547069730189
84,2359,null,null,true,1547069730397
83,2367,null,null,true,1547069730716
83,2346,null,null,true,1547069730803
83,2340,null,null,true,1547069731003
83,2343,null,null,true,1547069731221
82,2324,null,null,true,1547069731425
82,2314,null,null,true,1547069731627
82,2305,null,null,true,1547069731809
81,2293,null,null,true,1547069732038
81,2284,null,null,true,1547069732235
81,2276,null,null,true,1547069732447
80,2265,null,null,true,1547069732649
80,2254,null,null,true,1547069732880
79,2244,null,null,true,1547069733072
79,2234,null,null,true,1547069733273
79,2227,null,null,true,1547069733478
78,2216,null,null,true,1547069733686
78,2203,null,null,true,1547069733912
78,2197,null,null,true,1547069734092
77,2184,null,null,true,1547069734294
77,2178,null,null,true,1547069734507
77,2177,null,null,true,1547069734714
77,2157,null,null,true,1547069734922
76,2155,null,null,true,1547069735125
76,2148,null,null,true,1547069735326
76,2135,null,null,true,1547069735535
75,2126,null,null,true,1547069735735
75,2166,null,null,true,1547069735943
75,2167,null,null,true,1547069736123
76,2134,null,null,true,1547069736350
76,2146,null,null,true,1547069736560
77,2168,null,null,true,1547069736753
77,2184,null,null,true,1547069737038
78,2188,null,null,true,1547069737173
79,2214,null,null,true,1547069737388
79,2243,null,null,true,1547069737592
80,2266,null,null,true,1547069737797
81,2273,null,null,true,1547069737981
81,2300,null,null,true,1547069738207
82,2320,null,null,true,1547069738412
82,2336,null,null,true,1547069738623
83,2332,null,null,true,1547069738826
83,2364,null,null,true,1547069739029
84,2371,null,null,true,1547069739246
84,2384,null,null,true,1547069739441
85,2397,null,null,true,1547069739644
86,2417,null,null,true,1547069739858
86,2438,null,null,true,1547069740144
87,2442,null,null,true,1547069740263
87,2455,null,null,true,1547069740480
88,2476,null,null,true,1547069740675
88,2488,null,null,true,1547069740877
89,2507,null,null,true,1547069741085
89,2513,null,null,true,1547069741288
90,2529,null,null,true,1547069741496
90,2545,null,null,true,1547069741700
91,2558,null,null,true,1547069741904
91,2573,null,null,true,1547069742107
92,2585,null,null,true,1547069742315
92,2601,null,null,true,1547069742525
92,2615,null,null,true,1547069742729
93,2624,null,null,true,1547069742939
94,2629,null,null,true,1547069743260
94,2657,null,null,true,1547069743352
94,2654,null,null,true,1547069743570
95,2669,null,null,true,1547069743768
95,2683,null,null,true,1547069743977
95,2682,null,null,true,1547069744183
96,2702,null,null,true,1547069744402
96,2706,null,null,true,1547069744601
96,2717,null,null,true,1547069744809
97,2730,null,null,true,1547069745020
97,2743,null,null,true,1547069745222
98,2753,null,null,true,1547069745419
98,2764,null,null,true,1547069745652
99,2775,null,null,true,1547069745857
99,2783,null,null,true,1547069746041
99,2787,null,null,true,1547069746383
99,2800,null,null,true,1547069746442
100,2807,null,null,true,1547069746642
100,2819,null,null,true,1547069746857
100,2821,null,null,true,1547069747059
100,2830,null,null,true,1547069747268
101,2837,null,null,true,1547069747467
100,2836,null,null,true,1547069747677
100,2836,null,null,true,1547069747887
101,2838,null,null,true,1547069748093
101,2837,null,null,true,1547069748300
101,2841,null,null,true,1547069748505
101,2843,null,null,true,1547069748709
101,2843,null,null,true,1547069748901
101,2846,null,null,true,1547069749117
101,2848,null,null,true,1547069749458
101,2844,null,null,true,1547069749546
101,2856,null,null,true,1547069749732
101,2854,null,null,true,1547069749945
101,2859,null,null,true,1547069750153
101,2859,null,null,true,1547069750369
101,2866,null,null,true,1547069750567
102,2868,null,null,true,1547069750773
102,2871,null,null,true,1547069750977
102,2865,null,null,true,1547069751179
102,2868,null,null,true,1547069751387
102,2871,null,null,true,1547069751575
102,2874,null,null,true,1547069751797
102,2879,null,null,true,1547069752006
102,2883,null,null,true,1547069752228
102,2881,null,null,true,1547069752420
102,2890,null,null,true,1547069752635
102,2879,null,null,true,1547069752828
102,2874,null,null,true,1547069753032
102,2866,null,null,true,1547069753243
102,2860,null,null,true,1547069753454
101,2854,null,null,true,1547069753657
101,2851,null,null,true,1547069753863
101,2833,null,null,true,1547069754068
100,2823,null,null,true,1547069754269
100,2810,null,null,true,1547069754479
99,2795,null,null,true,1547069754682
99,2783,null,null,true,1547069754886
98,2767,null,null,true,1547069755089
98,2753,null,null,true,1547069755286
97,2744,null,null,true,1547069755505
97,2721,null,null,true,1547069755778
96,2711,null,null,true,1547069755902
95,2692,null,null,true,1547069756118
95,2676,null,null,true,1547069756318
94,2659,null,null,true,1547069756543
94,2644,null,null,true,1547069756728
93,2628,null,null,true,1547069756944
93,2614,null,null,true,1547069757196
92,2609,null,null,true,1547069757360
91,2579,null,null,true,1547069757558
91,2575,null,null,true,1547069757766
90,2552,null,null,true,1547069757975
90,2539,null,null,true,1547069758176
89,2533,null,null,true,1547069758385
89,2513,null,null,true,1547069758615
89,2507,null,null,true,1547069758856
89,2575,null,null,true,1547069759002
89,2518,null,null,true,1547069759212
89,2526,null,null,true,1547069759419
90,2533,null,null,true,1547069759624
91,2557,null,null,true,1547069759827
91,2585,null,null,true,1547069760032
92,2591,null,null,true,1547069760240
93,2608,null,null,true,1547069760444
93,2641,null,null,true,1547069760650
95,2659,null,null,true,1547069760851
95,2687,null,null,true,1547069761071
96,2704,null,null,true,1547069761274
97,2728,null,null,true,1547069761472
98,2737,null,null,true,1547069761692
98,2772,null,null,true,1547069761986
99,2788,null,null,true,1547069762096
100,2814,null,null,true,1547069762322
100,2824,null,null,true,1547069762506
101,2836,null,null,true,1547069762713
102,2881,null,null,true,1547069762915
102,2866,null,null,true,1547069763123
103,2897,null,null,true,1547069763328
103,2892,null,null,true,1547069763529
104,2911,null,null,true,1547069763721
104,2935,null,null,true,1547069763925
104,2944,null,null,true,1547069764144
105,2941,null,null,true,1547069764349
105,2923,null,null,true,1547069764535
105,2929,null,null,true,1547069764754
104,2930,null,null,true,1547069765099
104,2917,null,null,true,1547069765165
103,2897,null,null,true,1547069765365
102,2895,null,null,true,1547069765573
102,2872,null,null,true,1547069765777
101,2862,null,null,true,1547069765989
101,2846,null,null,true,1547069766178
100,2835,null,null,true,1547069766378
100,2818,null,null,true,1547069766593
99,2803,null,null,true,1547069766802
99,2800,null,null,true,1547069767013
98,2770,null,null,true,1547069767226
98,2758,null,null,true,1547069767441
97,2739,null,null,true,1547069767636
97,2728,null,null,true,1547069767837
96,2708,null,null,true,1547069768185
96,2694,null,null,true,1547069768230
95,2685,null,null,true,1547069768450
95,2664,null,null,true,1547069768655
94,2656,null,null,true,1547069768849
93,2635,null,null,true,1547069769063
93,2621,null,null,true,1547069769266
92,2606,null,null,true,1547069769476
92,2591,null,null,true,1547069769685
91,2579,null,null,true,1547069769888
91,2561,null,null,true,1547069770094
90,2554,null,null,true,1547069770298
90,2532,null,null,true,1547069770507
90,2524,null,null,false,1547069770710
89,2503,null,null,false,1547069770906
87,2475,null,null,false,1547069771118
86,2439,null,null,false,1547069771375
85,2413,null,null,false,1547069771519
84,2379,null,null,false,1547069771724
83,2334,null,null,false,1547069771938
82,2299,null,null,false,1547069772140
81,2276,null,null,false,1547069772350
79,2260,null,null,false,1547069772539
79,2231,null,null,false,1547069772752
79,2038,null,null,false,1547069772967
78,1761,null,null,true,1547069773150
78,1522,null,null,true,1547069773365
77,1983,null,null,true,1547069773569
77,2731,null,null,true,1547069773763
76,2661,null,null,true,1547069773984
76,2622,null,null,true,1547069774186
75,2614,null,null,true,1547069774464
75,2597,null,null,true,1547069774598
74,2584,null,null,true,1547069774793
74,2568,null,null,true,1547069775013
74,2553,null,null,true,1547069775219
73,2540,null,null,true,1547069775419
73,2521,null,null,true,1547069775617
72,2510,null,null,true,1547069775828
72,2497,null,null,true,1547069776034
71,2479,null,null,true,1547069776226
71,2469,null,null,true,1547069776439
71,2453,null,null,true,1547069776653
70,2437,null,null,true,1547069776856
70,2422,null,null,true,1547069777062
69,2412,null,null,true,1547069777266
69,2400,null,null,true,1547069777587
69,2382,null,null,true,1547069777681
68,2375,null,null,true,1547069777881
68,2355,null,null,true,1547069778085
67,2337,null,null,true,1547069778290
67,2330,null,null,true,1547069778505
67,2314,null,null,true,1547069778690
66,2302,null,null,true,1547069778933
66,2285,null,null,true,1547069779121
65,2270,null,null,true,1547069779313
65,2261,null,null,true,1547069779529
64,2237,null,null,true,1547069779733
64,2217,null,null,true,1547069779915
64,2210,null,null,true,1547069780145
63,2168,null,null,true,1547069780351
63,2147,null,null,true,1547069780700
62,2191,null,null,true,1547069780748
63,2174,null,null,true,1547069780964
63,2182,null,null,true,1547069781173
64,2197,null,null,true,1547069781383
64,2216,null,null,true,1547069781594
64,2237,null,null,true,1547069781789
65,2255,null,null,true,1547069782002
65,2275,null,null,true,1547069782213
66,2293,null,null,true,1547069782432
66,2294,null,null,true,1547069782632
67,2300,null,null,true,1547069782832
67,2319,null,null,true,1547069783045
67,2334,null,null,true,1547069783254
67,2329,null,null,true,1547069783455
67,2332,null,null,true,1547069783820
67,2323,null,null,true,1547069783869
67,2325,null,null,true,1547069784083
67,2317,null,null,true,1547069784287
66,2313,null,null,true,1547069784490
66,2300,null,null,true,1547069784696
66,2308,null,null,true,1547069784892
67,2310,null,null,true,1547069785102
67,2303,null,null,true,1547069785310
66,2302,null,null,true,1547069785503
66,2295,null,null,true,1547069785722
67,2303,null,null,true,1547069785914
67,2316,null,null,true,1547069786114
67,2298,null,null,true,1547069786336
66,2281,null,null,true,1547069786546
66,2255,null,null,true,1547069786760
65,2260,null,null,true,1547069786977
64,2240,null,null,true,1547069787165
64,2226,null,null,true,1547069787373
63,2206,null,null,true,1547069787571
63,2186,null,null,true,1547069787777
62,2162,null,null,true,1547069787988
62,2147,null,null,true,1547069788189
61,2127,null,null,true,1547069788393
61,2113,null,null,true,1547069788581
60,2097,null,null,true,1547069788804
60,2084,null,null,true,1547069789006
59,2066,null,null,true,1547069789213
59,2051,null,null,true,1547069789418
59,2032,null,null,true,1547069789631
58,2019,null,null,true,1547069789843
57,2004,null,null,true,1547069790102
57,1989,null,null,true,1547069790243
57,1970,null,null,true,1547069790452
56,1955,null,null,true,1547069790657
56,1940,null,null,true,1547069790863
55,1927,null,null,true,1547069791051
55,1909,null,null,true,1547069791270
54,1893,null,null,true,1547069791477
54,1879,null,null,true,1547069791679
53,1864,null,null,true,1547069791889
53,1847,null,null,true,1547069792093
53,1838,null,null,true,1547069792300
52,1857,null,null,true,1547069792510
52,1815,null,null,true,1547069792706
52,1832,null,null,true,1547069792912
52,1832,null,null,true,1547069793196
52,1832,null,null,true,1547069793323
53,1841,null,null,true,1547069793521
54,1869,null,null,true,1547069793736
54,1871,null,null,true,1547069793950
55,1903,null,null,true,1547069794159
55,1914,null,null,true,1547069794358
56,1924,null,null,true,1547069794568
56,1955,null,null,true,1547069794785
57,1964,null,null,true,1547069794976
57,1971,null,null,true,1547069795188
57,1961,null,null,true,1547069795396
57,1960,null,null,true,1547069795599
56,1938,null,null,true,1547069795786
56,1947,null,null,true,1547069796013
56,1918,null,null,true,1547069796325
55,1915,null,null,true,1547069796421
55,1900,null,null,true,1547069796627
54,1881,null,null,true,1547069796852
54,1876,null,null,true,1547069797049
53,1858,null,null,true,1547069797234
53,1843,null,null,true,1547069797489
52,1823,null,null,true,1547069797664
52,1803,null,null,true,1547069797867
51,1791,null,null,true,1547069798082
51,1783,null,null,true,1547069798288
50,1755,null,null,true,1547069798480
50,1748,null,null,true,1547069798697
50,1729,null,null,true,1547069798898
49,1727,null,null,true,1547069799105
49,1697,null,null,true,1547069799448
48,1671,null,null,true,1547069799510
48,1669,null,null,true,1547069799726
47,1645,null,null,true,1547069799933
47,1644,null,null,true,1547069800133
46,1622,null,null,true,1547069800340
46,1604,null,null,true,1547069800542
46,1634,null,null,true,1547069800747
46,1597,null,null,true,1547069800943
46,1674,null,null,true,1547069801159
46,1609,null,null,true,1547069801367
47,1629,null,null,true,1547069801565
47,1636,null,null,true,1547069801782
48,1666,null,null,true,1547069802003
48,1679,null,null,true,1547069802197
49,1696,null,null,true,1547069802581
49,1716,null,null,true,1547069802602
50,1715,null,null,true,1547069802810
50,1737,null,null,true,1547069803026
51,1766,null,null,true,1547069803225
51,1786,null,null,true,1547069803435
51,1787,null,null,true,1547069803635
52,1803,null,null,true,1547069803840
52,1806,null,null,true,1547069804048
52,1828,null,null,true,1547069804251
52,1826,null,null,true,1547069804453
53,1828,null,null,true,1547069804652
53,1837,null,null,true,1547069804872
52,1817,null,null,true,1547069805075
52,1781,null,null,true,1547069805265
52,1806,null,null,true,1547069805540
52,1799,null,null,true,1547069805678
51,1790,null,null,true,1547069805883
51,1781,null,null,true,1547069806100
51,1779,null,null,true,1547069806302
50,1755,null,null,true,1547069806517
50,1751,null,null,true,1547069806709
50,1736,null,null,true,1547069806921
50,1717,null,null,true,1547069807124
49,1718,null,null,true,1547069807331
49,1695,null,null,true,1547069807536
48,1689,null,null,true,1547069807743
48,1673,null,null,true,1547069807951
48,1668,null,null,true,1547069808163
47,1653,null,null,true,1547069808371
47,1646,null,null,true,1547069808580
47,1627,null,null,true,1547069808797
46,1622,null,null,true,1547069808983
46,1610,null,null,true,1547069809185
46,1597,null,null,true,1547069809390
45,1589,null,null,true,1547069809583
45,1573,null,null,true,1547069809798
45,1569,null,null,true,1547069810006
45,1551,null,null,true,1547069810212
44,1538,null,null,true,1547069810416
44,1540,null,null,true,1547069810623
44,1519,null,null,true,1547069810813
43,1513,null,null,true,1547069811030
43,1520,null,null,true,1547069811233
43,1501,null,null,true,1547069811431
43,1601,null,null,true,1547069811642
44,1513,null,null,true,1547069811915
44,1541,null,null,true,1547069812042
45,1564,null,null,true,1547069812257
46,1581,null,null,true,1547069812456
46,1599,null,null,true,1547069812663
47,1624,null,null,true,1547069812876
48,1663,null,null,true,1547069813084
48,1673,null,null,true,1547069813288
49,1715,null,null,true,1547069813491
50,1734,null,null,true,1547069813728
50,1727,null,null,true,1547069813910
50,1760,null,null,true,1547069814118
51,1772,null,null,true,1547069814323
51,1786,null,null,true,1547069814529
52,1816,null,null,true,1547069814730
52,1814,null,null,true,1547069815035
53,1833,null,null,true,1547069815142
53,1847,null,null,true,1547069815340
54,1862,null,null,true,1547069815548
54,1881,null,null,true,1547069815733
54,1888,null,null,true,1547069815950
55,1900,null,null,true,1547069816157
55,1926,null,null,true,1547069816363
56,1934,null,null,true,1547069816565
56,1943,null,null,true,1547069816778
57,1957,null,null,true,1547069816973
57,1962,null,null,true,1547069817188
57,1967,null,null,true,1547069817392
57,1966,null,null,true,1547069817609
57,1952,null,null,true,1547069817806
56,1957,null,null,true,1547069818145
56,1942,null,null,true,1547069818201
56,1932,null,null,true,1547069818411
55,1924,null,null,true,1547069818642
55,1911,null,null,true,1547069818834
55,1901,null,null,true,1547069819035
54,1881,null,null,true,1547069819246
54,1882,null,null,true,1547069819453
54,1859,null,null,true,1547069819657
53,1852,null,null,true,1547069819884
53,1841,null,null,true,1547069820067
52,1822,null,null,true,1547069820270
52,1812,null,null,true,1547069820475
52,1812,null,null,true,1547069820668
51,1785,null,null,true,1547069820875
51,1783,null,null,true,1547069821222
51,1764,null,null,true,1547069821327
50,1757,null,null,true,1547069821497
50,1742,null,null,true,1547069821702
50,1748,null,null,true,1547069821915
50,1759,null,null,true,1547069822111
50,1764,null,null,true,1547069822321
50,1756,null,null,true,1547069822526
51,1775,null,null,true,1547069822732
51,1794,null,null,true,1547069822937
52,1812,null,null,true,1547069823132
52,1821,null,null,true,1547069823354
53,1855,null,null,true,1547069823552
54,1859,null,null,true,1547069823744
54,1880,null,null,true,1547069823979
55,1886,null,null,true,1547069824173
55,1915,null,null,true,1547069824420
55,1922,null,null,true,1547069824583
56,1948,null,null,true,1547069824783
56,1943,null,null,true,1547069825011
56,1951,null,null,true,1547069825192
57,1965,null,null,true,1547069825398
57,1976,null,null,true,1547069825610
57,1977,null,null,true,1547069825815
57,1989,null,null,true,1547069826024
58,1996,null,null,true,1547069826225
58,2012,null,null,true,1547069826429
58,2011,null,null,true,1547069826646
58,2007,null,null,true,1547069826845
58,1988,null,null,true,1547069827052
57,1992,null,null,true,1547069827257
57,1987,null,null,true,1547069827534
57,1974,null,null,true,1547069827672
56,1954,null,null,true,1547069827878
56,1943,null,null,true,1547069828093
55,1931,null,null,true,1547069828289
55,1919,null,null,true,1547069828495
55,1894,null,null,true,1547069828725
54,1887,null,null,true,1547069828906
54,1876,null,null,true,1547069829105
53,1851,null,null,true,1547069829318
53,1841,null,null,true,1547069829515
53,1830,null,null,true,1547069829731
52,1811,null,null,true,1547069829950
52,1802,null,null,true,1547069830141
51,1800,null,null,true,1547069830365
51,1802,null,null,true,1547069830629
52,1799,null,null,true,1547069830774
52,1819,null,null,true,1547069830977
52,1808,null,null,true,1547069831186
53,1836,null,null,true,1547069831411
53,1853,null,null,true,1547069831597
54,1871,null,null,true,1547069831812
54,1900,null,null,true,1547069832011
55,1911,null,null,true,1547069832229
56,1931,null,null,true,1547069832431
56,1954,null,null,true,1547069832637
57,1973,null,null,true,1547069832849
57,1993,null,null,true,1547069833035
58,2003,null,null,true,1547069833253
59,2020,null,null,true,1547069833463
59,2053,null,null,true,1547069833750
60,2077,null,null,true,1547069833871
60,2110,null,null,true,1547069834075
61,2118,null,null,true,1547069834265
62,2150,null,null,true,1547069834492
63,2176,null,null,true,1547069834700
64,2204,null,null,true,1547069834893
64,2159,null,null,true,1547069835112
64,2200,null,null,true,1547069835309
64,2222,null,null,true,1547069835499
63,2186,null,null,true,1547069835724
63,2165,null,null,true,1547069835929
63,2171,null,null,true,1547069836125
62,2169,null,null,true,1547069836342
62,2155,null,null,true,1547069836563
61,2139,null,null,true,1547069836860
61,2129,null,null,true,1547069836947
61,2110,null,null,true,1547069837155
60,2102,null,null,true,1547069837363
60,2085,null,null,true,1547069837565
59,2074,null,null,true,1547069837769
59,2059,null,null,true,1547069837970
59,2046,null,null,true,1547069838176
58,2031,null,null,true,1547069838383
58,2016,null,null,true,1547069838591
58,2002,null,null,true,1547069838785
57,1995,null,null,true,1547069838994
57,1981,null,null,true,1547069839199
56,1963,null,null,true,1547069839403
56,1951,null,null,true,1547069839605
56,1915,null,null,true,1547069839928
56,1561,null,null,true,1547069840003
55,1669,null,null,true,1547069840221
54,2433,null,null,true,1547069840430
54,2699,null,null,true,1547069840637
55,2688,null,null,true,1547069840828
56,2715,null,null,true,1547069841045
56,2767,null,null,true,1547069841239
58,2825,null,null,true,1547069841450
59,2885,null,null,true,1547069841656
61,2949,null,null,true,1547069841848
62,3026,null,null,true,1547069842070
64,3098,null,null,true,1547069842280
65,3157,null,null,true,1547069842487
67,3246,null,null,true,1547069842685
68,3319,null,null,true,1547069842896
69,3376,null,null,true,1547069843120
71,3459,null,null,true,1547069843308
72,3512,null,null,true,1547069843516
74,3570,null,null,true,1547069843725
75,3638,null,null,true,1547069843923
76,3700,null,null,true,1547069844120
77,3773,null,null,true,1547069844349
79,3837,null,null,true,1547069844548
80,3902,null,null,true,1547069844739
81,3966,null,null,true,1547069844960
83,4025,null,null,true,1547069845160
84,4074,null,null,true,1547069845358
83,4016,null,null,true,1547069845567
83,3766,null,null,true,1547069845774
83,2960,null,null,true,1547069845981
84,2933,null,null,true,1547069846235
84,2921,null,null,true,1547069846393
85,2949,null,null,true,1547069846602
86,2982,null,null,true,1547069846804
87,3014,null,null,true,1547069847011
87,3010,null,null,true,1547069847223
88,3058,null,null,true,1547069847427
88,3070,null,null,true,1547069847631
88,3052,null,null,true,1547069847840
89,3071,null,null,true,1547069848049
89,3071,null,null,true,1547069848248
89,3085,null,null,true,1547069848459
89,3087,null,null,true,1547069848657
89,3080,null,null,true,1547069848865
89,3069,null,null,true,1547069849071
88,3068,null,null,true,1547069849372
88,3058,null,null,true,1547069849484
88,3041,null,null,true,1547069849695
88,3043,null,null,true,1547069849909
87,3019,null,null,true,1547069850100
87,3012,null,null,true,1547069850300
86,2980,null,null,true,1547069850513
86,2982,null,null,true,1547069850724
86,2950,null,null,true,1547069850932
85,2948,null,null,true,1547069851142
84,2932,null,null,true,1547069851348
84,2918,null,null,true,1547069851558
83,2895,null,null,true,1547069851760
83,2876,null,null,true,1547069851979
82,2862,null,null,true,1547069852178
82,2840,null,null,true,1547069852474
81,2819,null,null,true,1547069852587
81,2808,null,null,true,1547069852788
81,2795,null,null,true,1547069852993
80,2779,null,null,true,1547069853197
80,2767,null,null,true,1547069853405
79,2744,null,null,true,1547069853605
79,2739,null,null,true,1547069853811
78,2723,null,null,true,1547069854017
78,2711,null,null,true,1547069854218
78,2700,null,null,true,1547069854448
77,2675,null,null,true,1547069854643
77,2667,null,null,true,1547069854829
76,2651,null,null,true,1547069855044
76,2636,null,null,true,1547069855262
76,2632,null,null,true,1547069855585
75,2615,null,null,true,1547069855665
75,2611,null,null,false,1547069855880
74,2586,null,null,false,1547069856087
74,2566,null,null,false,1547069856307
73,2532,null,null,false,1547069856477
72,2507,null,null,false,1547069856696
71,2474,null,null,false,1547069856898
70,2441,null,null,false,1547069857100
69,2414,null,null,false,1547069857308
68,2380,null,null,false,1547069857492
68,2349,null,null,false,1547069857721
66,2315,null,null,false,1547069857925
66,2289,null,null,false,1547069858132
65,2244,null,null,false,1547069858342
64,2229,null,null,false,1547069858703
63,2190,null,null,false,1547069858758
63,2167,null,null,false,1547069858943
61,2148,null,null,false,1547069859162
61,2116,null,null,false,1547069859358
60,2096,null,null,false,1547069859574
60,2075,null,null,false,1547069859780
59,2056,null,null,false,1547069859989
58,2026,null,null,false,1547069860171
57,2006,null,null,false,1547069860400
57,1983,null,null,false,1547069860601
56,1962,null,null,false,1547069860808
56,1950,null,null,false,1547069861008
55,1935,null,null,false,1547069861215
55,1902,null,null,false,1547069861421
54,1891,null,null,false,1547069861618
54,1876,null,null,false,1547069861841
53,1851,null,null,false,1547069862048
53,1832,null,null,false,1547069862247
52,1812,null,null,false,1547069862454
51,1778,null,null,false,1547069862663
50,1768,null,null,false,1547069862873
50,1734,null,null,false,1547069863070
49,1726,null,null,false,1547069863264
49,1699,null,null,false,1547069863483
48,1679,null,null,false,1547069863690
48,1659,null,null,false,1547069863894
47,1641,null,null,false,1547069864103
47,1633,null,null,false,1547069864305
47,1553,null,null,true,1547069864510
47,1448,null,null,true,1547069864721
46,1613,null,null,true,1547069864962
46,2410,null,null,true,1547069865109
47,2281,null,null,true,1547069865319
48,2364,null,null,true,1547069865535
49,2418,null,null,true,1547069865729
50,2466,null,null,true,1547069865944
52,2547,null,null,true,1547069866150
53,2614,null,null,true,1547069866355
55,2685,null,null,true,1547069866558
57,2793,null,null,true,1547069866763
59,3056,null,null,true,1547069866971
61,2942,null,null,true,1547069867166
63,3030,null,null,true,1547069867374
64,3116,null,null,true,1547069867584
66,3197,null,null,true,1547069867786
67,3164,null,null,true,1547069868066
67,3220,null,null,true,1547069868186
67,3288,null,null,true,1547069868400
67,3263,null,null,true,1547069868602
67,3220,null,null,true,1547069868811
67,3245,null,null,true,1547069869013
66,2952,null,null,true,1547069869233
67,2548,null,null,true,1547069869429
66,2320,null,null,true,1547069869628
66,2285,null,null,true,1547069869843
66,2292,null,null,true,1547069870039
65,2273,null,null,true,1547069870252
65,2269,null,null,true,1547069870459
65,2256,null,null,true,1547069870667
64,2247,null,null,true,1547069870889
64,2238,null,null,true,1547069871218
64,2223,null,null,true,1547069871278
64,2218,null,null,true,1547069871486
63,2205,null,null,true,1547069871689
63,2192,null,null,true,1547069871906
63,2185,null,null,true,1547069872111
62,2172,null,null,true,1547069872300
62,2169,null,null,true,1547069872515
62,2153,null,null,true,1547069872729
62,2146,null,null,true,1547069872933
61,2131,null,null,true,1547069873141
61,2120,null,null,true,1547069873343
61,2109,null,null,true,1547069873546
60,2101,null,null,true,1547069873733
60,2093,null,null,true,1547069873958
60,2085,null,null,true,1547069874307
59,2067,null,null,true,1547069874347
59,2061,null,null,true,1547069874568
59,2053,null,null,true,1547069874780
59,2040,null,null,true,1547069874985
58,2035,null,null,true,1547069875192
58,2024,null,null,true,1547069875393
58,2016,null,null,true,1547069875603
58,2003,null,null,true,1547069875806
57,1991,null,null,true,1547069876009
57,1982,null,null,true,1547069876215
57,1978,null,null,true,1547069876425
56,1964,null,null,true,1547069876622
56,1953,null,null,true,1547069876840
56,1940,null,null,true,1547069877043
56,1936,null,null,true,1547069877426
55,1927,null,null,true,1547069877445
55,1911,null,null,true,1547069877666
55,1906,null,null,true,1547069877870
54,1900,null,null,true,1547069878074
54,1880,null,null,true,1547069878279
54,1872,null,null,true,1547069878485
54,1877,null,null,true,1547069878682
54,1880,null,null,true,1547069878900
54,1882,null,null,true,1547069879104
54,1863,null,null,true,1547069879310
54,1903,null,null,true,1547069879512
55,1904,null,null,true,1547069879714
55,1915,null,null,true,1547069879925
56,1939,null,null,true,1547069880122
56,1943,null,null,true,1547069880331
57,1976,null,null,true,1547069880559
57,1990,null,null,true,1547069880736
58,1985,null,null,true,1547069880942
57,1989,null,null,true,1547069881152
57,1964,null,null,true,1547069881358
57,1986,null,null,true,1547069881558
57,1974,null,null,true,1547069881765
56,1971,null,null,true,1547069881969
57,1939,null,null,true,1547069882168
56,1940,null,null,true,1547069882376
56,1935,null,null,true,1547069882604
55,1930,null,null,true,1547069882783
55,1922,null,null,true,1547069882989
55,1910,null,null,true,1547069883188
55,1899,null,null,true,1547069883403
54,1892,null,null,true,1547069883689
54,1882,null,null,true,1547069883817
54,1865,null,null,true,1547069884029
54,1863,null,null,true,1547069884232
53,1855,null,null,true,1547069884434
53,1834,null,null,true,1547069884642
53,1840,null,null,true,1547069884841
52,1824,null,null,true,1547069885049
52,1808,null,null,true,1547069885264
52,1805,null,null,true,1547069885475
51,1786,null,null,true,1547069885682
51,1796,null,null,true,1547069885886
51,1782,null,null,true,1547069886080
51,1762,null,null,false,1547069886292
50,1759,null,null,false,1547069886494
49,1733,null,null,false,1547069886700
48,1681,null,null,false,1547069886903
47,1653,null,null,false,1547069887108
46,1611,null,null,false,1547069887307
45,1558,null,null,false,1547069887518
43,1510,null,null,false,1547069887729
42,1460,null,null,false,1547069887929
41,1419,null,null,false,1547069888140
40,1379,null,null,false,1547069888340
40,1236,null,null,true,1547069888539
40,1226,null,null,true,1547069888745
39,1529,null,null,true,1547069888946
39,1949,null,null,true,1547069889155
39,1951,null,null,true,1547069889355
39,1998,null,null,true,1547069889562
40,1948,null,null,true,1547069889904
41,1996,null,null,true,1547069889951
42,2036,null,null,true,1547069890168
42,2068,null,null,true,1547069890372
42,2063,null,null,true,1547069890588
42,2045,null,null,true,1547069890789
42,2063,null,null,true,1547069890991
42,2046,null,null,true,1547069891198
41,2026,null,null,true,1547069891402
41,2026,null,null,true,1547069891613
41,2003,null,null,true,1547069891822
41,1978,null,null,true,1547069892030
40,1967,null,null,true,1547069892231
40,1958,null,null,true,1547069892444
40,1943,null,null,true,1547069892648
39,1925,null,null,true,1547069893023
39,1909,null,null,true,1547069893037
38,1896,null,null,true,1547069893265
38,1883,null,null,true,1547069893471
38,1869,null,null,true,1547069893672
38,1845,null,null,true,1547069893877
38,1825,null,null,true,1547069894087
37,1791,null,null,true,1547069894292
37,1806,null,null,true,1547069894501
36,1779,null,null,true,1547069894693
36,1773,null,null,true,1547069894915
36,1759,null,null,true,1547069895116
36,1746,null,null,true,1547069895322
35,1725,null,null,true,1547069895525
35,1716,null,null,true,1547069895731
35,1709,null,null,true,1547069895937
34,1697,null,null,true,1547069896167
34,1676,null,null,true,1547069896342
34,1660,null,null,true,1547069896555
33,1643,null,null,true,1547069896754
33,1633,null,null,true,1547069896968
33,1621,null,null,true,1547069897172
32,1598,null,null,true,1547069897377
32,1637,null,null,true,1547069897590
33,1635,null,null,true,1547069897782
33,1673,null,null,true,1547069898002
34,1703,null,null,true,1547069898204
35,1721,null,null,true,1547069898411
36,1794,null,null,true,1547069898612
37,1707,null,null,true,1547069898816
37,1828,null,null,true,1547069899029
37,1827,null,null,true,1547069899298
37,1809,null,null,true,1547069899436
37,1795,null,null,true,1547069899637
37,1808,null,null,true,1547069899848
37,1801,null,null,true,1547069900049
36,1781,null,null,true,1547069900237
36,1775,null,null,true,1547069900474
36,1758,null,null,true,1547069900663
36,1756,null,null,true,1547069900859
35,1740,null,null,true,1547069901077
35,1737,null,null,true,1547069901276
35,1714,null,null,true,1547069901480
35,1708,null,null,true,1547069901678
35,1752,null,null,true,1547069901896
35,1884,null,null,true,1547069902100
36,1757,null,null,true,1547069902392
37,1805,null,null,true,1547069902513
38,1850,null,null,true,1547069902718
39,1917,null,null,true,1547069902921
40,1961,null,null,true,1547069903132
41,2034,null,null,true,1547069903339
43,2094,null,null,true,1547069903542
44,2171,null,null,true,1547069903746
45,2220,null,null,true,1547069903955
47,2317,null,null,true,1547069904161
49,2364,null,null,true,1547069904369
50,2453,null,null,true,1547069904560
52,2505,null,null,true,1547069904775
53,2574,null,null,true,1547069904977
54,2630,null,null,true,1547069905190
55,2679,null,null,true,1547069905514
56,2760,null,null,true,1547069905594
58,2807,null,null,true,1547069905802
59,2857,null,null,true,1547069906007
60,2926,null,null,true,1547069906208
61,2964,null,null,true,1547069906415
61,2978,null,null,true,1547069906617
62,3019,null,null,true,1547069906824
62,3008,null,null,true,1547069907017
62,3004,null,null,true,1547069907235
62,3027,null,null,true,1547069907431
62,3014,null,null,true,1547069907631
62,3009,null,null,true,1547069907839
61,3010,null,null,true,1547069908053
61,2972,null,null,true,1547069908253
60,2951,null,null,true,1547069908574
60,2946,null,null,true,1547069908648
60,2912,null,null,true,1547069908883
59,2898,null,null,true,1547069909085
59,2890,null,null,true,1547069909294
59,2862,null,null,true,1547069909526
58,2847,null,null,true,1547069909725
58,2823,null,null,true,1547069909911
57,2804,null,null,true,1547069910122
57,2791,null,null,true,1547069910318
57,2769,null,null,true,1547069910529
56,2754,null,null,true,1547069910723
56,2742,null,null,true,1547069910916
55,2699,null,null,true,1547069911129
55,2697,null,null,true,1547069911335
55,2675,null,null,true,1547069911551
54,2659,null,null,true,1547069911763
54,2637,null,null,true,1547069911963
54,2622,null,null,true,1547069912167
53,2595,null,null,true,1547069912372
53,2585,null,null,true,1547069912567
52,2561,null,null,true,1547069912781
51,2512,null,null,true,1547069912982
51,2519,null,null,true,1547069913198
51,2479,null,null,true,1547069913405
50,2467,null,null,true,1547069913615
50,2437,null,null,true,1547069913821
49,2410,null,null,true,1547069914023
49,2384,null,null,true,1547069914230
49,2372,null,null,true,1547069914436
48,2333,null,null,true,1547069914643
47,2315,null,null,true,1547069914880
47,2292,null,null,true,1547069915043
46,2270,null,null,true,1547069915262
46,2233,null,null,true,1547069915466
45,2216,null,null,true,1547069915659
45,2243,null,null,true,1547069915893
45,2118,null,null,true,1547069916080
45,2232,null,null,true,1547069916288
46,2232,null,null,true,1547069916489
46,2241,null,null,true,1547069916723
46,2220,null,null,true,1547069916910
46,2222,null,null,true,1547069917112
45,2236,null,null,true,1547069917320
45,2185,null,null,true,1547069917525
44,2163,null,null,true,1547069917724
44,2150,null,null,true,1547069918022
43,2122,null,null,true,1547069918124
43,2105,null,null,true,1547069918334
42,2083,null,null,true,1547069918547
42,2046,null,null,true,1547069918735
41,2027,null,null,false,1547069918949
41,2005,null,null,false,1547069919156
40,1974,null,null,false,1547069919363
40,1950,null,null,false,1547069919567
39,1933,null,null,false,1547069919773
39,1913,null,null,false,1547069919979
38,1886,null,null,false,1547069920184
37,1834,null,null,false,1547069920386
36,1788,null,null,false,1547069920592
35,1739,null,null,false,1547069920799
34,1680,null,null,false,1547069921159
32,1594,null,null,false,1547069921187
31,1550,null,null,false,1547069921412
30,1489,null,null,false,1547069921620
29,1423,null,null,false,1547069921813
27,1362,null,null,false,1547069922032
26,1313,null,null,false,1547069922232
25,1236,null,null,false,1547069922447
24,1202,null,null,false,1547069922651
23,1155,null,null,false,1547069922852
22,1087,null,null,false,1547069923046
21,1012,null,null,false,1547069923266
20,960,null,null,false,1547069923473
19,996,null,null,false,1547069923681
18,972,null,null,false,1547069923887
17,959,null,null,false,1547069924257
16,967,null,null,false,1547069924278
15,969,null,null,false,1547069924507
14,959,null,null,false,1547069924711
14,951,null,null,false,1547069924916
13,942,null,null,false,1547069925122
12,931,null,null,false,1547069925325
12,917,null,null,false,1547069925512
11,909,null,null,false,1547069925739
10,899,null,null,false,1547069925937
9,892,null,null,false,1547069926165
9,884,null,null,false,1547069926356
7,878,null,null,false,1547069926558
6,877,null,null,false,1547069926770
5,874,null,null,false,1547069926969
4,888,null,null,false,1547069927285
3,896,null,null,false,1547069927373
2,898,null,null,false,1547069927575
0,889,null,null,false,1547069927780
0,867,null,null,false,1547069927993
0,846,null,null,false,1547069928195
0,822,null,null,false,1547069928410
0,805,null,null,true,1547069928611
0,785,null,null,true,1547069928808
0,775,null,null,true,1547069929012
0,771,null,null,true,1547069929232
0,761,null,null,true,1547069929428
0,772,null,null,true,1547069929635
0,779,null,null,true,1547069929835
0,767,null,null,true,1547069930033
0,774,null,null,true,1547069930250
0,773,null,null,true,1547069930498
0,771,null,null,true,1547069930659
0,767,null,null,true,1547069930865
0,773,null,null,true,1547069931075
0,770,null,null,true,1547069931288
0,780,null,null,true,1547069931475
0,785,null,null,true,1547069931674
0,775,null,null,true,1547069931892
0,776,null,null,true,1547069932094
0,778,null,null,true,1547069932282
0,780,null,null,true,1547069932505
0,781,null,null,true,1547069932711
0,785,null,null,true,1547069932913
0,768,null,null,true,1547069933116
0,764,null,null,true,1547069933320
0,769,null,null,true,1547069933606
0,776,null,null,true,1547069933736
0,772,null,null,true,1547069933942
0,770,null,null,true,1547069934147
0,773,null,null,true,1547069934351
0,776,null,null,true,1547069934557
0,777,null,null,true,1547069934754
0,782,null,null,true,1547069934968
0,781,null,null,true,1547069935177
0,773,null,null,true,1547069935385
0,777,null,null,true,1547069935592
0,777,null,null,true,1547069935789
0,776,null,null,true,1547069935994
0,771,null,null,true,1547069936203
0,773,null,null,true,1547069936409
0,773,null,null,true,1547069936732
0,774,null,null,true,1547069936820
0,772,null,null,true,1547069937031
0,780,null,null,true,1547069937219
0,781,null,null,true,1547069937443
0,780,null,null,true,1547069937656
0,779,null,null,true,1547069937848
0,780,null,null,true,1547069938050
0,777,null,null,true,1547069938252
0,778,null,null,true,1547069938460
0,773,null,null,true,1547069938665
0,772,null,null,true,1547069938870
0,772,null,null,true,1547069939077
0,772,null,null,true,1547069939279
0,769,null,null,true,1547069939475
0,775,null,null,true,1547069939829
0,777,null,null,true,1547069939890
0,777,null,null,true,1547069940096
0,783,null,null,true,1547069940302
0,782,null,null,true,1547069940504
0,774,null,null,true,1547069940709
0,771,null,null,true,1547069940915
0,777,null,null,true,1547069941122
0,776,null,null,true,1547069941322
0,770,null,null,true,1547069941513
0,771,null,null,true,1547069941736
0,768,null,null,true,1547069941926
0,769,null,null,true,1547069942146
0,774,null,null,true,1547069942357
0,778,null,null,true,1547069942555
0,780,null,null,true,1547069942816
0,778,null,null,true,1547069942984
0,782,null,null,true,1547069943162
0,782,null,null,true,1547069943376
0,777,null,null,true,1547069943577
0,776,null,null,true,1547069943782
0,774,null,null,true,1547069943986
0,773,null,null,true,1547069944183
0,774,null,null,true,1547069944393
0,770,null,null,true,1547069944587
0,771,null,null,true,1547069944802
0,778,null,null,true,1547069945013
0,776,null,null,true,1547069945226
0,778,null,null,true,1547069945419
0,775,null,null,true,1547069945630
0,777,null,null,true,1547069945830
0,783,null,null,true,1547069946101
0,781,null,null,true,1547069946240
0,776,null,null,true,1547069946445
0,774,null,null,true,1547069946660
0,773,null,null,true,1547069946849
0,772,null,null,true,1547069947054
0,775,null,null,true,1547069947251
0,772,null,null,true,1547069947460
0,770,null,null,true,1547069947667
0,774,null,null,true,1547069947890
0,777,null,null,true,1547069948079
0,776,null,null,true,1547069948263
0,775,null,null,true,1547069948486
0,773,null,null,true,1547069948687
0,766,null,null,true,1547069948901
0,767,null,null,true,1547069949219
0,766,null,null,true,1547069949317
0,767,null,null,true,1547069949512
0,762,null,null,true,1547069949726
0,767,null,null,true,1547069949938
0,763,null,null,true,1547069950148
0,768,null,null,true,1547069950346
0,773,null,null,true,1547069950549
0,775,null,null,true,1547069950759
0,773,null,null,true,1547069950963
0,772,null,null,true,1547069951166
0,773,null,null,true,1547069951383
0,769,null,null,true,1547069951600
0,768,null,null,true,1547069951782
0,765,null,null,true,1547069951992
0,764,null,null,true,1547069952310
0,766,null,null,true,1547069952408
0,770,null,null,true,1547069952601
0,773,null,null,true,1547069952815
0,774,null,null,true,1547069953013
0,774,null,null,true,1547069953226
0,772,null,null,true,1547069953428
0,781,null,null,true,1547069953633
0,759,null,null,true,1547069953840
0,770,null,null,true,1547069954050
0,833,null,null,true,1547069954252
0,1139,null,null,true,1547069954453
0,1273,null,null,true,1547069954669
0,1335,null,null,true,1547069954880
0,1312,null,null,true,1547069955072
0,1201,null,null,true,1547069955429
3,1053,null,null,true,1547069955488
4,984,null,null,true,1547069955700
5,1001,null,null,true,1547069955905
7,1028,null,null,true,1547069956116
8,1049,null,null,true,1547069956312
8,1189,null,null,true,1547069956540
9,1278,null,null,true,1547069956742
10,1407,null,null,true,1547069956937
11,1544,null,null,true,1547069957152
13,1692,null,null,true,1547069957357
14,1877,null,null,true,1547069957566
15,2047,null,null,true,1547069957773
17,2214,null,null,true,1547069957980
18,2378,null,null,true,1547069958176
19,2554,null,null,true,1547069958560
20,2734,null,null,true,1547069958591
21,2870,null,null,true,1547069958784
23,3000,null,null,true,1547069959001
23,3026,null,null,true,1547069959207
23,2895,null,null,true,1547069959417
23,2641,null,null,true,1547069959607
23,2109,null,null,true,1547069959825
23,1714,null,null,true,1547069960028
23,1778,null,null,true,1547069960235
23,1788,null,null,true,1547069960427
23,1827,null,null,true,1547069960645
24,1883,null,null,true,1547069960855
25,1945,null,null,true,1547069961054
26,1996,null,null,true,1547069961265
27,2049,null,null,true,1547069961462
28,2108,null,null,true,1547069961689
28,2144,null,null,true,1547069961877
29,2181,null,null,true,1547069962079
29,2211,null,null,true,1547069962283
29,2246,null,null,true,1547069962496
30,2261,null,null,true,1547069962698
30,2278,null,null,true,1547069962898
30,2264,null,null,true,1547069963082
30,2236,null,null,true,1547069963311
29,2252,null,null,true,1547069963509
29,2222,null,null,true,1547069963727
29,2183,null,null,true,1547069963920
28,2158,null,null,true,1547069964129
28,2113,null,null,false,1547069964334
27,2061,null,null,false,1547069964536
26,2005,null,null,false,1547069964786
25,1932,null,null,false,1547069964945
24,1848,null,null,false,1547069965153
23,1760,null,null,false,1547069965356
21,1635,null,null,false,1547069965569
20,1547,null,null,false,1547069965772
18,1474,null,null,false,1547069965973
17,1375,null,null,false,1547069966180
17,1304,null,null,false,1547069966386
16,1252,null,null,false,1547069966590
16,1238,null,null,false,1547069966802
15,1191,null,null,false,1547069967004
15,1196,null,null,false,1547069967207
15,1171,null,null,false,1547069967413
15,1214,null,null,false,1547069967605
15,1193,null,null,false,1547069967914
15,1195,null,null,false,1547069968013
16,1241,null,null,false,1547069968228
16,1279,null,null,false,1547069968438
17,1337,null,null,false,1547069968633
18,1396,null,null,false,1547069968841
18,1446,null,null,false,1547069969053
20,1515,null,null,false,1547069969260
21,1581,null,null,false,1547069969463
22,1683,null,null,false,1547069969667
23,1768,null,null,false,1547069969869
25,1862,null,null,true,1547069970079
26,1971,null,null,true,1547069970285
27,2073,null,null,true,1547069970494
29,2178,null,null,true,1547069970696
30,2290,null,null,true,1547069971052
31,2385,null,null,true,1547069971109
33,2520,null,null,true,1547069971302
34,2610,null,null,true,1547069971525
35,2677,null,null,true,1547069971716
36,2710,null,null,true,1547069971943
36,2553,null,null,true,1547069972133
35,2265,null,null,true,1547069972357
35,1958,null,null,true,1547069972553
35,1740,null,null,true,1547069972745
35,1627,null,null,true,1547069972952
35,1727,null,null,true,1547069973168
36,1750,null,null,true,1547069973352
37,1810,null,null,true,1547069973579
38,1840,null,null,true,1547069973780
39,1876,null,null,true,1547069974156
40,1942,null,null,true,1547069974173
40,1945,null,null,true,1547069974400
41,1997,null,null,true,1547069974600
41,2019,null,null,true,1547069974811
42,2031,null,null,true,1547069975012
41,2008,null,null,true,1547069975222
41,1999,null,null,true,1547069975432
41,2005,null,null,true,1547069975635
41,2008,null,null,true,1547069975834
41,1990,null,null,true,1547069976049
41,1979,null,null,true,1547069976249
40,1972,null,null,true,1547069976454
40,1953,null,null,true,1547069976655
39,1949,null,null,true,1547069976867
39,1919,null,null,true,1547069977069
39,1907,null,null,true,1547069977287
39,1893,null,null,true,1547069977478
38,1888,null,null,true,1547069977682
38,1867,null,null,true,1547069977890
38,1841,null,null,true,1547069978093
37,1828,null,null,true,1547069978307
37,1829,null,null,true,1547069978512
37,1811,null,null,true,1547069978725
36,1795,null,null,true,1547069978916
36,1782,null,null,true,1547069979124
36,1760,null,null,true,1547069979327
36,1747,null,null,true,1547069979541
35,1734,null,null,true,1547069979748
35,1724,null,null,true,1547069979950
35,1713,null,null,true,1547069980156
35,1698,null,null,true,1547069980394
34,1692,null,null,true,1547069980563
34,1672,null,null,false,1547069980775
34,1655,null,null,false,1547069980972
33,1642,null,null,false,1547069981203
32,1606,null,null,false,1547069981391
31,1534,null,null,false,1547069981598
29,1469,null,null,false,1547069981800
27,1378,null,null,false,1547069982003
26,1306,null,null,false,1547069982205
24,1193,null,null,false,1547069982414
22,1070,null,null,false,1547069982617
19,992,null,null,false,1547069982804
17,952,null,null,false,1547069983027
16,950,null,null,false,1547069983234
12,911,null,null,false,1547069983523
12,879,null,null,false,1547069983647
11,870,null,null,false,1547069983852
10,852,null,null,false,1547069984046
9,828,null,null,false,1547069984268
9,820,null,null,false,1547069984472
8,802,null,null,false,1547069984681
8,782,null,null,false,1547069984873
8,758,null,null,false,1547069985090
7,745,null,null,false,1547069985282
7,750,null,null,false,1547069985508
6,759,null,null,false,1547069985702
5,765,null,null,false,1547069985916
4,761,null,null,false,1547069986116
3,759,null,null,false,1547069986329
3,769,null,null,false,1547069986627
3,771,null,null,false,1547069986741
2,773,null,null,false,1547069986945
0,776,null,null,false,1547069987151
0,769,null,null,false,1547069987353
0,761,null,null,false,1547069987569
0,773,null,null,true,1547069987762
0,786,null,null,true,1547069987968
0,776,null,null,true,1547069988168
0,771,null,null,true,1547069988360
0,835,null,null,true,1547069988599
0,1029,null,null,true,1547069988785
0,1080,null,null,true,1547069988981
