speed,rpm,lat,long,breakReleased,time
16,2129,52.3455368,16.8282476,true,1544459358617
16,2268,52.3455368,16.8282476,true,1544459358696
17,2051,52.3455368,16.8282476,true,1544459358901
17,1587,52.3455368,16.8282476,true,1544459359103
17,1216,52.3455368,16.8282476,true,1544459359308
17,1353,52.3455519,16.8282372,true,1544459359495
17,1347,52.3455519,16.8282372,true,1544459359731
18,1363,52.3455519,16.8282372,true,1544459359925
19,1457,52.3455519,16.8282372,true,1544459360135
19,1502,52.3455519,16.8282372,true,1544459360334
20,1542,52.3455994,16.8281905,true,1544459360534
21,1606,52.3455994,16.8281905,true,1544459360743
22,1665,52.3455994,16.8281905,true,1544459360949
23,1706,52.3455994,16.8281905,true,1544459361151
23,1765,52.3455994,16.8281905,true,1544459361327
24,1830,52.345648,16.8281856,true,1544459361552
25,1914,52.345648,16.8281856,true,1544459361767
26,1980,52.345648,16.8281856,true,1544459361968
27,2084,52.345648,16.8281856,true,1544459362174
29,2190,52.345648,16.8281856,true,1544459362381
30,2310,52.3456976,16.8282496,true,1544459362584
32,2422,52.3456976,16.8282496,true,1544459362792
34,2560,52.3456976,16.8282496,true,1544459362995
37,2701,52.3456976,16.8282496,true,1544459363412
39,2849,52.3457499,16.8283591,true,1544459363610
41,3058,52.3457499,16.8283591,true,1544459363638
41,3154,52.3457499,16.8283591,true,1544459363801
43,3285,52.3457499,16.8283591,true,1544459364014
45,3412,52.3457499,16.8283591,true,1544459364219
45,3382,52.3457499,16.8283591,true,1544459364423
46,3367,52.3458117,16.8284897,true,1544459364625
46,3105,52.3458117,16.8284897,true,1544459364851
46,2865,52.3458117,16.8284897,true,1544459365039
46,2170,52.3458117,16.8284897,true,1544459365238
46,2289,52.3458982,16.8286405,true,1544459365438
47,2332,52.3458982,16.8286405,true,1544459365626
49,2370,52.3458982,16.8286405,true,1544459365848
50,2407,52.3458982,16.8286405,true,1544459366055
51,2470,52.3458982,16.8286405,true,1544459366259
52,2526,52.3459866,16.8287972,true,1544459366452
54,2605,52.3459866,16.8287972,true,1544459366665
55,2673,52.3459866,16.8287972,true,1544459366875
56,2700,52.3459866,16.8287972,true,1544459367078
58,2783,52.3459866,16.8287972,true,1544459367280
59,2858,52.3460877,16.8289598,true,1544459367481
60,2903,52.3460877,16.8289598,true,1544459367701
61,2957,52.3460877,16.8289598,true,1544459367882
61,2969,52.3460877,16.8289598,true,1544459368212
61,2944,52.3460877,16.8289598,true,1544459368411
61,2686,52.3461884,16.8291611,true,1544459368567
61,2019,52.3461884,16.8291611,true,1544459368703
61,2083,52.3461884,16.8291611,true,1544459368910
61,2130,52.3461884,16.8291611,true,1544459369139
62,2156,52.3461884,16.8291611,true,1544459369299
63,2180,52.3463012,16.8293598,true,1544459369519
64,2207,52.3463012,16.8293598,true,1544459369726
64,2240,52.3463012,16.8293598,true,1544459369942
65,2254,52.3463012,16.8293598,true,1544459370141
66,2299,52.3463012,16.8293598,true,1544459370347
67,2319,52.3464165,16.8295621,true,1544459370551
68,2367,52.3464165,16.8295621,true,1544459370757
69,2382,52.3464165,16.8295621,true,1544459370963
70,2418,52.3464165,16.8295621,true,1544459371160
71,2452,52.3464165,16.8295621,true,1544459371366
72,2484,52.3465327,16.8297733,true,1544459371569
73,2526,52.3465327,16.8297733,true,1544459371765
74,2560,52.3465327,16.8297733,true,1544459371977
75,2596,52.3465327,16.8297733,true,1544459372172
76,2632,52.3465327,16.8297733,true,1544459372386
77,2662,52.3466591,16.8299992,true,1544459372588
78,2702,52.3466591,16.8299992,true,1544459372794
79,2733,52.3466591,16.8299992,true,1544459373004
80,2739,52.3466591,16.8299992,true,1544459373372
80,2776,52.3467922,16.8302441,true,1544459373580
81,2797,52.3467922,16.8302441,true,1544459373598
81,2819,52.3467922,16.8302441,true,1544459373831
82,2845,52.3467922,16.8302441,true,1544459374019
82,2819,52.3467922,16.8302441,true,1544459374243
82,2828,52.3467922,16.8302441,true,1544459374447
82,2836,52.3469245,16.830507,true,1544459374644
82,2663,52.3469245,16.830507,true,1544459374855
82,2372,52.3469245,16.830507,true,1544459375055
81,2285,52.3469245,16.830507,true,1544459375257
81,2290,52.3470589,16.8307722,true,1544459375465
81,2272,52.3470589,16.8307722,true,1544459375655
80,2265,52.3470589,16.8307722,true,1544459375893
80,2256,52.3470589,16.8307722,true,1544459376058
79,2247,52.3470589,16.8307722,true,1544459376286
79,2238,52.3471864,16.8310396,true,1544459376485
79,2228,52.3471864,16.8310396,true,1544459376682
78,2216,52.3471864,16.8310396,true,1544459376901
78,2202,52.3471864,16.8310396,true,1544459377106
78,2194,52.3471864,16.8310396,true,1544459377300
77,2183,52.3473161,16.8312914,true,1544459377514
77,2172,52.3473161,16.8312914,true,1544459377720
77,2162,52.3473161,16.8312914,true,1544459377915
76,2175,52.3473161,16.8312914,true,1544459378295
76,2145,52.3474448,16.8315334,true,1544459378500
76,2174,52.3474448,16.8315334,true,1544459378576
76,2167,52.3474448,16.8315334,true,1544459378735
76,2156,52.3474448,16.8315334,true,1544459378946
77,2178,52.3474448,16.8315334,true,1544459379152
77,2184,52.3474448,16.8315334,true,1544459379354
78,2191,52.3475724,16.8317746,true,1544459379555
78,2204,52.3475724,16.8317746,true,1544459379764
79,2218,52.3475724,16.8317746,true,1544459379968
79,2244,52.3475724,16.8317746,true,1544459380179
80,2248,52.3475724,16.8317746,true,1544459380380
80,2252,52.3477,16.8320241,true,1544459380579
81,2275,52.3477,16.8320241,true,1544459380780
81,2296,52.3477,16.8320241,true,1544459380994
82,2310,52.3477,16.8320241,true,1544459381186
83,2324,52.3477,16.8320241,true,1544459381395
83,2357,52.3478326,16.8322804,true,1544459381575
84,2368,52.3478326,16.8322804,true,1544459381802
84,2378,52.3478326,16.8322804,true,1544459382009
85,2396,52.3478326,16.8322804,true,1544459382219
86,2416,52.3478326,16.8322804,true,1544459382414
86,2430,52.3479751,16.8325432,true,1544459382638
87,2449,52.3479751,16.8325432,true,1544459382813
87,2467,52.3479751,16.8325432,true,1544459383151
88,2491,52.3479751,16.8325432,true,1544459383375
89,2500,52.3481224,16.8328133,true,1544459383643
90,2531,52.3481224,16.8328133,true,1544459383849
90,2541,52.3481224,16.8328133,true,1544459384049
90,2547,52.3481224,16.8328133,true,1544459384258
91,2560,52.3482674,16.8331028,true,1544459384454
91,2563,52.3482674,16.8331028,true,1544459384663
91,2578,52.3482674,16.8331028,true,1544459384866
91,2567,52.3482674,16.8331028,true,1544459385071
91,2560,52.3482674,16.8331028,true,1544459385259
91,2565,52.3484124,16.8333995,true,1544459385475
91,2536,52.3484124,16.8333995,true,1544459385686
90,2541,52.3484124,16.8333995,true,1544459385893
90,2537,52.3484124,16.8333995,true,1544459386094
89,2524,52.3484124,16.8333995,true,1544459386282
89,2508,52.3485584,16.8336925,true,1544459386483
89,2498,52.3485584,16.8336925,true,1544459386700
88,2492,52.3485584,16.8336925,true,1544459386910
88,2475,52.3485584,16.8336925,true,1544459387114
87,2466,52.3485584,16.8336925,true,1544459387317
87,2460,52.3487008,16.8339807,true,1544459387503
87,2447,52.3487008,16.8339807,true,1544459387727
86,2428,52.3487008,16.8339807,true,1544459387926
86,2426,52.3487008,16.8339807,true,1544459388282
85,2415,52.3488389,16.8342631,true,1544459388493
85,2398,52.3488389,16.8342631,true,1544459388584
85,2388,52.3488389,16.8342631,true,1544459388745
84,2379,52.3488389,16.8342631,true,1544459388957
84,2369,52.3488389,16.8342631,true,1544459389175
83,2355,52.3488389,16.8342631,true,1544459389360
83,2349,52.3489793,16.8345306,true,1544459389568
83,2340,52.3489793,16.8345306,true,1544459389770
82,2326,52.3489793,16.8345306,true,1544459389980
82,2316,52.3489793,16.8345306,true,1544459390174
82,2308,52.3489793,16.8345306,true,1544459390383
81,2294,52.3491101,16.8347992,true,1544459390588
81,2284,52.3491101,16.8347992,true,1544459390794
81,2274,52.3491101,16.8347992,true,1544459391001
80,2260,52.3491101,16.8347992,true,1544459391191
80,2254,52.3491101,16.8347992,true,1544459391407
79,2242,52.3492387,16.8350609,true,1544459391605
79,2233,52.3492387,16.8350609,true,1544459391813
79,2225,52.3492387,16.8350609,true,1544459392023
78,2210,52.3492387,16.8350609,true,1544459392223
78,2205,52.3492387,16.8350609,true,1544459392428
78,2192,52.3493662,16.8353159,true,1544459392626
77,2183,52.3493662,16.8353159,true,1544459392834
77,2177,52.3493662,16.8353159,true,1544459393196
77,2164,52.3494902,16.8355675,true,1544459393418
76,2160,52.3494902,16.8355675,true,1544459393556
76,2144,52.3494902,16.8355675,true,1544459393655
76,2138,52.3494902,16.8355675,true,1544459393860
75,2129,52.3494902,16.8355675,true,1544459394070
75,2121,52.3494902,16.8355675,true,1544459394270
75,2112,52.3496126,16.8358123,true,1544459394470
74,2100,52.3496126,16.8358123,true,1544459394670
74,2098,52.3496126,16.8358123,true,1544459394873
74,2086,52.3496126,16.8358123,true,1544459395062
74,2078,52.3496126,16.8358123,true,1544459395283
73,2071,52.3497358,16.8360494,true,1544459395481
73,2063,52.3497358,16.8360494,true,1544459395685
73,2053,52.3497358,16.8360494,true,1544459395892
73,2050,52.3497358,16.8360494,true,1544459396095
72,2039,52.3497358,16.8360494,true,1544459396303
72,2033,52.3498525,16.8362845,true,1544459396497
72,2027,52.3498525,16.8362845,true,1544459396711
72,2019,52.3498525,16.8362845,true,1544459396913
71,2014,52.3498525,16.8362845,true,1544459397120
71,1998,52.3498525,16.8362845,true,1544459397321
71,2005,52.3499696,16.8365142,true,1544459397508
71,2029,52.3499696,16.8365142,true,1544459397736
71,1982,52.3499696,16.8365142,true,1544459397933
71,2024,52.3499696,16.8365142,true,1544459398361
71,2019,52.3500869,16.83674,true,1544459398568
72,2033,52.3500869,16.83674,true,1544459398617
73,2048,52.3500869,16.83674,true,1544459398750
73,2059,52.3500869,16.83674,true,1544459398952
74,2072,52.3500869,16.83674,true,1544459399160
74,2088,52.3500869,16.83674,true,1544459399345
75,2115,52.3502042,16.8369703,true,1544459399562
76,2134,52.3502042,16.8369703,true,1544459399765
76,2156,52.3502042,16.8369703,true,1544459399968
77,2173,52.3502042,16.8369703,true,1544459400169
78,2192,52.3502042,16.8369703,true,1544459400376
78,2221,52.3503276,16.8372084,true,1544459400579
79,2230,52.3503276,16.8372084,true,1544459400783
80,2246,52.3503276,16.8372084,true,1544459400989
80,2273,52.3503276,16.8372084,true,1544459401194
81,2271,52.3503276,16.8372084,true,1544459401391
82,2306,52.3504572,16.8374634,true,1544459401599
82,2313,52.3504572,16.8374634,true,1544459401812
82,2336,52.3504572,16.8374634,true,1544459402006
83,2343,52.3504572,16.8374634,true,1544459402211
84,2367,52.3504572,16.8374634,true,1544459402413
84,2373,52.3505897,16.837727,true,1544459402621
85,2388,52.3505897,16.837727,true,1544459402827
86,2426,52.3505897,16.837727,true,1544459403034
87,2450,52.3507257,16.8379992,true,1544459403473
87,2465,52.3507257,16.8379992,true,1544459403542
89,2493,52.3507257,16.8379992,true,1544459403631
89,2506,52.3507257,16.8379992,true,1544459403845
90,2535,52.3507257,16.8379992,true,1544459404051
91,2571,52.3507257,16.8379992,true,1544459404259
92,2579,52.3508649,16.8382865,true,1544459404457
93,2605,52.3508649,16.8382865,true,1544459404655
93,2629,52.3508649,16.8382865,true,1544459404863
94,2648,52.3508649,16.8382865,true,1544459405069
95,2673,52.3508649,16.8382865,true,1544459405273
96,2688,52.3510133,16.8385855,true,1544459405461
96,2712,52.3510133,16.8385855,true,1544459405679
97,2738,52.3510133,16.8385855,true,1544459405880
98,2756,52.3510133,16.8385855,true,1544459406088
99,2780,52.3510133,16.8385855,true,1544459406296
99,2800,52.35117,16.8388975,true,1544459406485
100,2815,52.35117,16.8388975,true,1544459406697
101,2835,52.35117,16.8388975,true,1544459406899
102,2864,52.35117,16.8388975,true,1544459407102
102,2882,52.35117,16.8388975,true,1544459407312
103,2896,52.3513333,16.8392229,true,1544459407506
104,2913,52.3513333,16.8392229,true,1544459407714
104,2939,52.3513333,16.8392229,true,1544459407910
104,2884,52.3513333,16.8392229,true,1544459408348
104,2927,52.3515025,16.8395525,true,1544459408485
103,2913,52.3515025,16.8395525,true,1544459408614
103,2892,52.3515025,16.8395525,true,1544459408743
103,2899,52.3515025,16.8395525,true,1544459408948
102,2885,52.3515025,16.8395525,true,1544459409153
102,2879,52.3515025,16.8395525,true,1544459409353
102,2865,52.3516722,16.8398831,true,1544459409553
101,2853,52.3516722,16.8398831,true,1544459409884
101,2843,52.3516722,16.8398831,true,1544459409968
100,2830,52.3516722,16.8398831,true,1544459410173
100,2822,52.3516722,16.8398831,true,1544459410379
100,2809,52.3518354,16.8402133,true,1544459410576
99,2800,52.3518354,16.8402133,true,1544459410785
99,2787,52.3518354,16.8402133,true,1544459410977
99,2778,52.3518354,16.8402133,true,1544459411192
98,2807,52.3518354,16.8402133,true,1544459411392
98,2755,52.3519981,16.8405289,true,1544459411600
98,2808,52.3519981,16.8405289,true,1544459411802
99,2793,52.3519981,16.8405289,true,1544459412009
99,2800,52.3519981,16.8405289,true,1544459412218
100,2824,52.3519981,16.8405289,true,1544459412416
101,2832,52.3521663,16.840834,true,1544459412621
101,2832,52.3521663,16.840834,true,1544459412831
101,2839,52.3521663,16.840834,true,1544459413146
101,2831,52.3521663,16.840834,true,1544459413364
101,2832,52.3523397,16.8411394,true,1544459413568
100,2806,52.3523397,16.8411394,true,1544459413622
100,2812,52.3523397,16.8411394,true,1544459413844
100,2816,52.3523397,16.8411394,true,1544459414051
99,2801,52.3523397,16.8411394,true,1544459414252
99,2789,52.3525072,16.8414545,true,1544459414452
98,2774,52.3525072,16.8414545,true,1544459414650
98,2770,52.3525072,16.8414545,true,1544459414864
98,2756,52.3525072,16.8414545,true,1544459415070
98,2752,52.3525072,16.8414545,true,1544459415284
97,2737,52.3526706,16.8417654,true,1544459415478
97,2729,52.3526706,16.8417654,true,1544459415678
96,2716,52.3526706,16.8417654,true,1544459415874
96,2709,52.3526706,16.8417654,true,1544459416102
96,2697,52.3526706,16.8417654,true,1544459416305
95,2689,52.35283,16.8420718,true,1544459416504
95,2679,52.35283,16.8420718,true,1544459416707
95,2672,52.35283,16.8420718,true,1544459416911
94,2659,52.35283,16.8420718,true,1544459417119
94,2651,52.35283,16.8420718,true,1544459417330
94,2641,52.3529865,16.8423739,true,1544459417518
93,2631,52.3529865,16.8423739,true,1544459417731
93,2620,52.3529865,16.8423739,true,1544459417929
92,2610,52.3529865,16.8423739,true,1544459418350
92,2605,52.3531404,16.8426704,true,1544459418481
92,2592,52.3531404,16.8426704,true,1544459418597
91,2583,52.3531404,16.8426704,true,1544459418755
91,2575,52.3531404,16.8426704,true,1544459418957
91,2564,52.3531404,16.8426704,true,1544459419164
91,2553,52.3531404,16.8426704,true,1544459419367
90,2544,52.3532927,16.8429601,true,1544459419547
90,2536,52.3532927,16.8429601,true,1544459419778
90,2524,52.3532927,16.8429601,true,1544459419981
89,2512,52.3532927,16.8429601,true,1544459420170
89,2504,52.3532927,16.8429601,true,1544459420383
88,2496,52.3534443,16.8432427,true,1544459420586
88,2485,52.3534443,16.8432427,true,1544459420797
88,2477,52.3534443,16.8432427,true,1544459420999
87,2467,52.3534443,16.8432427,true,1544459421203
87,2454,52.3534443,16.8432427,true,1544459421402
87,2441,52.3535934,16.8435207,true,1544459421601
86,2433,52.3535934,16.8435207,true,1544459421807
86,2419,52.3535934,16.8435207,true,1544459422000
86,2412,52.3535934,16.8435207,true,1544459422209
85,2403,52.3535934,16.8435207,true,1544459422421
85,2387,52.3537368,16.8437946,true,1544459422620
84,2378,52.3537368,16.8437946,true,1544459422821
84,2367,52.3537368,16.8437946,true,1544459423137
84,2356,52.3537368,16.8437946,true,1544459423344
83,2342,52.3538795,16.8440593,true,1544459423572
83,2330,52.3538795,16.8440593,true,1544459423635
82,2323,52.3538795,16.8440593,true,1544459423832
82,2312,52.3538795,16.8440593,true,1544459424055
81,2300,52.3538795,16.8440593,true,1544459424260
81,2287,52.3540165,16.8443213,true,1544459424463
81,2284,52.3540165,16.8443213,true,1544459424671
80,2268,52.3540165,16.8443213,true,1544459424875
80,2259,52.3540165,16.8443213,true,1544459425088
80,2248,52.3540165,16.8443213,true,1544459425288
79,2241,52.3541516,16.844576,true,1544459425488
79,2227,52.3541516,16.844576,true,1544459425694
79,2219,52.3541516,16.844576,true,1544459425897
78,2231,52.3541516,16.844576,true,1544459426108
78,2206,52.3541516,16.844576,true,1544459426307
78,2212,52.3542853,16.8448237,true,1544459426504
79,2226,52.3542853,16.8448237,true,1544459426716
79,2230,52.3542853,16.8448237,true,1544459426920
79,2239,52.3542853,16.8448237,true,1544459427117
80,2259,52.3542853,16.8448237,true,1544459427333
80,2271,52.3544133,16.8450773,true,1544459427541
81,2291,52.3544133,16.8450773,true,1544459427742
82,2310,52.3544133,16.8450773,true,1544459427943
83,2328,52.3544133,16.8450773,true,1544459428319
83,2347,52.3545476,16.8453337,true,1544459428580
84,2353,52.3545476,16.8453337,true,1544459428585
84,2394,52.3545476,16.8453337,true,1544459428760
84,2365,52.3545476,16.8453337,true,1544459428967
84,2351,52.3545476,16.8453337,true,1544459429173
84,2353,52.3545476,16.8453337,true,1544459429374
83,2329,52.354689,16.8455923,true,1544459429577
83,2323,52.354689,16.8455923,true,1544459429792
83,2337,52.354689,16.8455923,true,1544459429988
82,2324,52.354689,16.8455923,true,1544459430197
82,2315,52.354689,16.8455923,true,1544459430389
82,2305,52.3548311,16.8458498,true,1544459430606
81,2295,52.3548311,16.8458498,true,1544459430802
81,2286,52.3548311,16.8458498,true,1544459431010
81,2270,52.3548311,16.8458498,true,1544459431214
80,2265,52.3548311,16.8458498,true,1544459431415
80,2253,52.3549734,16.8460973,true,1544459431614
79,2243,52.3549734,16.8460973,true,1544459431824
79,2233,52.3549734,16.8460973,true,1544459432027
79,2223,52.3549734,16.8460973,true,1544459432222
79,2215,52.355122,16.8463234,true,1544459432434
78,2202,52.355122,16.8463234,true,1544459432660
78,2196,52.355122,16.8463234,true,1544459432852
77,2187,52.355122,16.8463234,true,1544459433229
77,2171,52.355122,16.8463234,true,1544459433371
77,2166,52.3552714,16.8465379,true,1544459433579
76,2156,52.3552714,16.8465379,true,1544459433660
76,2148,52.3552714,16.8465379,true,1544459433870
76,2136,52.3552714,16.8465379,true,1544459434077
75,2127,52.3552714,16.8465379,true,1544459434272
75,2118,52.3554199,16.8467435,true,1544459434473
75,2110,52.3554199,16.8467435,true,1544459434672
74,2095,52.3554199,16.8467435,true,1544459434891
74,2087,52.3554199,16.8467435,true,1544459435094
73,2081,52.3554199,16.8467435,true,1544459435283
73,2067,52.3555713,16.8469381,true,1544459435495
73,2057,52.3555713,16.8469381,true,1544459435706
73,2089,52.3555713,16.8469381,true,1544459435912
72,2025,52.3555713,16.8469381,true,1544459436112
73,2072,52.3555713,16.8469381,true,1544459436321
73,2060,52.3557204,16.8471216,true,1544459436517
73,2070,52.3557204,16.8471216,true,1544459436716
74,2087,52.3557204,16.8471216,true,1544459436928
74,2107,52.3557204,16.8471216,true,1544459437126
75,2110,52.3557204,16.8471216,true,1544459437336
75,2129,52.3558727,16.8472986,true,1544459437534
76,2153,52.3558727,16.8472986,true,1544459437729
77,2150,52.3558727,16.8472986,true,1544459437944
77,2181,52.3558727,16.8472986,true,1544459438288
78,2201,52.3560343,16.8474741,true,1544459438515
78,2212,52.3560343,16.8474741,true,1544459438576
79,2233,52.3560343,16.8474741,true,1544459438762
80,2249,52.3560343,16.8474741,true,1544459438959
80,2257,52.3560343,16.8474741,true,1544459439174
81,2284,52.3560343,16.8474741,true,1544459439376
82,2296,52.3562053,16.8476477,true,1544459439580
82,2321,52.3562053,16.8476477,true,1544459439775
83,2336,52.3562053,16.8476477,true,1544459439985
84,2343,52.3562053,16.8476477,true,1544459440199
84,2380,52.3562053,16.8476477,true,1544459440392
85,2402,52.3563866,16.8478176,true,1544459440600
86,2426,52.3563866,16.8478176,true,1544459440792
86,2437,52.3563866,16.8478176,true,1544459441007
87,2459,52.3563866,16.8478176,true,1544459441210
88,2495,52.3563866,16.8478176,true,1544459441413
89,2488,52.356579,16.8479901,true,1544459441617
89,2520,52.356579,16.8479901,true,1544459441822
90,2551,52.356579,16.8479901,true,1544459442012
91,2562,52.356579,16.8479901,true,1544459442226
92,2588,52.356776,16.8481771,true,1544459442428
92,2610,52.356776,16.8481771,true,1544459442638
93,2619,52.356776,16.8481771,true,1544459442829
94,2643,52.356776,16.8481771,true,1544459443213
95,2662,52.356776,16.8481771,true,1544459443354
96,2704,52.3569785,16.8483737,true,1544459443560
96,2715,52.3569785,16.8483737,true,1544459443655
97,2720,52.3569785,16.8483737,true,1544459443862
97,2749,52.3569785,16.8483737,true,1544459444064
98,2755,52.3569785,16.8483737,true,1544459444267
98,2740,52.3571904,16.8485723,true,1544459444451
97,2742,52.3571904,16.8485723,true,1544459444674
97,2750,52.3571904,16.8485723,true,1544459444878
97,2742,52.3571904,16.8485723,true,1544459445085
97,2687,52.3571904,16.8485723,true,1544459445290
96,2709,52.3574094,16.8487608,true,1544459445490
96,2703,52.3574094,16.8487608,true,1544459445697
95,2681,52.3574094,16.8487608,true,1544459445897
95,2674,52.3574094,16.8487608,true,1544459446102
94,2658,52.3574094,16.8487608,true,1544459446302
94,2649,52.3576256,16.8489423,true,1544459446501
93,2637,52.3576256,16.8489423,true,1544459446752
93,2628,52.3576256,16.8489423,true,1544459446904
93,2615,52.3576256,16.8489423,true,1544459447125
92,2604,52.3576256,16.8489423,true,1544459447314
92,2594,52.357837,16.8491239,true,1544459447514
92,2580,52.357837,16.8491239,true,1544459447731
91,2568,52.357837,16.8491239,true,1544459447942
91,2558,52.357837,16.8491239,true,1544459448267
90,2547,52.3580439,16.8493017,true,1544459448528
90,2536,52.3580439,16.8493017,true,1544459448582
90,2530,52.3580439,16.8493017,true,1544459448755
89,2528,52.3580439,16.8493017,true,1544459448954
89,2516,52.3580439,16.8493017,true,1544459449156
89,2506,52.3580439,16.8493017,true,1544459449361
89,2498,52.3582464,16.8494746,true,1544459449560
88,2489,52.3582464,16.8494746,true,1544459449770
88,2481,52.3582464,16.8494746,true,1544459449971
88,2473,52.3582464,16.8494746,true,1544459450176
87,2469,52.3582464,16.8494746,true,1544459450376
87,2458,52.3584456,16.8496457,true,1544459450580
87,2451,52.3584456,16.8496457,true,1544459450782
87,2450,52.3584456,16.8496457,true,1544459450986
86,2436,52.3584456,16.8496457,true,1544459451195
86,2433,52.3584456,16.8496457,true,1544459451393
86,2423,52.3586407,16.8498171,true,1544459451595
86,2419,52.3586407,16.8498171,true,1544459451800
86,2413,52.3586407,16.8498171,true,1544459451998
85,2405,52.3586407,16.8498171,true,1544459452201
85,2393,52.3586407,16.8498171,true,1544459452407
85,2393,52.3588341,16.8499848,true,1544459452605
84,2379,52.3588341,16.8499848,true,1544459452815
84,2377,52.3588341,16.8499848,true,1544459453202
84,2368,52.3588341,16.8499848,true,1544459453402
84,2362,52.3590243,16.8501501,true,1544459453542
84,2355,52.3590243,16.8501501,true,1544459453607
83,2349,52.3590243,16.8501501,true,1544459453835
83,2343,52.3590243,16.8501501,true,1544459454035
83,2336,52.3590243,16.8501501,true,1544459454240
82,2329,52.3592112,16.8503134,true,1544459454450
82,2359,52.3592112,16.8503134,true,1544459454637
82,2357,52.3592112,16.8503134,true,1544459454845
83,2351,52.3592112,16.8503134,true,1544459455051
84,2362,52.3592112,16.8503134,true,1544459455245
84,2376,52.3593981,16.8504768,true,1544459455459
85,2388,52.3593981,16.8504768,true,1544459455663
85,2402,52.3593981,16.8504768,true,1544459455864
86,2424,52.3593981,16.8504768,true,1544459456073
87,2426,52.3593981,16.8504768,true,1544459456273
87,2467,52.3595905,16.8506434,true,1544459456476
88,2478,52.3595905,16.8506434,true,1544459456672
88,2500,52.3595905,16.8506434,true,1544459456891
89,2505,52.3595905,16.8506434,true,1544459457092
90,2529,52.3595905,16.8506434,true,1544459457301
90,2536,52.3597888,16.8508172,true,1544459457497
91,2558,52.3597888,16.8508172,true,1544459457702
92,2600,52.3597888,16.8508172,true,1544459457908
92,2611,52.3597888,16.8508172,true,1544459458234
93,2627,52.3599943,16.8509967,true,1544459458503
94,2643,52.3599943,16.8509967,true,1544459458620
94,2676,52.3599943,16.8509967,true,1544459458718
95,2683,52.3599943,16.8509967,true,1544459458929
96,2690,52.3599943,16.8509967,true,1544459459132
96,2718,52.3599943,16.8509967,true,1544459459336
97,2738,52.3602081,16.8511821,true,1544459459538
97,2739,52.3602081,16.8511821,true,1544459459735
97,2757,52.3602081,16.8511821,true,1544459459948
97,2722,52.3602081,16.8511821,true,1544459460146
97,2736,52.3602081,16.8511821,true,1544459460338
96,2708,52.3604234,16.851377,true,1544459460552
96,2698,52.3604234,16.851377,true,1544459460760
96,2695,52.3604234,16.851377,true,1544459460972
95,2682,52.3604234,16.851377,true,1544459461168
95,2666,52.3604234,16.851377,true,1544459461374
94,2652,52.3606367,16.85157,true,1544459461576
93,2638,52.3606367,16.85157,true,1544459461778
93,2621,52.3606367,16.85157,true,1544459461980
92,2613,52.3606367,16.85157,true,1544459462194
92,2594,52.3606367,16.85157,true,1544459462386
91,2579,52.3608464,16.8517596,true,1544459462593
91,2563,52.3608464,16.8517596,true,1544459462784
90,2551,52.3608464,16.8517596,true,1544459462997
90,2540,52.3608464,16.8517596,true,1544459463353
89,2532,52.3610497,16.8519484,true,1544459463567
89,2511,52.3610497,16.8519484,true,1544459463625
89,2508,52.3610497,16.8519484,true,1544459463811
88,2492,52.3610497,16.8519484,true,1544459464005
88,2485,52.3610497,16.8519484,true,1544459464224
88,2471,52.3610497,16.8519484,true,1544459464433
87,2465,52.3612434,16.8521403,true,1544459464661
87,2453,52.3612434,16.8521403,true,1544459464843
87,2443,52.3612434,16.8521403,true,1544459465043
86,2434,52.3612434,16.8521403,true,1544459465231
86,2424,52.3614315,16.852333,true,1544459465450
85,2405,52.3614315,16.852333,true,1544459465660
85,2401,52.3614315,16.852333,true,1544459465864
85,2398,52.3614315,16.852333,true,1544459466051
85,2391,52.3614315,16.852333,true,1544459466269
84,2378,52.3616146,16.8525249,true,1544459466470
84,2372,52.3616146,16.8525249,true,1544459466679
84,2371,52.3616146,16.8525249,true,1544459466879
84,2356,52.3616146,16.8525249,true,1544459467067
84,2385,52.3616146,16.8525249,true,1544459467287
83,2249,52.3617928,16.8527181,true,1544459467477
84,2398,52.3617928,16.8527181,true,1544459467683
84,2387,52.3617928,16.8527181,true,1544459467900
85,2403,52.3617928,16.8527181,true,1544459468272
86,2428,52.3619666,16.8529257,true,1544459468474
87,2435,52.3619666,16.8529257,true,1544459468590
87,2476,52.3619666,16.8529257,true,1544459468710
88,2482,52.3619666,16.8529257,true,1544459468920
89,2520,52.3619666,16.8529257,true,1544459469120
90,2546,52.3619666,16.8529257,true,1544459469328
91,2560,52.3621547,16.8531287,true,1544459469509
91,2582,52.3621547,16.8531287,true,1544459469733
92,2610,52.3621547,16.8531287,true,1544459469937
92,2603,52.3621547,16.8531287,true,1544459470141
93,2626,52.3621547,16.8531287,true,1544459470346
94,2637,52.3623447,16.8533534,true,1544459470541
94,2659,52.3623447,16.8533534,true,1544459470755
95,2670,52.3623447,16.8533534,true,1544459470959
95,2685,52.3623447,16.8533534,true,1544459471164
96,2707,52.3623447,16.8533534,true,1544459471367
97,2732,52.3625375,16.8535929,true,1544459471570
97,2750,52.3625375,16.8535929,true,1544459471772
98,2776,52.3625375,16.8535929,true,1544459471982
99,2805,52.3625375,16.8535929,true,1544459472181
100,2830,52.3625375,16.8535929,true,1544459472384
101,2850,52.3627341,16.8538468,true,1544459472577
102,2881,52.3627341,16.8538468,true,1544459472800
103,2895,52.3627341,16.8538468,true,1544459473001
104,2943,52.3627341,16.8538468,true,1544459473370
105,2960,52.3629379,16.8541154,true,1544459473580
106,2982,52.3629379,16.8541154,true,1544459473613
107,3007,52.3629379,16.8541154,true,1544459473800
108,3040,52.3629379,16.8541154,true,1544459474027
109,3060,52.3629379,16.8541154,true,1544459474233
109,3092,52.3629379,16.8541154,true,1544459474417
110,3109,52.3631461,16.8543997,true,1544459474631
111,3135,52.3631461,16.8543997,true,1544459474821
112,3156,52.3631461,16.8543997,true,1544459475023
113,3177,52.3631461,16.8543997,true,1544459475244
114,3193,52.3633588,16.8547048,true,1544459475443
115,3231,52.3633588,16.8547048,true,1544459475652
116,3256,52.3633588,16.8547048,true,1544459475849
117,3278,52.3633588,16.8547048,true,1544459476055
117,3301,52.3633588,16.8547048,true,1544459476265
118,3336,52.3635768,16.8550279,true,1544459476464
119,3337,52.3635768,16.8550279,true,1544459476671
119,3356,52.3635768,16.8550279,true,1544459476879
120,3388,52.3635768,16.8550279,true,1544459477080
120,3382,52.3635768,16.8550279,true,1544459477286
121,3398,52.3637927,16.8553755,true,1544459477475
121,3418,52.3637927,16.8553755,true,1544459477693
122,3433,52.3637927,16.8553755,true,1544459477899
121,3393,52.3637927,16.8553755,true,1544459478224
121,3408,52.3637927,16.8553755,true,1544459478426
121,3407,52.3640028,16.855748,true,1544459478583
120,3349,52.3640028,16.855748,true,1544459478694
120,3383,52.3640028,16.855748,true,1544459478909
120,3370,52.3640028,16.855748,true,1544459479119
119,3356,52.3640028,16.855748,true,1544459479314
119,3347,52.3642044,16.8561337,true,1544459479519
118,3328,52.3642044,16.8561337,true,1544459479727
118,3323,52.3642044,16.8561337,true,1544459479921
117,3306,52.3642044,16.8561337,true,1544459480133
117,3298,52.3642044,16.8561337,true,1544459480338
117,3290,52.3644011,16.8565138,true,1544459480544
116,3280,52.3644011,16.8565138,true,1544459480744
116,3268,52.3644011,16.8565138,true,1544459480951
116,3261,52.3644011,16.8565138,true,1544459481159
115,3238,52.3644011,16.8565138,true,1544459481362
115,3233,52.3645963,16.8568827,true,1544459481559
114,3228,52.3645963,16.8568827,true,1544459481755
114,3202,52.3645963,16.8568827,true,1544459481970
114,3204,52.3645963,16.8568827,true,1544459482172
113,3187,52.3645963,16.8568827,true,1544459482377
113,3175,52.3647931,16.8572384,true,1544459482579
112,3173,52.3647931,16.8572384,true,1544459482790
112,3159,52.3647931,16.8572384,true,1544459482994
111,3145,52.3647931,16.8572384,true,1544459483415
112,3142,52.3649946,16.8575769,true,1544459483550
111,3127,52.3649946,16.8575769,true,1544459483583
111,3123,52.3649946,16.8575769,true,1544459483805
111,3116,52.3649946,16.8575769,true,1544459484015
110,3111,52.3649946,16.8575769,true,1544459484204
110,3095,52.3649946,16.8575769,true,1544459484415
110,3090,52.3652075,16.8578794,true,1544459484618
109,3078,52.3652075,16.8578794,true,1544459484823
109,3068,52.3652075,16.8578794,true,1544459485029
109,3061,52.3652075,16.8578794,true,1544459485227
108,3051,52.3652075,16.8578794,true,1544459485429
108,3044,52.3654314,16.8581495,true,1544459485641
108,3035,52.3654314,16.8581495,true,1544459485844
107,3026,52.3654314,16.8581495,true,1544459486035
107,3013,52.3654314,16.8581495,true,1544459486252
107,3009,52.3656575,16.8584059,true,1544459486455
106,2998,52.3656575,16.8584059,true,1544459486655
106,2990,52.3656575,16.8584059,true,1544459486862
105,2975,52.3656575,16.8584059,true,1544459487065
105,2975,52.3656575,16.8584059,true,1544459487276
105,2962,52.3658819,16.8586525,true,1544459487465
105,2952,52.3658819,16.8586525,true,1544459487703
104,2944,52.3658819,16.8586525,true,1544459487886
104,2944,52.3658819,16.8586525,true,1544459488276
104,2922,52.3661026,16.8588959,true,1544459488428
104,2919,52.3661026,16.8588959,true,1544459488579
103,2910,52.3661026,16.8588959,true,1544459488697
103,2900,52.3661026,16.8588959,true,1544459488901
103,2891,52.3661026,16.8588959,true,1544459489107
102,2887,52.3661026,16.8588959,true,1544459489310
102,2876,52.3663192,16.8591377,true,1544459489505
102,2869,52.3663192,16.8591377,true,1544459489704
101,2860,52.3663192,16.8591377,true,1544459489919
101,2851,52.3663192,16.8591377,true,1544459490120
101,2841,52.3663192,16.8591377,true,1544459490330
101,2835,52.3665318,16.8593805,true,1544459490525
100,2829,52.3665318,16.8593805,true,1544459490732
100,2818,52.3665318,16.8593805,true,1544459490942
100,2809,52.3665318,16.8593805,true,1544459491144
99,2804,52.3665318,16.8593805,true,1544459491349
99,2796,52.3667367,16.8596309,true,1544459491540
99,2787,52.3667367,16.8596309,true,1544459491754
99,2783,52.3667367,16.8596309,true,1544459491952
98,2773,52.3667367,16.8596309,true,1544459492162
98,2767,52.3667367,16.8596309,true,1544459492368
98,2758,52.3669371,16.8598781,true,1544459492561
97,2750,52.3669371,16.8598781,true,1544459492770
97,2742,52.3669371,16.8598781,true,1544459492978
97,2731,52.3669371,16.8598781,true,1544459493278
97,2725,52.3671378,16.8601168,true,1544459493494
96,2713,52.3671378,16.8601168,true,1544459493575
96,2711,52.3671378,16.8601168,true,1544459493787
96,2698,52.3671378,16.8601168,true,1544459493997
96,2696,52.3671378,16.8601168,true,1544459494196
95,2686,52.3671378,16.8601168,true,1544459494401
95,2678,52.3673375,16.8603472,true,1544459494605
95,2673,52.3673375,16.8603472,true,1544459494810
94,2667,52.3673375,16.8603472,true,1544459495012
94,2657,52.3673375,16.8603472,true,1544459495199
94,2650,52.3673375,16.8603472,true,1544459495420
94,2638,52.3675367,16.8605693,true,1544459495623
93,2632,52.3675367,16.8605693,true,1544459495831
93,2672,52.3675367,16.8605693,true,1544459496032
93,2609,52.3675367,16.8605693,true,1544459496237
93,2661,52.3675367,16.8605693,true,1544459496426
94,2670,52.3677335,16.860788,true,1544459496667
95,2674,52.3677335,16.860788,true,1544459496848
96,2705,52.3677335,16.860788,true,1544459497056
96,2712,52.3677335,16.860788,true,1544459497259
97,2728,52.3679334,16.8610082,true,1544459497454
97,2676,52.3679334,16.8610082,true,1544459497664
96,2722,52.3679334,16.8610082,true,1544459497869
96,2718,52.3679334,16.8610082,true,1544459498292
96,2694,52.3681359,16.8612329,true,1544459498438
96,2680,52.3681359,16.8612329,true,1544459498584
95,2689,52.3681359,16.8612329,true,1544459498680
95,2678,52.3681359,16.8612329,true,1544459498889
94,2661,52.3681359,16.8612329,true,1544459499095
94,2654,52.3681359,16.8612329,true,1544459499297
94,2643,52.3683357,16.8614563,true,1544459499482
93,2630,52.3683357,16.8614563,true,1544459499696
92,2598,52.3683357,16.8614563,true,1544459499905
92,2595,52.3683357,16.8614563,true,1544459500111
92,2583,52.3683357,16.8614563,true,1544459500317
91,2572,52.3685316,16.8616754,true,1544459500532
91,2561,52.3685316,16.8616754,true,1544459500724
90,2545,52.3685316,16.8616754,true,1544459500931
90,2540,52.3685316,16.8616754,true,1544459501134
89,2515,52.3685316,16.8616754,true,1544459501324
89,2512,52.3687239,16.8618875,true,1544459501521
89,2497,52.3687239,16.8618875,true,1544459501747
88,2484,52.3687239,16.8618875,true,1544459501949
88,2480,52.3687239,16.8618875,true,1544459502147
87,2463,52.3687239,16.8618875,true,1544459502357
87,2451,52.368911,16.8620946,true,1544459502543
87,2446,52.368911,16.8620946,true,1544459502762
86,2438,52.368911,16.8620946,true,1544459502970
86,2423,52.368911,16.8620946,true,1544459503302
86,2410,52.3690953,16.8622935,true,1544459503507
85,2406,52.3690953,16.8622935,true,1544459503625
85,2395,52.3690953,16.8622935,true,1544459503774
85,2392,52.3690953,16.8622935,true,1544459503986
85,2427,52.3690953,16.8622935,true,1544459504194
84,2508,52.3690953,16.8622935,true,1544459504393
85,2413,52.3692802,16.8624824,true,1544459504590
86,2410,52.3692802,16.8624824,true,1544459504802
86,2440,52.3692802,16.8624824,true,1544459505009
87,2463,52.3692802,16.8624824,true,1544459505200
88,2467,52.3692802,16.8624824,true,1544459505409
88,2495,52.3694662,16.8626697,true,1544459505617
89,2518,52.3694662,16.8626697,true,1544459505807
89,2514,52.3694662,16.8626697,true,1544459506026
90,2526,52.3694662,16.8626697,true,1544459506234
90,2543,52.3696594,16.8628587,true,1544459506428
90,2552,52.3696594,16.8628587,true,1544459506635
91,2567,52.3696594,16.8628587,true,1544459506846
91,2583,52.3696594,16.8628587,true,1544459507045
92,2592,52.3696594,16.8628587,true,1544459507250
93,2616,52.3698627,16.8630443,true,1544459507454
94,2640,52.3698627,16.8630443,true,1544459507656
94,2645,52.3698627,16.8630443,true,1544459507863
95,2672,52.3698627,16.8630443,true,1544459508353
95,2681,52.3700721,16.8632337,true,1544459508601
96,2694,52.3700721,16.8632337,true,1544459508613
96,2711,52.3700721,16.8632337,true,1544459508675
96,2711,52.3700721,16.8632337,true,1544459508877
97,2713,52.3700721,16.8632337,true,1544459509077
96,2699,52.3700721,16.8632337,true,1544459509261
96,2700,52.3702869,16.8634229,true,1544459509492
96,2688,52.3702869,16.8634229,true,1544459509687
95,2687,52.3702869,16.8634229,true,1544459509894
95,2672,52.3702869,16.8634229,true,1544459510094
94,2660,52.3702869,16.8634229,true,1544459510302
94,2649,52.3705026,16.8636052,true,1544459510490
94,2644,52.3705026,16.8636052,true,1544459510705
93,2624,52.3705026,16.8636052,true,1544459510915
93,2617,52.3705026,16.8636052,true,1544459511100
92,2607,52.3705026,16.8636052,true,1544459511328
92,2581,52.3707132,16.863788,true,1544459511516
91,2578,52.3707132,16.863788,true,1544459511724
91,2568,52.3707132,16.863788,true,1544459511935
91,2554,52.3707132,16.863788,true,1544459512127
90,2549,52.3707132,16.863788,true,1544459512333
90,2531,52.370921,16.8639602,true,1544459512531
90,2524,52.370921,16.8639602,true,1544459512738
89,2515,52.370921,16.8639602,true,1544459512947
88,2500,52.370921,16.8639602,true,1544459513367
88,2488,52.3711272,16.864119,true,1544459513510
88,2475,52.3711272,16.864119,true,1544459513614
87,2469,52.3711272,16.864119,true,1544459513769
87,2454,52.3711272,16.864119,true,1544459513977
87,2444,52.3711272,16.864119,true,1544459514184
86,2433,52.3711272,16.864119,true,1544459514382
86,2424,52.3713289,16.8642764,true,1544459514581
86,2415,52.3713289,16.8642764,true,1544459514775
85,2404,52.3713289,16.8642764,true,1544459514990
85,2390,52.3713289,16.8642764,true,1544459515197
84,2390,52.3713289,16.8642764,true,1544459515380
84,2368,52.3715283,16.8644264,true,1544459515613
83,2361,52.3715283,16.8644264,true,1544459515817
83,2349,52.3715283,16.8644264,true,1544459516023
83,2338,52.3715283,16.8644264,true,1544459516222
83,2332,52.3717222,16.8645732,true,1544459516421
82,2315,52.3717222,16.8645732,true,1544459516627
82,2307,52.3717222,16.8645732,true,1544459516831
81,2296,52.3717222,16.8645732,true,1544459517037
81,2290,52.3717222,16.8645732,true,1544459517232
81,2271,52.3717222,16.8645732,true,1544459517442
80,2265,52.3719144,16.8647058,true,1544459517649
80,2249,52.3719144,16.8647058,true,1544459517853
79,2244,52.3719144,16.8647058,true,1544459518301
79,2232,52.3720996,16.8648425,true,1544459518443
78,2214,52.3720996,16.8648425,true,1544459518668
78,2202,52.3720996,16.8648425,true,1544459518856
78,2193,52.3720996,16.8648425,true,1544459519082
77,2185,52.3720996,16.8648425,true,1544459519288
77,2175,52.372278,16.8649825,true,1544459519491
77,2168,52.372278,16.8649825,true,1544459519701
76,2155,52.372278,16.8649825,true,1544459519894
76,2142,52.372278,16.8649825,true,1544459520100
76,2135,52.372278,16.8649825,true,1544459520301
75,2125,52.3724435,16.8651542,true,1544459520497
75,2114,52.3724435,16.8651542,true,1544459520695
75,2106,52.3724435,16.8651542,true,1544459520909
74,2096,52.3724435,16.8651542,true,1544459521114
74,2087,52.3724435,16.8651542,true,1544459521320
74,2077,52.3725977,16.865342,true,1544459521515
73,2070,52.3725977,16.865342,true,1544459521724
73,2064,52.3725977,16.865342,true,1544459521937
73,2044,52.3725977,16.865342,true,1544459522130
73,2048,52.3725977,16.865342,true,1544459522340
72,2030,52.372743,16.8655398,true,1544459522538
72,2024,52.372743,16.8655398,true,1544459522738
71,2017,52.372743,16.8655398,true,1544459522946
71,2004,52.372743,16.8655398,true,1544459523363
71,1990,52.3728822,16.8657365,true,1544459523609
70,1987,52.3728822,16.8657365,true,1544459523632
70,1976,52.3728822,16.8657365,true,1544459523762
69,1974,52.3728822,16.8657365,true,1544459523964
69,1955,52.3728822,16.8657365,true,1544459524161
68,1943,52.3728822,16.8657365,true,1544459524377
69,1970,52.3730168,16.8659382,true,1544459524580
69,1946,52.3730168,16.8659382,true,1544459524785
69,1955,52.3730168,16.8659382,true,1544459524997
69,1956,52.3730168,16.8659382,true,1544459525195
70,1973,52.3730168,16.8659382,true,1544459525397
70,1972,52.3731467,16.8661403,true,1544459525605
70,1966,52.3731467,16.8661403,true,1544459525806
70,1964,52.3731467,16.8661403,true,1544459526010
70,1975,52.3731467,16.8661403,true,1544459526216
69,1959,52.3731467,16.8661403,true,1544459526412
70,1975,52.3732607,16.866366,true,1544459526621
69,1961,52.3732607,16.866366,true,1544459526830
69,1966,52.3732607,16.866366,true,1544459527031
69,1954,52.3732607,16.866366,true,1544459527233
69,1970,52.3733674,16.8666027,true,1544459527433
69,1961,52.3733674,16.8666027,true,1544459527634
70,1967,52.3733674,16.8666027,true,1544459527842
70,1983,52.3733674,16.8666027,true,1544459528166
70,1961,52.3733674,16.8666027,true,1544459528389
70,1975,52.3734788,16.8668316,true,1544459528582
70,1964,52.3734788,16.8668316,true,1544459528665
70,1972,52.3734788,16.8668316,true,1544459528861
70,1969,52.3734788,16.8668316,true,1544459529068
70,1965,52.3734788,16.8668316,true,1544459529271
70,1974,52.3735896,16.8670606,true,1544459529464
70,1964,52.3735896,16.8670606,true,1544459529678
69,1946,52.3735896,16.8670606,true,1544459529884
69,1927,52.3735896,16.8670606,true,1544459530089
68,1919,52.3735896,16.8670606,true,1544459530289
68,1916,52.3736966,16.8672937,true,1544459530496
67,1901,52.3736966,16.8672937,true,1544459530701
67,1889,52.3736966,16.8672937,true,1544459530913
66,1876,52.3736966,16.8672937,true,1544459531114
66,1862,52.3736966,16.8672937,true,1544459531318
65,1849,52.373797,16.8675237,true,1544459531511
65,1836,52.373797,16.8675237,true,1544459531711
64,1824,52.373797,16.8675237,true,1544459531930
64,1809,52.373797,16.8675237,true,1544459532132
64,1798,52.373797,16.8675237,true,1544459532342
63,1785,52.3738964,16.8677434,true,1544459532534
63,1776,52.3738964,16.8677434,true,1544459532742
62,1765,52.3738964,16.8677434,true,1544459532953
62,1760,52.3738964,16.8677434,true,1544459533291
62,1748,52.373995,16.8679519,true,1544459533502
61,1733,52.373995,16.8679519,true,1544459533592
61,1726,52.373995,16.8679519,true,1544459533799
61,1714,52.373995,16.8679519,true,1544459533969
60,1702,52.373995,16.8679519,true,1544459534148
60,1694,52.373995,16.8679519,true,1544459534378
59,1683,52.3740922,16.8681527,true,1544459534584
59,1670,52.3740922,16.8681527,true,1544459534779
59,1665,52.3740922,16.8681527,true,1544459534992
58,1651,52.3740922,16.8681527,true,1544459535200
58,1637,52.3740922,16.8681527,true,1544459535400
57,1627,52.3741855,16.8683483,true,1544459535601
57,1616,52.3741855,16.8683483,true,1544459535809
57,1609,52.3741855,16.8683483,true,1544459536023
56,1601,52.3741855,16.8683483,true,1544459536222
56,1584,52.3741855,16.8683483,true,1544459536411
56,1578,52.3742761,16.8685366,true,1544459536613
55,1572,52.3742761,16.8685366,true,1544459536832
55,1556,52.3742761,16.8685366,true,1544459537038
55,1546,52.3742761,16.8685366,true,1544459537244
54,1539,52.3742761,16.8685366,true,1544459537445
54,1526,52.3743618,16.8687208,true,1544459537655
53,1508,52.3743618,16.8687208,true,1544459537861
53,1508,52.3743618,16.8687208,true,1544459538278
53,1495,52.3743618,16.8687208,true,1544459538416
52,1474,52.3744461,16.8688978,true,1544459538577
52,1476,52.3744461,16.8688978,true,1544459538668
52,1460,52.3744461,16.8688978,true,1544459538899
51,1453,52.3744461,16.8688978,true,1544459539077
51,1445,52.3744461,16.8688978,true,1544459539275
50,1432,52.3745298,16.8690661,true,1544459539477
50,1423,52.3745298,16.8690661,true,1544459539693
50,1408,52.3745298,16.8690661,true,1544459539892
49,1404,52.3745298,16.8690661,true,1544459540101
49,1389,52.3745298,16.8690661,true,1544459540307
49,1380,52.3746089,16.8692316,true,1544459540501
48,1365,52.3746089,16.8692316,true,1544459540704
48,1361,52.3746089,16.8692316,true,1544459540912
48,1355,52.3746089,16.8692316,true,1544459541115
47,1320,52.3746089,16.8692316,true,1544459541323
47,1336,52.374687,16.8693886,true,1544459541522
47,1322,52.374687,16.8693886,true,1544459541730
46,1313,52.374687,16.8693886,true,1544459541935
46,1307,52.374687,16.8693886,true,1544459542142
46,1298,52.374687,16.8693886,true,1544459542338
45,1289,52.3747649,16.8695372,true,1544459542538
45,1272,52.3747649,16.8695372,true,1544459542746
45,1280,52.3747649,16.8695372,true,1544459542955
44,1266,52.3747649,16.8695372,true,1544459543347
44,1251,52.3748415,16.8696792,true,1544459543544
44,1248,52.3748415,16.8696792,true,1544459543570
44,1236,52.3748415,16.8696792,true,1544459543767
43,1228,52.3748415,16.8696792,true,1544459543975
43,1220,52.3748415,16.8696792,true,1544459544181
43,1213,52.3748415,16.8696792,true,1544459544383
42,1208,52.3749169,16.8698149,true,1544459544590
42,1217,52.3749169,16.8698149,true,1544459544792
42,1217,52.3749169,16.8698149,true,1544459544996
42,1237,52.3749169,16.8698149,true,1544459545207
42,1180,52.3749169,16.8698149,true,1544459545404
42,1211,52.3749888,16.8699499,true,1544459545605
42,1191,52.3749888,16.8699499,true,1544459545795
43,1211,52.3749888,16.8699499,true,1544459546015
43,1231,52.3749888,16.8699499,true,1544459546222
43,1224,52.3749888,16.8699499,true,1544459546427
44,1251,52.3750609,16.8700865,true,1544459546631
44,1260,52.3750609,16.8700865,true,1544459546834
44,1267,52.3750609,16.8700865,true,1544459547046
45,1264,52.3750609,16.8700865,true,1544459547232
45,1282,52.3751378,16.8702242,true,1544459547436
46,1299,52.3751378,16.8702242,true,1544459547629
46,1299,52.3751378,16.8702242,true,1544459547866
47,1321,52.3751378,16.8702242,true,1544459548165
47,1329,52.3751378,16.8702242,true,1544459548369
47,1348,52.3752152,16.8703668,true,1544459548580
48,1354,52.3752152,16.8703668,true,1544459548654
48,1358,52.3752152,16.8703668,true,1544459548852
49,1379,52.3752152,16.8703668,true,1544459549064
49,1393,52.3752152,16.8703668,true,1544459549267
50,1408,52.375294,16.8705148,true,1544459549477
50,1415,52.375294,16.8705148,true,1544459549684
50,1430,52.375294,16.8705148,true,1544459549891
51,1436,52.375294,16.8705148,true,1544459550099
51,1456,52.375294,16.8705148,true,1544459550284
52,1482,52.3753782,16.8706725,true,1544459550508
52,1464,52.3753782,16.8706725,true,1544459550692
53,1497,52.3753782,16.8706725,true,1544459550910
53,1513,52.3753782,16.8706725,true,1544459551115
54,1527,52.3753782,16.8706725,true,1544459551322
54,1543,52.3754662,16.8708421,true,1544459551522
55,1550,52.3754662,16.8708421,true,1544459551718
55,1552,52.3754662,16.8708421,true,1544459551913
55,1561,52.3754662,16.8708421,true,1544459552139
55,1562,52.3754662,16.8708421,true,1544459552341
55,1570,52.3755593,16.8710145,true,1544459552542
55,1551,52.3755593,16.8710145,true,1544459552736
55,1511,52.3755593,16.8710145,true,1544459552949
54,1545,52.3755593,16.8710145,true,1544459553295
54,1529,52.3756522,16.871188,true,1544459553508
54,1529,52.3756522,16.871188,true,1544459553588
54,1515,52.3756522,16.871188,true,1544459553767
53,1507,52.3756522,16.871188,true,1544459553973
53,1504,52.3756522,16.871188,true,1544459554179
53,1493,52.3756522,16.871188,true,1544459554385
52,1483,52.3757441,16.8713569,true,1544459554594
52,1481,52.3757441,16.8713569,true,1544459554780
52,1467,52.3757441,16.8713569,true,1544459555007
52,1463,52.3757441,16.8713569,true,1544459555213
51,1456,52.3757441,16.8713569,true,1544459555414
51,1446,52.3758338,16.8715216,true,1544459555602
51,1442,52.3758338,16.8715216,true,1544459555821
50,1429,52.3758338,16.8715216,true,1544459556032
50,1427,52.3758338,16.8715216,true,1544459556220
50,1412,52.3759201,16.8716823,true,1544459556431
50,1411,52.3759201,16.8716823,true,1544459556636
49,1393,52.3759201,16.8716823,true,1544459556850
49,1392,52.3759201,16.8716823,true,1544459557049
49,1382,52.3759201,16.8716823,true,1544459557267
48,1375,52.3760021,16.87184,true,1544459557464
48,1368,52.3760021,16.87184,true,1544459557668
48,1362,52.3760021,16.87184,true,1544459557868
48,1364,52.3760021,16.87184,true,1544459558295
47,1356,52.3760829,16.8719924,true,1544459558504
47,1341,52.3760829,16.8719924,true,1544459558620
47,1327,52.3760829,16.8719924,true,1544459558674
47,1322,52.3760829,16.8719924,true,1544459558890
46,1317,52.3760829,16.8719924,true,1544459559093
46,1320,52.3760829,16.8719924,true,1544459559302
46,1308,52.3761621,16.8721408,true,1544459559496
46,1298,52.3761621,16.8721408,true,1544459559702
46,1294,52.3761621,16.8721408,true,1544459559902
45,1295,52.3761621,16.8721408,true,1544459560114
45,1276,52.3761621,16.8721408,false,1544459560312
45,1269,52.3762403,16.8722831,false,1544459560523
43,1240,52.3762403,16.8722831,false,1544459560718
42,1201,52.3762403,16.8722831,false,1544459560922
41,1180,52.3762403,16.8722831,false,1544459561129
40,1126,52.3762403,16.8722831,false,1544459561328
38,1084,52.3763119,16.8724215,false,1544459561531
37,1046,52.3763119,16.8724215,false,1544459561714
35,1002,52.3763119,16.8724215,false,1544459561939
33,932,52.3763119,16.8724215,false,1544459562133
32,945,52.3763119,16.8724215,false,1544459562338
31,1004,52.3763754,16.8725338,false,1544459562540
31,952,52.3763754,16.8725338,false,1544459562741
31,905,52.3763754,16.8725338,false,1544459562948
30,858,52.3764281,16.8726318,false,1544459563416
30,840,52.3764281,16.8726318,false,1544459563557
30,1068,52.3764281,16.8726318,false,1544459563595
30,1413,52.3764281,16.8726318,false,1544459563749
29,1402,52.3764281,16.8726318,false,1544459563952
29,1449,52.3764281,16.8726318,false,1544459564159
29,1426,52.3764281,16.8726318,false,1544459564361
29,1427,52.3764784,16.8727249,true,1544459564557
29,1438,52.3764784,16.8727249,true,1544459564749
29,1432,52.3764784,16.8727249,true,1544459564965
30,1447,52.3764784,16.8727249,true,1544459565178
30,1459,52.3764784,16.8727249,true,1544459565378
30,1484,52.3765309,16.8728138,true,1544459565583
31,1506,52.3765309,16.8728138,true,1544459565788
31,1524,52.3765309,16.8728138,true,1544459565997
31,1551,52.3765309,16.8728138,true,1544459566196
32,1569,52.3765309,16.8728138,true,1544459566395
32,1593,52.3765836,16.8729105,true,1544459566605
33,1610,52.3765836,16.8729105,true,1544459566802
33,1632,52.3765836,16.8729105,true,1544459567019
34,1654,52.3765836,16.8729105,true,1544459567220
34,1676,52.3765836,16.8729105,true,1544459567418
35,1700,52.3766395,16.8730157,true,1544459567621
35,1718,52.3766395,16.8730157,true,1544459567830
36,1737,52.3766395,16.8730157,true,1544459568159
36,1783,52.3766395,16.8730157,true,1544459568378
37,1806,52.376699,16.8731262,true,1544459568603
37,1829,52.376699,16.8731262,true,1544459568628
38,1852,52.376699,16.8731262,true,1544459568858
38,1863,52.376699,16.8731262,true,1544459569062
39,1882,52.376699,16.8731262,true,1544459569266
39,1914,52.3767617,16.8732427,true,1544459569464
40,1947,52.3767617,16.8732427,true,1544459569671
41,1989,52.3767617,16.8732427,true,1544459569876
41,2010,52.3767617,16.8732427,true,1544459570088
42,2063,52.3767617,16.8732427,true,1544459570293
43,2116,52.3768278,16.8733682,true,1544459570484
44,2137,52.3768278,16.8733682,true,1544459570691
45,2184,52.3768278,16.8733682,true,1544459570914
46,2244,52.3768278,16.8733682,true,1544459571100
47,2282,52.3768278,16.8733682,true,1544459571312
48,2344,52.3769004,16.873509,true,1544459571497
49,2382,52.3769004,16.873509,true,1544459571718
50,2429,52.3769004,16.873509,true,1544459571917
50,2457,52.3769004,16.873509,true,1544459572114
51,2497,52.3769004,16.873509,true,1544459572329
52,2552,52.3769816,16.8736687,true,1544459572513
53,2590,52.3769816,16.8736687,true,1544459572735
53,2567,52.3769816,16.8736687,true,1544459572939
53,2576,52.3769816,16.8736687,true,1544459573312
53,2600,52.377071,16.8738369,true,1544459573513
53,2600,52.377071,16.8738369,true,1544459573625
53,2597,52.377071,16.8738369,true,1544459573752
53,2612,52.377071,16.8738369,true,1544459573962
54,2609,52.377071,16.8738369,true,1544459574163
54,2632,52.377071,16.8738369,true,1544459574368
54,2611,52.377164,16.8740038,true,1544459574571
54,2620,52.377164,16.8740038,true,1544459574781
54,2136,52.377164,16.8740038,true,1544459574977
53,1789,52.377164,16.8740038,true,1544459575161
53,1889,52.377164,16.8740038,true,1544459575382
53,1849,52.3772536,16.8741746,true,1544459575584
53,1839,52.3772536,16.8741746,true,1544459575774
53,1842,52.3772536,16.8741746,true,1544459576021
53,1845,52.3772536,16.8741746,true,1544459576201
53,1826,52.3772536,16.8741746,true,1544459576416
53,1834,52.3773417,16.8743455,true,1544459576605
53,1836,52.3773417,16.8743455,true,1544459576817
52,1820,52.3773417,16.8743455,true,1544459577026
52,1828,52.3773417,16.8743455,true,1544459577227
52,1818,52.3773417,16.8743455,true,1544459577428
52,1809,52.3774377,16.8745034,true,1544459577641
52,1830,52.3774377,16.8745034,true,1544459577843
52,1802,52.3774377,16.8745034,true,1544459578160
52,1801,52.3774377,16.8745034,true,1544459578374
52,1807,52.3775267,16.8746678,true,1544459578593
52,1799,52.3775267,16.8746678,true,1544459578671
52,1807,52.3775267,16.8746678,true,1544459578863
52,1793,52.3775267,16.8746678,true,1544459579077
52,1802,52.3775267,16.8746678,true,1544459579287
52,1802,52.3776144,16.8748318,true,1544459579480
51,1783,52.3776144,16.8748318,true,1544459579685
51,1799,52.3776144,16.8748318,true,1544459579897
51,1779,52.3776144,16.8748318,true,1544459580078
51,1797,52.3776144,16.8748318,true,1544459580298
51,1778,52.3776971,16.874998,true,1544459580495
51,1756,52.3776971,16.874998,true,1544459580702
51,1784,52.3776971,16.874998,true,1544459580928
51,1766,52.3776971,16.874998,true,1544459581138
51,1782,52.3776971,16.874998,true,1544459581324
51,1770,52.3777842,16.8751565,true,1544459581517
51,1780,52.3777842,16.8751565,true,1544459581719
51,1785,52.3777842,16.8751565,true,1544459581931
51,1799,52.3777842,16.8751565,true,1544459582133
52,1810,52.3777842,16.8751565,true,1544459582335
52,1814,52.3778667,16.8753221,true,1544459582525
53,1838,52.3778667,16.8753221,true,1544459582744
53,1843,52.3778667,16.8753221,true,1544459582952
54,1856,52.3778667,16.8753221,true,1544459583284
54,1874,52.3779533,16.8754893,true,1544459583559
54,1884,52.3779533,16.8754893,true,1544459583584
55,1902,52.3779533,16.8754893,true,1544459583766
55,1928,52.3779533,16.8754893,true,1544459583965
56,1950,52.3779533,16.8754893,true,1544459584175
56,1952,52.3779533,16.8754893,true,1544459584377
57,1985,52.3780444,16.8756637,true,1544459584572
58,1999,52.3780444,16.8756637,true,1544459584779
58,2009,52.3780444,16.8756637,true,1544459584987
58,2026,52.3780444,16.8756637,true,1544459585186
59,2053,52.3780444,16.8756637,true,1544459585388
59,2059,52.3781389,16.8758488,true,1544459585596
60,2080,52.3781389,16.8758488,true,1544459585798
60,2100,52.3781389,16.8758488,true,1544459586006
61,2113,52.3781389,16.8758488,true,1544459586216
61,2127,52.3781389,16.8758488,true,1544459586417
62,2148,52.3782384,16.8760384,true,1544459586626
62,2163,52.3782384,16.8760384,true,1544459586821
63,2177,52.3782384,16.8760384,true,1544459587035
63,2202,52.3782384,16.8760384,true,1544459587240
64,2215,52.3783414,16.8762346,true,1544459587441
64,2232,52.3783414,16.8762346,true,1544459587643
65,2247,52.3783414,16.8762346,true,1544459587848
65,2265,52.3783414,16.8762346,true,1544459588227
66,2276,52.3783414,16.8762346,true,1544459588370
66,2289,52.3784501,16.8764346,true,1544459588598
66,2308,52.3784501,16.8764346,true,1544459588641
67,2331,52.3784501,16.8764346,true,1544459588866
68,2329,52.3784501,16.8764346,true,1544459589075
68,2371,52.3784501,16.8764346,true,1544459589281
69,2379,52.3785633,16.8766426,true,1544459589478
69,2401,52.3785633,16.8766426,true,1544459589686
70,2424,52.3785633,16.8766426,true,1544459589892
70,2444,52.3785633,16.8766426,true,1544459590102
71,2459,52.3785633,16.8766426,true,1544459590302
71,2478,52.3786801,16.8768553,true,1544459590481
72,2486,52.3786801,16.8768553,true,1544459590704
72,2513,52.3786801,16.8768553,true,1544459590907
73,2515,52.3786801,16.8768553,true,1544459591106
73,2539,52.3786801,16.8768553,true,1544459591331
73,2550,52.3787992,16.8770759,true,1544459591521
74,2564,52.3787992,16.8770759,true,1544459591734
74,2585,52.3787992,16.8770759,true,1544459591934
75,2616,52.3787992,16.8770759,true,1544459592144
76,2625,52.3787992,16.8770759,true,1544459592347
77,2646,52.3789247,16.8773055,true,1544459592548
77,2628,52.3789247,16.8773055,true,1544459592740
78,2683,52.3789247,16.8773055,true,1544459592946
78,2682,52.3789247,16.8773055,true,1544459593351
78,2709,52.3790506,16.8775496,true,1544459593564
79,2726,52.3790506,16.8775496,true,1544459593583
79,2736,52.3790506,16.8775496,true,1544459593785
79,2738,52.3790506,16.8775496,true,1544459593984
79,2753,52.3790506,16.8775496,true,1544459594192
80,2783,52.3790506,16.8775496,true,1544459594402
80,2757,52.3791828,16.8777968,true,1544459594583
80,2765,52.3791828,16.8777968,true,1544459594812
80,2768,52.3791828,16.8777968,true,1544459595011
80,2749,52.3791828,16.8777968,true,1544459595221
79,2744,52.3791828,16.8777968,true,1544459595422
79,2713,52.3793145,16.8780472,true,1544459595626
78,2724,52.3793145,16.8780472,true,1544459595830
78,2722,52.3793145,16.8780472,true,1544459596031
78,2676,52.3793145,16.8780472,true,1544459596242
77,2685,52.3794448,16.8782972,true,1544459596444
77,2660,52.3794448,16.8782972,true,1544459596654
76,2642,52.3794448,16.8782972,true,1544459596856
76,2637,52.3794448,16.8782972,true,1544459597063
76,2614,52.3794448,16.8782972,true,1544459597261
75,2615,52.3795728,16.8785391,true,1544459597467
75,2602,52.3795728,16.8785391,true,1544459597671
75,2594,52.3795728,16.8785391,true,1544459597879
74,2577,52.3795728,16.8785391,true,1544459598230
74,2570,52.3796993,16.8787727,true,1544459598454
74,2560,52.3796993,16.8787727,true,1544459598580
74,2564,52.3796993,16.8787727,true,1544459598689
74,2554,52.3796993,16.8787727,true,1544459598909
74,2564,52.3796993,16.8787727,true,1544459599097
74,2557,52.3796993,16.8787727,true,1544459599300
74,2553,52.379824,16.8790042,true,1544459599500
74,2562,52.379824,16.8790042,true,1544459599714
74,2581,52.379824,16.8790042,true,1544459599916
74,2581,52.379824,16.8790042,true,1544459600118
74,2576,52.379824,16.8790042,true,1544459600335
75,2593,52.3799501,16.8792342,true,1544459600513
75,2583,52.3799501,16.8792342,true,1544459600729
75,2590,52.3799501,16.8792342,true,1544459600933
75,2591,52.3799501,16.8792342,true,1544459601138
75,2615,52.3799501,16.8792342,true,1544459601339
75,2607,52.3800782,16.8794648,true,1544459601520
75,2611,52.3800782,16.8794648,true,1544459601743
75,2622,52.3800782,16.8794648,true,1544459601949
76,2628,52.3800782,16.8794648,true,1544459602161
76,2628,52.3800782,16.8794648,true,1544459602350
76,2641,52.3802067,16.8796996,true,1544459602564
76,2637,52.3802067,16.8796996,true,1544459602775
76,2636,52.3802067,16.8796996,true,1544459602984
76,2625,52.3802067,16.8796996,true,1544459603281
76,2623,52.3803348,16.8799386,true,1544459603553
76,2643,52.3803348,16.8799386,true,1544459603585
75,2626,52.3803348,16.8799386,true,1544459603788
75,2615,52.3803348,16.8799386,true,1544459604021
76,2617,52.3803348,16.8799386,true,1544459604217
76,2616,52.3803348,16.8799386,true,1544459604406
75,2617,52.3804626,16.8801761,true,1544459604600
75,2623,52.3804626,16.8801761,true,1544459604809
76,2637,52.3804626,16.8801761,true,1544459605006
76,2632,52.3804626,16.8801761,true,1544459605215
76,2642,52.3804626,16.8801761,true,1544459605415
76,2644,52.3805912,16.8804123,true,1544459605627
76,2652,52.3805912,16.8804123,true,1544459605823
77,2657,52.3805912,16.8804123,true,1544459606026
77,2667,52.3805912,16.8804123,true,1544459606234
77,2671,52.3805912,16.8804123,true,1544459606423
77,2671,52.3807175,16.8806547,true,1544459606637
77,2641,52.3807175,16.8806547,true,1544459606841
77,2655,52.3807175,16.8806547,true,1544459607034
76,2655,52.3807175,16.8806547,true,1544459607251
77,2661,52.3808426,16.8809011,true,1544459607449
76,2643,52.3808426,16.8809011,true,1544459607661
76,2645,52.3808426,16.8809011,true,1544459607862
76,2640,52.3808426,16.8809011,false,1544459608258
75,2618,52.3809646,16.8811493,false,1544459608458
74,2564,52.3809646,16.8811493,false,1544459608578
73,2528,52.3809646,16.8811493,false,1544459608677
71,2482,52.3809646,16.8811493,false,1544459608877
69,2409,52.3809646,16.8811493,false,1544459609077
67,2352,52.3809646,16.8811493,false,1544459609313
65,2276,52.3810811,16.8813888,false,1544459609482
63,2204,52.3810811,16.8813888,false,1544459609674
61,2128,52.3810811,16.8813888,false,1544459609884
59,2068,52.3810811,16.8813888,false,1544459610090
58,2029,52.3810811,16.8813888,false,1544459610289
57,1974,52.3811879,16.8815985,false,1544459610491
55,1923,52.3811879,16.8815985,false,1544459610679
54,1874,52.3811879,16.8815985,false,1544459610894
52,1826,52.3811879,16.8815985,false,1544459611098
51,1792,52.3811879,16.8815985,false,1544459611285
50,1750,52.3812774,16.8817733,false,1544459611500
49,1717,52.3812774,16.8817733,false,1544459611705
48,1682,52.3812774,16.8817733,false,1544459611912
47,1648,52.3812774,16.8817733,false,1544459612109
47,1634,52.3812774,16.8817733,false,1544459612312
47,1629,52.3813456,16.8819408,true,1544459612518
47,1624,52.3813456,16.8819408,true,1544459612715
47,1626,52.3813456,16.8819408,true,1544459612918
47,1621,52.3813456,16.8819408,true,1544459613272
47,1465,52.3814137,16.882097,true,1544459613489
47,1381,52.3814137,16.882097,true,1544459613611
47,1250,52.3814137,16.882097,true,1544459613735
47,1341,52.3814137,16.882097,true,1544459613939
47,1333,52.3814137,16.882097,true,1544459614144
47,1324,52.3814137,16.882097,true,1544459614349
47,1330,52.38149,16.8822457,true,1544459614548
47,1333,52.38149,16.8822457,true,1544459614753
47,1326,52.38149,16.8822457,true,1544459614966
47,1338,52.38149,16.8822457,true,1544459615164
47,1333,52.38149,16.8822457,true,1544459615363
47,1338,52.3815701,16.8823905,true,1544459615566
47,1339,52.3815701,16.8823905,true,1544459615779
47,1338,52.3815701,16.8823905,true,1544459615978
47,1332,52.3815701,16.8823905,true,1544459616191
47,1346,52.3815701,16.8823905,true,1544459616379
47,1338,52.3816512,16.8825355,true,1544459616593
47,1333,52.3816512,16.8825355,true,1544459616805
47,1338,52.3816512,16.8825355,true,1544459617022
47,1336,52.3816512,16.8825355,true,1544459617218
47,1346,52.3817319,16.8826848,true,1544459617424
47,1331,52.3817319,16.8826848,true,1544459617620
