speed,rpm,lat,long,breakReleased,time
80,2748,52.3224785,16.7964359,true,1542917292852
81,2811,52.3224785,16.7964359,true,1542917293049
82,2838,52.3224785,16.7964359,true,1542917293254
83,2864,52.3226618,16.7965718,true,1542917293454
84,2901,52.3226618,16.7965718,true,1542917293668
85,2944,52.3226618,16.7965718,true,1542917293867
86,2976,52.3226618,16.7965718,true,1542917294073
87,3028,52.3226618,16.7965718,true,1542917294274
88,3046,52.3228583,16.7967163,true,1542917294477
89,3096,52.3228583,16.7967163,true,1542917294689
90,3100,52.3228583,16.7967163,true,1542917294886
91,3161,52.3228583,16.7967163,true,1542917295096
91,3183,52.3228583,16.7967163,true,1542917295302
93,3203,52.3230662,16.7968711,true,1542917295840
93,3238,52.3230662,16.7968711,true,1542917295973
94,3265,52.3230662,16.7968711,true,1542917295997
95,3278,52.3230662,16.7968711,true,1542917296110
95,3302,52.3230662,16.7968711,true,1542917296315
96,3340,52.3232821,16.7970339,true,1542917296522
97,3364,52.3232821,16.7970339,true,1542917296732
98,3365,52.3232821,16.7970339,true,1542917296936
99,3413,52.3232821,16.7970339,true,1542917297144
99,3438,52.3232821,16.7970339,true,1542917297353
100,3462,52.3235053,16.7972024,true,1542917297551
101,3482,52.3235053,16.7972024,true,1542917297769
102,3506,52.3235053,16.7972024,true,1542917297961
102,3557,52.3235053,16.7972024,true,1542917298172
103,3559,52.3235053,16.7972024,true,1542917298373
104,3583,52.3237394,16.7973755,true,1542917298579
104,3611,52.3237394,16.7973755,true,1542917298781
105,3637,52.3237394,16.7973755,true,1542917298992
106,3663,52.3237394,16.7973755,true,1542917299191
106,3690,52.3239816,16.7975588,true,1542917299390
107,3706,52.3239816,16.7975588,true,1542917299598
108,3745,52.3239816,16.7975588,true,1542917299803
109,3766,52.3239816,16.7975588,true,1542917300005
110,3805,52.3239816,16.7975588,true,1542917300215
111,3821,52.3242318,16.7977456,true,1542917300411
112,3852,52.3242318,16.7977456,true,1542917300826
112,3880,52.3242318,16.7977456,true,1542917300960
113,3922,52.3242318,16.7977456,true,1542917301034
114,3949,52.3242318,16.7977456,true,1542917301248
115,3966,52.3244896,16.7979407,true,1542917301449
115,3984,52.3244896,16.7979407,true,1542917301651
116,4004,52.3244896,16.7979407,true,1542917301853
116,4024,52.3244896,16.7979407,true,1542917302069
117,4043,52.3244896,16.7979407,true,1542917302283
117,4066,52.3247552,16.798143,true,1542917302480
118,4077,52.3247552,16.798143,true,1542917302688
118,4095,52.3247552,16.798143,true,1542917302896
119,4106,52.3247552,16.798143,true,1542917303103
119,4115,52.3247552,16.798143,true,1542917303308
119,4129,52.3250286,16.7983454,true,1542917303502
120,4144,52.3250286,16.7983454,true,1542917303710
119,4134,52.3250286,16.7983454,true,1542917303930
119,4100,52.3250286,16.7983454,true,1542917304136
119,4106,52.3250286,16.7983454,true,1542917304326
118,4070,52.3253044,16.7985506,true,1542917304527
118,4051,52.3253044,16.7985506,false,1542917304733
116,4046,52.3253044,16.7985506,false,1542917304937
115,3973,52.3253044,16.7985506,false,1542917305136
112,3901,52.3253044,16.7985506,false,1542917305344
109,3804,52.3255756,16.7987488,false,1542917305760
107,3725,52.3255756,16.7987488,false,1542917305894
105,3620,52.3255756,16.7987488,false,1542917305995
101,3523,52.3255756,16.7987488,false,1542917306161
100,3454,52.3255756,16.7987488,false,1542917306371
97,3367,52.3258289,16.7989393,false,1542917306567
95,3302,52.3258289,16.7989393,false,1542917306771
93,3231,52.3258289,16.7989393,false,1542917306973
91,3153,52.3258289,16.7989393,false,1542917307182
89,3074,52.3258289,16.7989393,false,1542917307378
86,2992,52.3260527,16.7991087,false,1542917307590
84,2926,52.3260527,16.7991087,false,1542917307792
82,2829,52.3260527,16.7991087,false,1542917308007
80,2762,52.3260527,16.7991087,false,1542917308210
78,2699,52.3262472,16.7992524,false,1542917308403
75,2611,52.3262472,16.7992524,false,1542917308618
73,2540,52.3262472,16.7992524,false,1542917308825
72,2470,52.3262472,16.7992524,false,1542917309021
69,2411,52.3262472,16.7992524,false,1542917309223
68,2358,52.3264179,16.7993793,false,1542917309425
67,2334,52.3264179,16.7993793,false,1542917309627
67,2320,52.3264179,16.7993793,true,1542917309842
66,2308,52.3264179,16.7993793,true,1542917310036
66,2294,52.3264179,16.7993793,true,1542917310239
66,2280,52.3265738,16.7994981,true,1542917310510
65,2263,52.3265738,16.7994981,true,1542917310852
65,2244,52.3265738,16.7994981,true,1542917310988
64,2234,52.3265738,16.7994981,true,1542917311065
64,2232,52.3265738,16.7994981,true,1542917311270
64,2212,52.3267252,16.7996093,true,1542917311464
63,2198,52.3267252,16.7996093,true,1542917311674
63,2187,52.3267252,16.7996093,true,1542917311885
63,2169,52.3267252,16.7996093,true,1542917312090
62,2157,52.3267252,16.7996093,true,1542917312299
62,2148,52.3268725,16.7997183,true,1542917312500
61,2138,52.3268725,16.7997183,true,1542917312710
61,2124,52.3268725,16.7997183,true,1542917312911
61,2119,52.3268725,16.7997183,true,1542917313121
60,2094,52.3268725,16.7997183,true,1542917313325
60,2118,52.3270165,16.7998254,true,1542917313527
60,1999,52.3270165,16.7998254,true,1542917313736
60,2132,52.3270165,16.7998254,true,1542917313939
61,2118,52.3270165,16.7998254,true,1542917314149
62,2147,52.3270165,16.7998254,true,1542917314379
62,2168,52.327159,16.7999291,true,1542917314553
63,2192,52.327159,16.7999291,true,1542917314761
64,2203,52.327159,16.7999291,true,1542917314964
64,2205,52.327159,16.7999291,true,1542917315170
64,2193,52.327159,16.7999291,true,1542917315376
63,2202,52.3273062,16.8000307,true,1542917315784
63,2182,52.3273062,16.8000307,true,1542917315990
63,2187,52.3273062,16.8000307,true,1542917316037
63,2175,52.3273062,16.8000307,true,1542917316176
62,2167,52.3273062,16.8000307,true,1542917316399
62,2157,52.3274532,16.8001389,true,1542917316603
62,2143,52.3274532,16.8001389,true,1542917316809
61,2131,52.3274532,16.8001389,true,1542917317022
61,2120,52.3274532,16.8001389,true,1542917317227
61,2110,52.3275972,16.8002461,true,1542917317426
60,2098,52.3275972,16.8002461,true,1542917317630
60,2084,52.3275972,16.8002461,true,1542917317833
60,2080,52.3275972,16.8002461,true,1542917318043
59,2068,52.3275972,16.8002461,true,1542917318250
59,2053,52.3277362,16.8003522,true,1542917318449
59,2042,52.3277362,16.8003522,true,1542917318657
58,2032,52.3277362,16.8003522,true,1542917318860
58,2021,52.3277362,16.8003522,true,1542917319062
58,2015,52.3277362,16.8003522,true,1542917319276
57,2002,52.3278719,16.8004547,true,1542917319494
57,1988,52.3278719,16.8004547,true,1542917319673
57,1982,52.3278719,16.8004547,true,1542917319884
57,1963,52.3278719,16.8004547,true,1542917320081
56,1963,52.3278719,16.8004547,true,1542917320290
56,1945,52.3280053,16.8005533,true,1542917320775
56,1941,52.3280053,16.8005533,true,1542917320904
55,1924,52.3280053,16.8005533,true,1542917321028
55,1917,52.3280053,16.8005533,true,1542917321116
55,1908,52.3280053,16.8005533,true,1542917321319
54,1897,52.3281356,16.8006482,true,1542917321518
54,1883,52.3281356,16.8006482,true,1542917321737
54,1873,52.3281356,16.8006482,true,1542917321941
53,1869,52.3281356,16.8006482,true,1542917322147
53,1853,52.3281356,16.8006482,true,1542917322356
53,1842,52.3282617,16.8007423,true,1542917322548
53,1835,52.3282617,16.8007423,true,1542917322770
52,1824,52.3282617,16.8007423,true,1542917322973
52,1812,52.3282617,16.8007423,true,1542917323174
52,1805,52.3282617,16.8007423,true,1542917323383
51,1790,52.3283851,16.8008349,true,1542917323586
51,1785,52.3283851,16.8008349,true,1542917323803
51,1773,52.3283851,16.8008349,true,1542917323995
51,1760,52.3283851,16.8008349,true,1542917324203
50,1740,52.3283851,16.8008349,true,1542917324401
49,1707,52.3285044,16.8009269,true,1542917324616
48,1678,52.3285044,16.8009269,true,1542917324818
47,1628,52.3285044,16.8009269,false,1542917325013
45,1581,52.3285044,16.8009269,false,1542917325220
44,1519,52.3286173,16.8010117,false,1542917325419
41,1468,52.3286173,16.8010117,false,1542917325836
40,1414,52.3286173,16.8010117,false,1542917326003
38,1356,52.3286173,16.8010117,false,1542917326023
37,1296,52.3286173,16.8010117,false,1542917326247
35,1247,52.3287117,16.8010861,false,1542917326447
34,1193,52.3287117,16.8010861,false,1542917326654
34,1131,52.3287117,16.8010861,false,1542917326857
33,1058,52.3287117,16.8010861,false,1542917327063
33,1148,52.3287117,16.8010861,false,1542917327271
32,1661,52.3287899,16.8011504,false,1542917327471
32,1601,52.3287899,16.8011504,false,1542917327675
32,1601,52.3287899,16.8011504,false,1542917327887
32,1555,52.3287899,16.8011504,true,1542917328091
31,1517,52.3287899,16.8011504,true,1542917328294
31,1516,52.3288633,16.8012092,true,1542917328499
31,1506,52.3288633,16.8012092,true,1542917328704
30,1490,52.3288633,16.8012092,true,1542917328905
30,1479,52.3288633,16.8012092,true,1542917329117
30,1463,52.3288633,16.8012092,true,1542917329317
29,1444,52.3289346,16.801264,true,1542917329515
29,1437,52.3289346,16.801264,true,1542917329740
29,1422,52.3289346,16.801264,true,1542917329933
28,1408,52.3289346,16.801264,true,1542917330134
28,1393,52.3289346,16.801264,true,1542917330347
28,1372,52.3290024,16.8013143,true,1542917330724
27,1357,52.3290024,16.8013143,true,1542917330862
27,1342,52.3290024,16.8013143,true,1542917331017
27,1333,52.3290024,16.8013143,true,1542917331158
27,1319,52.3290024,16.8013143,true,1542917331359
27,1307,52.3290662,16.8013624,true,1542917331570
26,1300,52.3290662,16.8013624,true,1542917331769
26,1308,52.3290662,16.8013624,true,1542917331976
26,1324,52.3290662,16.8013624,true,1542917332185
26,1306,52.3291277,16.8014098,true,1542917332389
26,1321,52.3291277,16.8014098,true,1542917332592
27,1316,52.3291277,16.8014098,true,1542917332799
27,1326,52.3291277,16.8014098,true,1542917333015
27,1342,52.3291277,16.8014098,true,1542917333207
27,1349,52.3291277,16.8014098,true,1542917333409
28,1364,52.3291887,16.8014561,true,1542917333612
28,1382,52.3291887,16.8014561,true,1542917333818
28,1397,52.3291887,16.8014561,true,1542917334021
29,1410,52.3291887,16.8014561,true,1542917334227
29,1417,52.3292528,16.8015044,true,1542917334426
29,1426,52.3292528,16.8015044,true,1542917334641
29,1439,52.3292528,16.8015044,true,1542917334857
29,1442,52.3292528,16.8015044,true,1542917335027
29,1453,52.3292528,16.8015044,true,1542917335258
30,1459,52.3293211,16.8015537,true,1542917335692
30,1471,52.3293211,16.8015537,true,1542917335897
30,1481,52.3293211,16.8015537,true,1542917335981
30,1489,52.3293211,16.8015537,true,1542917336071
30,1500,52.3293211,16.8015537,true,1542917336276
31,1510,52.3293922,16.8016041,true,1542917336474
31,1517,52.3293922,16.8016041,true,1542917336691
31,1525,52.3293922,16.8016041,true,1542917336894
31,1540,52.3293922,16.8016041,true,1542917337100
31,1551,52.3293922,16.8016041,true,1542917337301
32,1564,52.3294656,16.8016553,true,1542917337497
32,1562,52.3294656,16.8016553,true,1542917337716
33,1630,52.3294656,16.8016553,true,1542917337915
34,1653,52.3294656,16.8016553,true,1542917338123
35,1699,52.3294656,16.8016553,true,1542917338332
36,1741,52.3295426,16.8017102,true,1542917338532
37,1788,52.3295426,16.8017102,true,1542917338743
38,1832,52.3295426,16.8017102,true,1542917338954
39,1881,52.3295426,16.8017102,true,1542917339151
40,1931,52.3295426,16.8017102,true,1542917339351
40,1973,52.3296275,16.8017716,true,1542917339559
41,2011,52.3296275,16.8017716,true,1542917339762
42,2055,52.3296275,16.8017716,true,1542917339978
43,2079,52.3296275,16.8017716,true,1542917340174
43,2119,52.3296275,16.8017716,true,1542917340378
44,2163,52.3297235,16.8018404,true,1542917340789
45,2190,52.3297235,16.8018404,true,1542917340977
46,2235,52.3297235,16.8018404,true,1542917341017
46,2263,52.3297235,16.8018404,true,1542917341203
47,2295,52.3298287,16.8019178,true,1542917341407
47,2319,52.3298287,16.8019178,true,1542917341606
48,2336,52.3298287,16.8019178,true,1542917341811
48,2359,52.3298287,16.8019178,true,1542917342022
49,2378,52.3298287,16.8019178,true,1542917342221
49,2388,52.3299402,16.8019986,true,1542917342424
49,2393,52.3299402,16.8019986,true,1542917342635
49,2402,52.3299402,16.8019986,true,1542917342837
49,2418,52.3299402,16.8019986,true,1542917343040
50,2427,52.3299402,16.8019986,true,1542917343244
50,2435,52.3300546,16.8020827,true,1542917343443
50,2458,52.3300546,16.8020827,true,1542917343654
51,2467,52.3300546,16.8020827,true,1542917343865
51,2494,52.3300546,16.8020827,true,1542917344068
51,2507,52.3300546,16.8020827,true,1542917344273
52,2529,52.3301714,16.8021694,true,1542917344479
52,2543,52.3301714,16.8021694,true,1542917344683
52,2562,52.3301714,16.8021694,true,1542917344885
53,2577,52.3301714,16.8021694,true,1542917345093
53,2601,52.3301714,16.8021694,true,1542917345294
54,2620,52.3302923,16.8022604,true,1542917345703
54,2636,52.3302923,16.8022604,true,1542917345908
54,2665,52.3302923,16.8022604,true,1542917345993
55,2669,52.3302923,16.8022604,true,1542917346117
55,2686,52.3302923,16.8022604,true,1542917346329
55,2707,52.3304175,16.8023555,true,1542917346523
56,2728,52.3304175,16.8023555,true,1542917346738
56,2749,52.3304175,16.8023555,true,1542917346937
57,2758,52.3304175,16.8023555,true,1542917347143
57,2776,52.3304175,16.8023555,true,1542917347345
57,2832,52.3305473,16.8024521,true,1542917347550
57,2593,52.3305473,16.8024521,true,1542917347760
57,1920,52.3305473,16.8024521,true,1542917347947
57,2121,52.3305473,16.8024521,true,1542917348154
57,1993,52.3305473,16.8024521,true,1542917348360
58,2019,52.3306788,16.8025494,true,1542917348560
59,2053,52.3306788,16.8025494,true,1542917348773
60,2072,52.3306788,16.8025494,true,1542917348977
60,2099,52.3306788,16.8025494,true,1542917349179
61,2134,52.3306788,16.8025494,true,1542917349383
62,2165,52.3308146,16.8026469,true,1542917349583
63,2192,52.3308146,16.8026469,true,1542917349788
64,2218,52.3308146,16.8026469,true,1542917349992
64,2223,52.3308146,16.8026469,true,1542917350218
64,2234,52.3309616,16.802746,true,1542917350398
65,2255,52.3309616,16.802746,true,1542917350777
65,2269,52.3309616,16.802746,true,1542917350978
65,2278,52.3309616,16.802746,true,1542917351015
66,2283,52.3309616,16.802746,true,1542917351222
66,2292,52.3311151,16.8028511,true,1542917351417
66,2293,52.3311151,16.8028511,true,1542917351628
66,2308,52.3311151,16.8028511,true,1542917351831
66,2307,52.3311151,16.8028511,true,1542917352037
67,2309,52.3311151,16.8028511,true,1542917352240
67,2314,52.3312699,16.8029625,true,1542917352442
67,2314,52.3312699,16.8029625,true,1542917352648
67,2322,52.3312699,16.8029625,true,1542917352859
67,2320,52.3312699,16.8029625,true,1542917353070
67,2333,52.3312699,16.8029625,true,1542917353275
67,2340,52.3314244,16.8030788,true,1542917353471
67,2340,52.3314244,16.8030788,true,1542917353683
67,2344,52.3314244,16.8030788,true,1542917353885
68,2348,52.3314244,16.8030788,true,1542917354092
68,2351,52.3314244,16.8030788,true,1542917354277
68,2336,52.3315801,16.8031969,true,1542917354492
68,2345,52.3315801,16.8031969,true,1542917354706
67,2353,52.3315801,16.8031969,true,1542917354892
67,2329,52.3315801,16.8031969,true,1542917355114
67,2327,52.3315801,16.8031969,true,1542917355332
67,2323,52.3317374,16.8033133,true,1542917355703
66,2309,52.3317374,16.8033133,true,1542917355975
66,2305,52.3317374,16.8033133,true,1542917355993
66,2295,52.3317374,16.8033133,true,1542917356135
66,2285,52.3317374,16.8033133,true,1542917356336
66,2279,52.3318933,16.8034285,true,1542917356537
65,2266,52.3318933,16.8034285,true,1542917356752
65,2263,52.3318933,16.8034285,true,1542917356954
65,2249,52.3318933,16.8034285,true,1542917357164
64,2241,52.3318933,16.8034285,true,1542917357362
64,2234,52.3320458,16.8035407,true,1542917357567
64,2226,52.3320458,16.8035407,true,1542917357775
64,2215,52.3320458,16.8035407,true,1542917357980
64,2210,52.3320458,16.8035407,true,1542917358183
63,2197,52.3320458,16.8035407,true,1542917358380
63,2193,52.3321947,16.8036513,true,1542917358588
63,2182,52.3321947,16.8036513,true,1542917358791
63,2174,52.3321947,16.8036513,true,1542917358998
62,2170,52.3321947,16.8036513,true,1542917359212
62,2161,52.3321947,16.8036513,true,1542917359401
62,2148,52.3323408,16.80376,true,1542917359618
62,2146,52.3323408,16.80376,true,1542917359818
61,2133,52.3323408,16.80376,true,1542917360017
61,2126,52.3323408,16.80376,true,1542917360226
61,2114,52.3324831,16.8038664,true,1542917360558
61,2108,52.3324831,16.8038664,true,1542917360901
60,2100,52.3324831,16.8038664,true,1542917360980
60,2090,52.3324831,16.8038664,true,1542917361037
60,2083,52.3324831,16.8038664,true,1542917361243
60,2070,52.332624,16.8039668,true,1542917361441
59,2069,52.332624,16.8039668,true,1542917361654
59,2059,52.332624,16.8039668,true,1542917361854
59,2049,52.332624,16.8039668,true,1542917362058
59,2043,52.332624,16.8039668,true,1542917362242
58,2034,52.3327614,16.804068,true,1542917362461
58,2028,52.3327614,16.804068,true,1542917362672
58,2015,52.3327614,16.804068,true,1542917362879
58,2005,52.3327614,16.804068,true,1542917363086
58,2004,52.3327614,16.804068,true,1542917363274
57,1992,52.3328956,16.8041671,true,1542917363486
57,1986,52.3328956,16.8041671,true,1542917363695
57,1976,52.3328956,16.8041671,true,1542917363902
57,1968,52.3328956,16.8041671,true,1542917364110
56,1961,52.3328956,16.8041671,true,1542917364323
56,1953,52.3330271,16.8042653,true,1542917364513
56,1942,52.3330271,16.8042653,true,1542917364722
55,1935,52.3330271,16.8042653,true,1542917364923
55,1929,52.3330271,16.8042653,true,1542917365127
55,1920,52.3330271,16.8042653,true,1542917365335
55,1909,52.3331563,16.8043601,true,1542917365995
55,1899,52.3331563,16.8043601,true,1542917366018
54,1883,52.3331563,16.8043601,true,1542917366155
54,1883,52.3331563,16.8043601,true,1542917366358
54,1873,52.3332812,16.8044564,true,1542917366561
54,1862,52.3332812,16.8044564,true,1542917366765
53,1857,52.3332812,16.8044564,true,1542917366949
53,1852,52.3332812,16.8044564,true,1542917367178
53,1839,52.3332812,16.8044564,true,1542917367377
53,1838,52.3334047,16.8045489,true,1542917367581
53,1825,52.3334047,16.8045489,true,1542917367788
52,1817,52.3334047,16.8045489,true,1542917367992
52,1813,52.3334047,16.8045489,true,1542917368199
52,1806,52.3334047,16.8045489,true,1542917368410
52,1798,52.3335262,16.8046397,true,1542917368597
51,1782,52.3335262,16.8046397,true,1542917368803
51,1783,52.3335262,16.8046397,true,1542917369013
51,1784,52.3335262,16.8046397,true,1542917369215
51,1762,52.3336445,16.8047292,true,1542917369414
51,1769,52.3336445,16.8047292,true,1542917369620
50,1633,52.3336445,16.8047292,true,1542917369832
50,1507,52.3336445,16.8047292,true,1542917370036
50,1921,52.3336445,16.8047292,true,1542917370240
50,2440,52.3337596,16.8048205,true,1542917370438
49,2433,52.3337596,16.8048205,true,1542917370858
50,2579,52.3337596,16.8048205,true,1542917371023
51,2492,52.3337596,16.8048205,true,1542917371061
52,2535,52.3337596,16.8048205,true,1542917371263
53,2604,52.333876,16.8049118,true,1542917371463
55,2669,52.333876,16.8049118,true,1542917371669
57,2752,52.333876,16.8049118,true,1542917371851
58,2854,52.333876,16.8049118,true,1542917372080
60,2934,52.333876,16.8049118,true,1542917372291
62,3007,52.3340025,16.8050152,true,1542917372490
63,3110,52.3340025,16.8050152,true,1542917372703
65,3182,52.3340025,16.8050152,true,1542917372909
67,3273,52.3340025,16.8050152,true,1542917373118
69,3351,52.3340025,16.8050152,true,1542917373318
70,3435,52.3341434,16.8051514,true,1542917373518
72,3523,52.3341434,16.8051514,true,1542917373730
75,3623,52.3341434,16.8051514,true,1542917373934
76,3624,52.3341434,16.8051514,true,1542917374138
76,3670,52.3341434,16.8051514,true,1542917374340
76,3726,52.3342965,16.8053194,true,1542917374571
77,3703,52.3342965,16.8053194,true,1542917374756
77,3711,52.3342965,16.8053194,true,1542917374965
76,3709,52.3342965,16.8053194,true,1542917375170
76,3697,52.3342965,16.8053194,true,1542917375367
76,3722,52.3344506,16.8055142,true,1542917375779
76,3682,52.3344506,16.8055142,true,1542917375982
75,3677,52.3344506,16.8055142,true,1542917376013
75,3651,52.3344506,16.8055142,true,1542917376171
75,3630,52.3344506,16.8055142,true,1542917376385
74,3627,52.3346026,16.8057148,false,1542917376589
74,3614,52.3346026,16.8057148,false,1542917376797
74,3575,52.3346026,16.8057148,false,1542917376994
72,3493,52.3346026,16.8057148,false,1542917377200
70,3398,52.3347432,16.805918,false,1542917377403
67,3274,52.3347432,16.805918,false,1542917377611
65,3126,52.3347432,16.805918,false,1542917377806
62,3005,52.3347432,16.805918,false,1542917378017
59,2853,52.3347432,16.805918,false,1542917378223
54,2716,52.3348697,16.8061091,false,1542917378420
52,2568,52.3348697,16.8061091,false,1542917378600
49,2427,52.3348697,16.8061091,false,1542917378835
46,2259,52.3348697,16.8061091,false,1542917379037
43,2143,52.3348697,16.8061091,false,1542917379243
40,2010,52.3349771,16.8062575,false,1542917379444
38,1879,52.3349771,16.8062575,false,1542917379654
35,1759,52.3349771,16.8062575,false,1542917379859
33,1627,52.3349771,16.8062575,false,1542917380056
30,1493,52.3349771,16.8062575,false,1542917380264
28,1371,52.3350526,16.8063563,true,1542917380641
27,1312,52.3350526,16.8063563,true,1542917380786
27,1229,52.3350526,16.8063563,true,1542917381007
27,1186,52.3350526,16.8063563,true,1542917381077
26,1232,52.3350526,16.8063563,true,1542917381269
25,1930,52.335109,16.8064262,true,1542917381482
25,1885,52.335109,16.8064262,true,1542917381696
25,1906,52.335109,16.8064262,true,1542917381898
24,1869,52.335109,16.8064262,true,1542917382109
24,1844,52.335109,16.8064262,true,1542917382311
24,1801,52.3351581,16.8064952,true,1542917382508
23,1765,52.3351581,16.8064952,true,1542917382720
23,1740,52.3351581,16.8064952,true,1542917382924
22,1712,52.3351581,16.8064952,true,1542917383132
22,1672,52.3351581,16.8064952,true,1542917383340
21,1635,52.3352049,16.8065573,true,1542917383544
21,1618,52.3352049,16.8065573,true,1542917383745
20,1593,52.3352049,16.8065573,true,1542917383952
20,1546,52.3352049,16.8065573,true,1542917384130
20,1508,52.3352049,16.8065573,true,1542917384362
19,1486,52.3352441,16.806615,true,1542917384563
19,1454,52.3352441,16.806615,true,1542917384770
18,1421,52.3352441,16.806615,true,1542917384977
18,1438,52.3352441,16.806615,true,1542917385178
18,1404,52.3352441,16.806615,true,1542917385385
18,1374,52.3352758,16.8066698,true,1542917385827
18,1384,52.3352758,16.8066698,true,1542917385981
